complex 1819 1
membrane 466 1
cell 207 0
obsolete 166 0
protein 148 4
type 142 21
component 119 0
integrin 115 0
vesicle 108 0
body 107 7
factor 99 0
nuclear 98 0
host 93 0
receptor 89 0
mitochondrial 82 0
plasma 74 0
outer 69 0
viral 67 0
lumen 66 0
part 65 1
synthase 65 0
dna 62 0
cytoplasmic 62 4
beta1 62 0
reticulum 61 0
side 61 5
ligase 61 0
golgi 59 0
collagen 55 0
chromosome 52 0
transport 52 0
endoplasmic 52 0
2 49 2
ubiquitin 49 0
ii 48 0
i 47 0
transporting 47 0
inner 47 0
polymerase 46 0
rna 46 0
granule 46 0
transcription 46 0
core 45 0
alpha 43 1
subunit 42 0
plastid 42 0
microtubule 42 0
integral 40 0
junction 40 0
ring 39 1
1 38 1
thylakoid 38 0
kinase 38 0
spindle 38 1
chloroplast 37 0
proton 37 0
intrinsic 36 0
chain 36 0
gamma 36 0
trimer 36 0
dehydrogenase 35 0
organelle 35 0
proteasome 34 0
3 33 4
channel 33 0
particle 33 0
atp 33 0
atpase 32 0
alphav 31 0
extrinsic 31 0
basal 31 2
endosome 31 0
tip 30 0
beta 30 0
iii 30 0
matrix 30 0
filament 30 0
clathrin 30 0
beta3 30 0
flagellum 29 0
associated 29 1
capsid 29 0
extracellular 28 0
septin 28 0
pole 28 0
c 27 0
wall 27 0
region 27 0
cytosolic 26 0
network 26 0
myosin 26 0
mitotic 26 0
projection 25 0
fiber 25 1
immunoglobulin 25 2
vacuole 24 0
v 23 4
growth 23 16
envelope 23 0
cyclin 23 0
intermediate 22 0
4 21 0
vacuolar 20 0
light 20 27
laminin 20 0
space 20 0
containing 20 0
scf 20 0
regulatory 20 0
snrnp 20 0
t 19 1
bacterial 19 1
subcomplex 19 0
respiratory 19 8
dense 19 1
dependent 19 4
nucleus 19 0
interleukin 19 0
acid 19 2
cisterna 19 0
acetyltransferase 19 0
heterochromatin 18 0
b 18 0
icosahedral 18 0
replication 18 0
phosphatase 18 0
er 18 0
actin 18 0
reductase 18 0
syntaxin 17 0
muscle 17 6
histone 17 0
small 17 0
transporter 17 0
axonemal 17 0
apical 17 1
ribosomal 17 0
site 17 0
cellular 16 9
external 16 2
catalytic 16 2
layer 16 0
dendritic 16 1
binding 16 0
cortex 16 0
axon 16 0
inhibitor 16 0
compartment 15 0
glutamate 15 0
alpha9 15 0
pre 15 1
domain 15 0
trna 15 0
harvesting 15 0
mrna 15 0
intracellular 15 0
synaptic 15 0
large 15 0
ciliary 15 0
coat 15 0
phosphate 15 0
tubulin 15 0
zone 14 0
lysosomal 14 0
trans 14 0
contractile 14 2
pore 14 0
lumenal 14 0
terminal 14 1
cytoplasm 14 0
g 13 2
translation 13 0
cytoskeleton 13 0
coated 13 0
dynein 13 0
nucleotide 13 0
25 13 0
cortical 13 0
periplasmic 13 0
sperm 13 0
presynaptic 13 0
density 13 12
end 13 0
platelet 13 0
genome 13 0
central 13 0
sculpted 13 1
bcl 13 0
directed 13 0
iv 13 0
chromatin 13 0
bud 13 0
like 13 13
cap 13 0
snap 13 0
left 12 4
p 12 2
alpha4 12 0
coa 12 0
right 12 5
neck 12 0
spliceosomal 12 0
photosystem 12 0
bounded 12 0
enzyme 12 12
initiation 12 0
smooth 12 1
5 11 0
h 11 4
lipid 11 0
chromatophore 11 0
synaptobrevin 11 0
center 11 0
bouton 11 0
endocytic 11 0
condensed 11 1
recognition 11 0
lateral 11 6
repair 11 2
ventral 11 5
methyltransferase 11 0
specific 11 1
organellar 11 0
class 11 0
eukaryotic 11 0
cyanelle 11 0
repressor 10 0
carboxylase 10 0
dendrite 10 0
phosphatidylinositol 10 0
apparatus 10 0
primary 10 0
meiotic 10 0
tail 10 0
structure 10 3
ribonucleoprotein 10 0
spine 10 0
apc 10 0
dinoflagellate 10 0
pyruvate 10 0
septum 10 0
virus 10 0
disc 10 0
adaptor 10 0
6 9 0
f 9 2
n 9 0
alpha6 9 0
alpha3 9 0
neuromuscular 9 0
fatty 9 1
medial 9 4
lipoprotein 9 0
alphaiib 9 0
protocadherin 9 0
jkappa 9 0
band 9 0
based 9 0
rbp 9 0
mating 9 11
system 9 0
other 9 0
derived 9 0
adherens 9 0
mannosyltransferase 9 0
stroma 9 0
surface 9 4
u12 9 0
synapse 9 0
spliceosome 9 0
ribonuclease 9 0
tube 9 0
cone 9 0
m 8 2
hyphal 8 0
phagocytic 8 0
alpha5 8 0
intermembrane 8 0
neuron 8 0
holoenzyme 8 0
late 8 1
early 8 0
excision 8 0
active 8 4
polytene 8 0
assembly 8 0
rough 8 1
succinate 8 0
base 8 0
iga 8 0
array 8 0
ion 8 0
fungal 8 0
post 8 1
gated 8 0
rod 8 0
grb2 8 0
peroxisome 8 0
cuticulin 8 0
plaque 8 0
transmembrane 8 0
nucleoid 8 0
multivesicular 8 0
plate 8 0
bundle 8 0
storage 8 0
cuticle 8 0
u2 8 0
organism 8 3
fraction 8 0
link 8 0
kinetochore 8 0
factory 8 0
anchored 7 0
7 7 0
sarcoplasmic 7 0
lamellar 7 0
cohesin 7 0
secretory 7 0
spore 7 0
lewy 7 0
cup 7 1
canal 7 0
lamina 7 0
somatic 7 0
endospore 7 0
signal 7 0
cilium 7 0
stalk 7 0
serine 7 0
transforming 7 0
sheath 7 0
interferon 7 0
chromoplast 7 0
insulin 7 0
1a 7 0
psii 7 0
signaling 7 0
secretion 7 0
catenin 7 0
activating 7 0
mannose 7 0
ribosome 7 0
cleavage 7 0
segment 7 0
tissue 7 0
organizing 7 0
germ 7 2
prospore 7 0
contact 7 3
photoreceptor 7 0
edge 7 1
potassium 7 0
box 7 0
beta4 7 0
beta2 7 0
dnab 7 0
dnaa 7 0
cd47 7 0
substrate 7 0
mycolate 7 0
transglutaminase 7 0
inclusion 7 0
d 6 10
osteopontin 6 0
o 6 0
x 6 1
export 6 0
cis 6 0
dioxygenase 6 0
filopodium 6 0
homodimeric 6 0
calcium 6 0
pair 6 0
forming 6 0
amyloplast 6 0
iron 6 0
preribosome 6 0
circulating 6 0
grain 6 0
adhesion 6 0
glial 6 0
step 6 0
activator 6 0
dolichyl 6 0
activin 6 0
kinesin 6 0
egfr 6 0
nad 6 0
diphosphate 6 0
kv4.2 6 0
coupled 6 0
autophagosome 6 0
peroxisomal 6 0
non 6 14
portion 6 0
nucleolar 6 0
ap 6 0
plant 6 5
sex 6 4
importin 6 0
adpg 6 0
pyrophosphorylase 6 0
coupling 6 0
postsynaptic 6 0
recycling 6 0
helicase 6 0
acrosomal 6 0
vi 6 0
transferase 6 0
tubular 6 1
thrombospondin 6 0
growing 6 0
telomere 5 0
dimeric 5 0
stereocilia 5 0
l 5 1
polarisome 5 0
exosome 5 0
pilus 5 0
etioplast 5 0
alpha7 5 0
element 5 0
tead 5 0
involved 5 0
mossy 5 0
actomyosin 5 0
centromeric 5 0
germline 5 0
sodium 5 0
brca1 5 0
symbiont 5 0
cdk2 5 0
positive 5 2
autophagosomal 5 0
activated 5 0
recombination 5 0
mhc 5 0
peptidase 5 0
igm 5 0
internal 5 1
perinuclear 5 0
nucleosome 5 0
stromal 5 0
leading 5 0
primosome 5 0
preinitiation 5 0
female 5 16
virion 5 0
shaft 5 0
polar 5 1
omegasome 5 0
microvillus 5 0
rad6 5 0
inflammasome 5 0
lysosome 5 0
elongation 5 0
escrt 5 0
transcriptional 5 0
e3 5 0
shc 5 0
fibril 5 0
fc 5 0
ib 5 0
clamp 5 0
smn 5 0
high 5 9
peripheral 5 1
glycoprotein 5 0
snornp 5 0
chaperone 5 0
dnac 5 0
secondary 5 3
bridge 5 0
mitochondrion 5 0
telomeric 5 0
voltage 5 0
xl 5 0
antenna 5 0
interphase 5 0
fibronectin 5 0
fibrinogen 4 0
s 4 0
anchoring 4 0
deoxyribonuclease 4 0
longitudinal 4 0
hormone 4 2
alpha2 4 0
alpha1 4 0
multienzyme 4 0
neuronal 4 0
inhibitory 4 0
plasmodesmatal 4 0
erbb4 4 0
oligosaccharyltransferase 4 0
two 4 1
yap 4 0
inhibin 4 0
lid 4 0
psi 4 0
nucleolus 4 0
myelin 4 0
ire1 4 0
attachment 4 1
adenylyltransferase 4 0
symbiosome 4 0
procollagen 4 0
heavy 4 0
sensu 4 5
sieve 4 0
ascus 4 0
max 4 0
cdk1 4 0
hops 4 0
cassette 4 0
plasmodesma 4 0
nitrogenase 4 0
pollen 4 0
endobrevin 4 0
palmitoyltransferase 4 0
synthetase 4 0
12 4 0
13 4 0
16 4 0
stereocilium 4 0
maml3 4 0
maml2 4 0
igd 4 0
synembrin 4 0
rdna 4 0
checkpoint 4 0
myotube 4 0
vii 4 0
aaa 4 0
ribulose 4 0
abc 4 0
aca 4 0
periphery 4 0
release 4 0
bisphosphate 4 0
glycine 4 0
nadh 4 0
basolateral 4 0
rhoptry 4 0
proline 4 0
complexin 4 0
kv4.3 4 0
telomerase 4 0
phosphofructokinase 4 0
astral 4 0
desmosome 4 0
dimer 4 0
cellulose 4 0
negative 4 2
editing 4 0
electron 4 0
transfer 4 2
cofactor 4 0
microsome 4 0
a1 4 0
vegf 4 0
peribacteroid 4 0
microbody 4 0
anterior 4 6
iqgap1 4 0
hyaline 4 0
fork 4 0
starch 4 0
tfiih 4 0
rhabdomere 4 0
sos 4 0
oxidase 4 0
plus 4 1
nf 4 0
beta5 4 0
methyl 4 0
centrosomal 4 0
fyn 4 0
cation 4 0
translocon 4 0
caudal 4 2
posteriolateral 4 0
sm 4 0
v0 4 0
v1 4 0
v4 4 0
v7 4 0
sector 4 0
acetylcholine 4 0
collar 4 0
cd151 4 0
lipoamide 4 0
bloc 4 0
targeting 4 0
kappab 3 0
e 3 2
flavoprotein 3 0
tho 3 0
z 3 0
excitatory 3 0
gpi 3 0
ferritin 3 0
translocase 3 0
subcompartment 3 0
nadph 3 0
focus 3 1
clp 3 0
gut 3 0
alpham 3 0
minor 3 0
tanycyte 3 0
chloride 3 0
tri 3 0
aminobutyric 3 0
radial 3 1
creatine 3 0
cytochrome 3 0
attack 3 0
cvt 3 0
fibrillar 3 0
diaphragm 3 0
hydrocarbon 3 0
vamp4 3 0
melanosome 3 0
hydrogen 3 0
tcf7l2 3 0
aryl 3 0
decaprenyl 3 0
equatorial 3 0
proximal 3 1
intraciliary 3 0
major 3 0
udp 3 0
unicellular 3 1
lyase 3 0
stack 3 0
gtpase 3 0
efflux 3 0
oxoglutarate 3 0
transition 3 0
esterosome 3 0
cysteine 3 0
chromaffin 3 0
phosphotransferase 3 0
methionine 3 0
u4atac 3 0
hemidesmosome 3 0
rnase 3 0
septate 3 0
holo 3 0
prespliceosome 3 0
chop 3 0
loading 3 0
aleurone 3 0
encoded 3 0
smad3 3 0
mad 3 0
smad2 3 0
cdk6 3 0
cdk4 3 0
inducing 3 0
trichome 3 0
mucus 3 0
condensin 3 0
keratin 3 0
stator 3 0
patch 3 0
isoamylase 3 0
processing 3 0
male 3 17
1b 3 0
polyhedral 3 0
middle 3 0
transverse 3 1
papilla 3 0
scar 3 0
derivative 3 0
ige 3 0
igg 3 0
biofilm 3 0
encapsulating 3 0
horsetail 3 0
dpp6 3 0
tight 3 1
u6atac 3 0
death 3 0
branch 3 0
coagulation 3 0
pool 3 0
atf4 3 0
replicative 3 0
collateral 3 0
extrachromosomal 3 0
rfc 3 0
shell 3 0
isocitrate 3 0
distal 3 2
acidocalcisome 3 0
macropinocytic 3 0
rad51c 3 0
polyketide 3 0
pronucleus 3 0
cenp 3 0
hrd1p 3 0
complement 3 0
stimulating 3 0
chromocenter 3 0
threonine 3 0
ternary 3 0
tricarboxylic 3 0
monolayer 3 0
acyl 3 0
gaba 3 0
import 3 0
decarboxylase 3 0
midzone 3 0
stress 3 4
sumo 3 0
retromer 3 0
endolysosome 3 0
microneme 3 0
acetyl 3 0
b2 3 0
pyrophosphate 3 0
icn1 3 0
d1 3 0
inward 3 0
foot 3 0
cf 3 0
cytosol 3 0
tfiiib 3 0
endopeptidase 3 0
proplastid 3 0
piece 3 0
shp 3 0
mediator 3 0
origin 3 0
myofibril 3 0
nodule 3 0
ix 3 0
cycle 3 0
terminus 3 0
synaptotagmin 3 0
nucleoplasm 3 0
furrow 3 0
ns 3 0
beta6 3 0
beta7 3 0
hydrogenase 3 0
delta 3 0
glycosome 3 0
eisosome 3 0
old 3 1
node 3 0
u4 3 0
u5 3 0
u6 3 0
rectifier 3 0
azurophil 3 0
monoamine 3 0
striated 3 3
protease 3 0
ubiquinone 3 0
cd63 3 0
xi 3 0
lamellipodium 3 0
motile 3 0
ecdysone 3 0
yolk 3 0
chylomicron 3 0
copi 3 0
precatalytic 3 0
connecting 3 0
saga 3 0
replisome 3 0
carbamoyltransferase 3 0
hair 3 1
cd9 3 0
half 2 0
spoke 2 0
perinucleolar 2 0
glycocalyx 2 0
conjugating 2 0
invadopodium 2 0
0 2 0
8 2 0
9 2 0
cardiac 2 0
cdc20 2 0
xrcc2 2 0
ornithine 2 0
spanning 2 0
pcsk9 2 0
noxa 2 0
dynactin 2 0
glucose 2 2
tripartite 2 1
k 2 0
microfibril 2 0
y 2 1
degradosome 2 0
endosomal 2 0
methane 2 0
root 2 0
recombinase 2 0
pocket 2 0
precursor 2 0
inter 2 0
xvi 2 0
subpellicular 2 0
alphae 2 0
fibrillary 2 1
alphax 2 0
com 2 0
bacteria 2 0
pit 2 0
tertiary 2 0
uropod 2 0
acidic 2 1
erad 2 0
extrahaustorial 2 0
lck 2 0
extra 2 4
erbb2 2 0
erbb3 2 0
cluster 2 0
pml 2 0
amylin 2 0
theca 2 0
epidermal 2 0
monooxygenase 2 0
ergic 2 0
molecule 2 0
circle 2 0
ccr4 2 0
ankle 2 0
swi5 2 0
pseudopodium 2 0
oxide 2 0
macromolecular 2 2
ubc13 2 0
anxa2 2 0
brush 2 1
pric 2 0
pria 2 0
npl4 2 0
endomembrane 2 0
basement 2 0
anpr 2 0
adam15 2 0
maltose 2 0
sorting 2 0
hda 2 0
glyoxysomal 2 0
laminated 2 0
centrosome 2 0
carbon 2 0
junctional 2 0
magnesium 2 0
acetylglucosamine 2 0
bicellular 2 0
cleft 2 1
low 2 6
transcriptionally 2 0
cdc42 2 0
rab3a 2 0
sod1 2 0
nua4 2 0
point 2 0
kchip1 2 0
xiii 2 0
superoxide 2 0
spherule 2 0
chromosomal 2 0
macrophage 2 0
tal1 2 0
mind 2 0
euchromatin 2 0
neurofilament 2 0
serum 2 0
lyn 2 0
mis12 2 0
bre1 2 0
upstream 2 0
xvii 2 0
soluble 2 1
mei2 2 0
b800 2 0
mad2 2 0
mad1 2 0
brca2 2 0
basket 2 0
division 2 0
hook 2 0
sense 2 0
alkyl 2 0
mago 2 0
smad4 2 0
dps 2 0
heterodimer 2 0
scaffold 2 0
importing 2 0
mcm 2 0
phosphorus 2 0
utp 2 0
horn 2 0
topoisomerase 2 0
glutathione 2 0
plastoquinone 2 0
segmented 2 1
calmodulin 2 0
s100a8 2 0
molybdenum 2 0
23 2 0
scap 2 0
vti1a 2 0
reaction 2 0
holliday 2 0
fumarate 2 0
cytoskeletal 2 0
loop 2 0
densa 2 0
superfamily 2 0
spectrin 2 0
tyrosine 2 0
calyx 2 0
ethanolamine 2 0
piccolo 2 0
axoneme 2 0
ste12p 2 0
anaphase 2 0
nucleocapsid 2 0
epsilon 2 0
ascospore 2 0
nonmotile 2 0
terminase 2 0
astrocyte 2 0
enriched 2 0
iscs 2 0
dpp10 2 0
heterotrimeric 2 0
merozoite 2 0
classical 2 0
vcp 2 0
ebp 2 0
pericentric 2 0
focal 2 0
insertion 2 1
atf1 2 0
dig1p 2 0
ruffle 2 0
traf2 2 0
copii 2 0
egg 2 0
processivity 2 0
sulfur 2 0
docking 2 0
notch 2 0
bacteroid 2 0
exchanging 2 0
corona 2 0
rpd3l 2 0
pmt2p 2 0
derlin 2 0
pkm2 2 0
ddb1 2 0
capping 2 0
pmt3p 2 0
exchange 2 0
intercellular 2 0
signalosome 2 0
leucoplast 2 0
acetylglucosaminyltransferase 2 0
satellite 2 0
pmt1p 2 0
troponin 2 0
family 2 0
toll 2 0
apex 2 0
rim 2 0
rad51b 2 0
rad51d 2 0
tgfbeta 2 0
vitronectin 2 0
xviii 2 0
crista 2 0
creb 2 0
pmt5p 2 0
slit 2 1
alveolar 2 0
degradation 2 0
phagolysosome 2 0
ino80 2 0
cable 2 0
border 2 0
new 2 1
larval 2 1
amino 2 0
kv4.1 2 0
chaperonin 2 0
molybdopterin 2 0
exon 2 0
taste 2 12
microparticle 2 0
prefoldin 2 0
microspike 2 0
rings 2 0
caveola 2 0
arm 2 0
gram 2 0
lpp3 2 0
clcf1 2 0
granular 2 1
senescence 2 0
deacetylase 2 0
tetrad 2 0
ufd1 2 0
glycerol 2 0
pcna 2 0
nov 2 0
risc 2 0
icam 2 0
raft 2 0
tcf3 2 0
delta1 2 0
dismutase 2 0
viii 2 0
invasive 2 3
double 2 0
exodeoxyribonuclease 2 0
chitosome 2 0
damage 2 2
diaa 2 0
axonal 2 0
presequence 2 0
cyclic 2 1
elaioplast 2 0
tubule 2 0
biotin 2 0
sugar 2 1
triphosphate 2 0
parallel 2 2
ketoglutarate 2 0
sheet 2 0
hydrogenosome 2 0
selective 2 0
photosynthetic 2 0
dihydrolipoamide 2 0
a2 2 0
a3 2 0
untranslated 2 0
bad 2 1
geranylgeranyltransferase 2 0
icn4 2 0
b4 2 0
trailing 2 0
fluid 2 4
ab 2 0
c1 2 0
icn3 2 0
c2 2 0
icn2 2 0
microsporidian 2 0
90s 2 0
r2tp 2 0
d2 2 0
d3 2 0
sec 2 0
dihydrolipoyl 2 0
y14 2 0
tfiiic 2 0
e1 2 0
e2 2 0
hippocampal 2 0
snare 2 0
sigma 2 0
plasm 2 0
formin 2 0
chlorosome 2 0
canaliculus 2 0
h3 2 0
h4 2 0
zymogen 2 0
bid 2 0
tfiid 2 0
bim 2 0
archaeal 2 0
hu 2 0
bacterium 2 0
calcineurin 2 0
acetate 2 0
u11 2 0
cajal 2 0
ribonucleoside 2 0
bcl3 2 0
oxidation 2 0
snf 2 0
ubr2 2 0
split 2 5
prothylakoid 2 0
ercc1 2 0
ercc4 2 0
lytic 2 0
hemoglobin 2 0
beta8 2 0
nucleoplasmic 2 0
control 2 0
pi 2 0
glycosylphosphatidylinositol 2 0
subtelomeric 2 0
dnat 2 0
alpha11 2 0
secretase 2 0
methanofuran 2 0
paxillin 2 0
scrib 2 0
phagosome 2 0
srebp 2 0
dosage 2 0
minus 2 2
knob 2 0
skeletal 2 0
copper 2 0
ribose 2 0
puma 2 0
sin3 2 0
single 2 1
cd20 2 0
glutamyl 2 0
noc2p 2 0
swi 2 0
loader 2 0
formyl 2 0
heterotetrameric 2 0
thin 2 0
cellubrevin 2 0
lmo2 2 0
gap 2 0
gas 2 1
glucosidase 2 0
bipolar 2 0
compensation 2 0
alphapdgfr 2 0
accessory 2 0
xv 2 0
mll1 2 0
surrounded 2 0
hemi 2 0
guanyl 2 0
xii 2 0
xiv 2 0
stranded 2 0
metaphase 2 0
linc 2 0
carrier 2 0
responsive 2 1
fenestra 1 0
sfrp2 1 0
kainate 1 0
tropomyosin 1 0
pick 1 0
recruiting 1 0
assemblon 1 0
arbuscule 1 0
spermatoproteasome 1 0
eif2 1 0
hydratase 1 0
set3 1 0
manchette 1 0
gli 1 0
gln 1 0
investment 1 0
neutral 1 1
circular 1 1
chrac 1 0
ectoplasm 1 0
apoplast 1 0
mpp10 1 0
scaffoldin 1 0
independent 1 0
xrcc1 1 0
xrcc3 1 0
galactosidase 1 0
gmp 1 0
holocomplex 1 0
caspase 1 0
mesaxon 1 0
after 1 0
egasyn 1 0
30kd 1 0
columella 1 0
fertilization 1 0
micropyle 1 0
xpc 1 0
gnt 1 0
blood 1 0
schwann 1 0
q 1 0
u 1 3
w 1 1
suberin 1 0
rapamycin 1 0
apolipoprotein 1 0
sulfate 1 0
tic 1 0
polyphosphate 1 0
mdtbc 1 0
exocyst 1 0
capitate 1 0
pan 1 0
chd 1 0
centralspindlin 1 0
area 1 5
pas 1 0
chi 1 0
cornified 1 0
tusa 1 0
cia 1 0
mdm30 1 0
cib 1 0
stimulatory 1 0
debranching 1 0
thrombin 1 0
intramolecular 1 0
perforation 1 0
ck2 1 0
prohibitin 1 0
dimethyl 1 0
formate 1 0
expanded 1 0
pcg 1 0
acyltransferase 1 0
carboxy 1 0
interband 1 0
trehalose 1 0
acroblast 1 0
emre 1 0
hrt3 1 0
basigin 1 0
ckm 1 0
sarcosine 1 0
lamellae 1 0
schmidt 1 0
dmap1 1 0
peg 1 1
cobalamin 1 0
per 1 0
amorphous 1 1
securin 1 0
adam23 1 0
unconventional 1 0
sc5b 1 0
birth 1 0
stromule 1 0
phragmoplast 1 0
alpha8 1 0
binary 1 0
spots 1 0
integration 1 0
acetylglycerophosphocholine 1 0
lipopolysaccharide 1 0
cmg 1 0
unrip 1 0
e12 1 0
toc 1 0
vms1p 1 0
protection 1 0
tog 1 0
pip2 1 0
monopolin 1 0
tor 1 0
iml1 1 0
alphal 1 0
linear 1 2
gelsolin 1 0
haus 1 0
pha 1 0
xxi 1 0
desmin 1 0
fimbrin 1 0
alphad 1 0
tpg 1 0
cnu 1 0
groel 1 0
goblet 1 0
ranvier 1 0
nebenkern 1 0
groes 1 0
messenger 1 0
cob 1 0
xxv 1 0
2.5 1 0
histidine 1 0
periphagosomal 1 0
prostatic 1 0
prc1 1 0
cullin 1 0
ezrin 1 0
deadlock 1 0
microdomain 1 0
cgrp 1 0
cdc48p 1 0
pip 1 0
e2f 1 0
bmal 1 0
arp2 1 0
pkcalpha 1 0
dbf4 1 0
trc 1 0
kininogen 1 0
fhl3 1 0
eyespot 1 0
fhl2 1 0
taurine 1 0
micropexophagy 1 0
ferredoxin:thioredoxin 1 0
peptidoglycan 1 0
crystalloid 1 0
perineuronal 1 0
sumoylated 1 0
ftsbl 1 0
basic 1 0
speckle 1 0
dsif 1 0
vitelline 1 0
dnf1p 1 0
ku80 1 0
telosome 1 0
crd 1 0
erf1 1 0
219 1 0
scarnp 1 0
multimeric 1 0
iridosome 1 0
plc 1 0
necklace 1 0
cry 1 0
carboxylate 1 0
ku70 1 0
ldl 1 0
directing 1 0
csk 1 0
csl 1 0
nup82 1 0
paf1 1 0
mutlalpha 1 0
muts 1 0
urease 1 0
tea1 1 0
schaffer 1 0
telethonin 1 0
rcaf 1 0
neuropeptide 1 0
convertase 1 0
pigment 1 0
repairosome 1 0
deazariboflavin 1 0
pp1 1 0
beaded 1 0
vanadium 1 0
diphosphokinase 1 0
oxidoreductase 1 0
sucrase 1 0
flotillin 1 0
cus 1 0
supraspliceosomal 1 0
dystrophin 1 0
pex14p 1 0
cntfr 1 0
quinolinate 1 0
dapk1 1 0
ha2 1 0
ha1 1 0
tfiiic2 1 0
tfiiic1 1 0
centromere 1 0
vesicular 1 0
synthesizing 1 0
methylthiol:coenzyme 1 0
polymeric 1 0
capsomere 1 0
swi2 1 0
hmgb1 1 0
recfor 1 0
rgp1 1 0
fcer2 1 0
basilar 1 0
prepilin 1 0
antagonist 1 0
lip 1 0
gch1 1 0
taf4b 1 0
heterodimeric 1 0
stability 1 0
pri 1 0
wash 1 0
weight 1 8
nucleotidase 1 0
prib 1 0
26s 1 0
mutsalpha 1 0
median 1 0
mmi1 1 0
somatodendritic 1 0
capsule 1 0
adam12 1 0
hsluv 1 0
annulate 1 0
intraperoxisomal 1 0
picln 1 0
tefb 1 0
rpb4 1 0
yes 1 0
rpb7 1 0
ydr131c 1 0
hdl 1 0
ptw 1 0
ferredoxin 1 0
wdr21 1 0
short 1 2
reducing 1 0
fibrils 1 0
adam3 1 0
adam2 1 0
perivitelline 1 0
adam1 1 0
prp19 1 0
adam8 1 0
met28 1 0
adam9 1 0
multi 1 5
dnmt1 1 0
cellulosome 1 0
met30 1 0
vta1 1 0
ssh1 1 0
steroid 1 0
pseudohyphal 1 0
trappii 1 0
hfe 1 0
interstitial 1 0
methanophenazine 1 0
rgs6 1 0
omega 1 0
latent 1 0
doublet 1 0
passenger 1 0
phosphoenolpyruvate 1 0
nfkb1 1 0
betaglycan 1 0
glucuronidase 1 0
carotenoid 1 0
divisome 1 0
gcn5 1 0
ctf18 1 0
drs2p 1 0
swr1 1 0
m2g10 1 0
ctf13 1 0
hha 1 0
tetrahydromethanopterin:coenzyme 1 0
auxin 1 0
initial 1 0
microsporocyte 1 0
organizer 1 0
ccz1 1 0
clip 1 0
sliding 1 0
intasome 1 0
ten1 1 0
rhino 1 0
compact 1 0
pym 1 0
par3 1 0
decarbonylase 1 0
mms2 1 0
hir 1 0
zona 1 0
eif3e 1 0
nhe3 1 0
gtr1 1 0
eif3m 1 0
gtr2 1 0
cdc37 1 0
mapkkk 1 0
puncta 1 0
island 1 0
sfr1 1 0
osmiophilic 1 0
tree 1 0
ragulator 1 0
eif4e 1 0
mre11 1 0
methylation 1 0
thiazole 1 0
tacc 1 0
sexine 1 0
mtrec 1 0
stacked 1 1
colony 1 0
inactivated 1 0
lsm 1 0
vps68 1 0
nua3 1 0
asap 1 0
principal 1 0
pat1 1 0
cdc73 1 0
kchip2 1 0
process 1 15
pex17p 1 0
nageotte 1 0
anaemia 1 0
autolysosome 1 0
kchip3 1 0
kchip4 1 0
interleukin4 1 0
vps55 1 0
individualization 1 0
lubac 1 0
earp 1 0
facit 1 0
clr6 1 0
mutlgamma 1 0
bilayer 1 0
paraspeckles 1 0
heterodisulfide 1 0
pellicle 1 0
tramp 1 0
mucin 1 0
chondroadherin 1 0
metallochaperone 1 0
haptoglobin 1 0
accepting 1 0
pituitary 1 0
lsd1 1 0
paranode 1 0
nitrite 1 0
meco 1 0
glutaminase 1 0
inad 1 0
nascent 1 0
porosome 1 0
exoneme 1 0
phosphomannomutase 1 0
histamine 1 0
tert 1 0
bodies 1 0
hydroxy 1 0
glucan 1 0
sec63 1 0
adhaerentia 1 0
sec62 1 0
zonula 1 0
sec61 1 0
bounding 1 0
ftsqbl 1 0
fizzy 1 0
pp2a 1 0
methylcrotonyl 1 0
effector 1 0
nodal 1 0
actrii 1 0
cue1 1 0
staga 1 0
clrc 1 0
trapp 1 0
insig 1 0
gemin3 1 0
excinuclease 1 0
gemin2 1 0
cutoff 1 0
polarized 1 0
cdc4 1 0
invertasome 1 0
septal 1 0
hydrolyzing 1 0
mis6 1 0
mis18 1 0
titin 1 0
trail 1 0
ryanodine 1 0
cingulum 1 0
hbs1 1 0
mesosome 1 0
flagellar 1 0
set1c 1 0
ikappab 1 0
ndufaf1 1 0
ambisense 1 0
emilin 1 0
nexin 1 0
mmxd 1 0
ikkalpha 1 0
amphisome 1 0
ssue 1 0
granum 1 0
hexameric 1 0
silencing 1 0
permease 1 0
transferring 1 0
trimethylamine 1 0
ssud 1 0
murein 1 0
retroviral 1 0
material 1 0
ask1 1 0
pof10 1 0
rcy1 1 0
sodium:potassium 1 0
macronucleus 1 0
thiouridylase 1 0
midbody 1 0
thick 1 0
tmprss7 1 0
cul8 1 0
mads 1 0
cul7 1 0
cul4 1 0
cul5 1 0
exomer 1 0
cul2 1 0
cul3 1 0
biosynthesis 1 0
lsm1 1 0
cul1 1 0
subapical 1 0
sensitive 1 5
plastoglobule 1 0
juxtaparanode 1 0
deuterosome 1 0
pyrenoid 1 0
mrg1 1 0
monomeric 1 0
machinery 1 0
shield 1 0
mage 1 0
kif3a 1 0
nucleocytoplasmic 1 0
pyroptosome 1 0
dot 1 0
perikaryon 1 0
torc2 1 0
banded 1 1
iqgap 1 0
torc1 1 0
axolemma 1 0
b875 1 0
apoptosome 1 0
phosphofructo 1 0
mat 1 0
endexine 1 0
cdk7 1 0
exocytic 1 0
within 1 0
dsl1p 1 0
mbf 1 0
maurer's 1 0
hydrolase 1 0
peristromal 1 0
cyst 1 0
syntenin 1 0
exospore 1 0
trappi 1 0
hemicellulose 1 0
phenylpropionate 1 0
nicotinamide 1 0
soss 1 0
main 1 0
forkhead 1 0
mcc 1 0
heterogeneous 1 0
lem3p 1 0
pellucida 1 0
anaerobic 1 2
strip 1 0
sgd1 1 0
chromatoid 1 0
oxygen 1 4
drm 1 0
polypeptide 1 0
linkers 1 0
pbaf 1 0
dolipore 1 0
caveolar 1 0
compass 1 0
dsc 1 0
interphotoreceptor 1 0
gyrus 1 0
astra 1 0
paraferritin 1 0
groove 1 0
creb1 1 0
lipoxygenase 1 0
doa10p 1 0
repeat 1 0
preincision 1 0
mer 1 0
immune 1 3
egfr:erbb2 1 0
met4 1 0
compound 1 1
podosome 1 0
dub 1 0
antiporter 1 0
regulation 1 4
sensory 1 2
nucleic 1 0
inos 1 0
proofreading 1 0
socket 1 0
costamere 1 0
insc 1 0
permeability 1 8
curi 1 0
nurf 1 0
nurd 1 0
s100a9 1 0
endoribonuclease 1 0
adventitious 1 0
apoptotic 1 1
spitzenkorper 1 0
esterase 1 0
10 1 0
11 1 0
micronucleus 1 0
14 1 0
15 1 0
18 1 0
mhf 1 0
filiform 1 0
quality 1 56
skp2 1 0
asymmetric 1 0
ecsit 1 0
20 1 0
winac 1 0
dolichol 1 0
fact 1 0
27 1 0
28 1 0
smurf 1 0
mononeme 1 0
centriole 1 0
map3k8 1 0
rack1 1 0
long 1 2
nmda 1 0
mis 1 0
riboside 1 0
free 1 0
destruction 1 0
dxr 1 0
enhanceosome 1 0
34 1 0
35 1 0
dendriole 1 0
pexophagosome 1 0
cdk12 1 0
vps4 1 0
cdk13 1 0
2a 1 0
2b 1 0
e.f.g 1 0
maml1 1 0
uniplex 1 0
necrosis 1 0
mismatch 1 0
nurs 1 0
klk3 1 0
aminoadipate 1 0
lucida 1 0
spike 1 0
bat3 1 0
barr 1 0
stripak 1 0
dom34 1 0
perichromatin 1 0
speck 1 0
dlc1 1 0
3m 1 0
ripoptosome 1 0
scintillon 1 0
dcp1 1 0
dcp2 1 0
malfgk2 1 0
dbird 1 0
4f 1 0
granal 1 0
aminobutyrate 1 0
chloroplastic 1 0
mast 1 0
prolamellar 1 0
hpa2 1 0
dystroglycan 1 0
nitrate 1 0
micrometer 1 0
elongase 1 0
b6f 1 0
tsc2 1 0
tsc1 1 0
immature 1 1
pof7 1 0
disulfide 1 0
pof9 1 0
autosome 1 0
fusome 1 0
pof3 1 0
pof5 1 0
pof6 1 0
spiny 1 1
pof1 1 0
pof2 1 0
pentameric 1 0
sulfopyruvate 1 0
spokehead 1 0
folding 1 0
igf 1 0
whole 1 1
igw 1 0
moz 1 0
bfa1 1 0
igy 1 0
igx 1 0
decoration 1 0
igz 1 0
dlg1 1 0
trichocyst 1 0
crest 1 0
keratohyalin 1 0
mpf 1 0
ihf 1 0
vav 1 0
utilization 1 0
filaments 1 0
b9d 1 0
iscu 1 0
sporoplasm 1 0
apicoplast 1 0
mpt 1 0
dig2p 1 0
remnant 1 0
iia 1 0
polysome 1 0
micropinosome 1 0
eaf 1 0
transnitrosylase 1 0
orthogonal 1 0
vcb 1 0
methanol 1 0
methylosome 1 0
innate 1 0
mrp 1 0
sting 1 0
fal1 1 0
evolving 1 0
sleeve 1 0
u2af 1 0
csf1r 1 0
gemin5 1 0
gemin4 1 0
gemin7 1 0
gemin6 1 0
msl 1 0
metaxin 1 0
phosphoceramide 1 0
axis 1 0
hcn2 1 0
nucleomorph 1 0
endonuclease 1 0
stn1 1 0
talin 1 0
propanediol 1 0
segregation 1 0
lhcia 1 0
dentate 1 0
cytoneme 1 0
commitment 1 0
gemini 1 0
cerebellar 1 0
tegument 1 0
carboxysome 1 0
polyadenylation 1 0
subplasmalemmal 1 0
cul4b 1 0
fanconi 1 0
spherical 1 1
transamidase 1 0
cul4a 1 0
k14 1 0
centriolar 1 0
incisure 1 0
ylr352w 1 0
ina 1 0
lhcib 1 0
eff 1 0
releasable 1 0
transportin 1 0
hcn4 1 0
anammoxosome 1 0
locus 1 0
vhr 1 0
germinal 1 0
integrator 1 0
thioglucosidase 1 0
ego 1 0
atg5 1 0
rab 1 0
microribbon 1 0
raf 1 0
aporeceptor 1 0
mutsbeta 1 0
pectic 1 0
ran 1 0
tbk1 1 0
kelch 1 0
monoxide 1 0
atf3 1 0
xanthophore 1 0
adenosine 1 0
atg1 1 0
myc 1 0
elongin 1 0
myb 1 0
magnoliophyta 1 0
acrosin 1 0
insoluble 1 1
msd1 1 0
rosette 1 0
eif 1 0
hypocone 1 0
phosphopyruvate 1 0
slime 1 0
multidrug 1 0
msba 1 0
tftc 1 0
targeted 1 0
micos 1 0
sacculus 1 0
citrate 1 0
diamine 1 0
reassembly 1 0
neurite 1 0
sulfoxide 1 0
cuticular 1 0
820 1 0
pathway 1 0
80s 1 0
sweet 1 0
ekc 1 0
oxidizing 1 0
neurosecretory 1 0
microvesicle 1 0
acf 1 0
pseudo3 1 0
ric1 1 0
rep 1 0
shrec 1 0
sarcolemma 1 0
res 1 0
katanin 1 0
ell 1 0
adp 1 0
nucleosomal 1 0
dubm 1 0
pkl1 1 0
nef3 1 0
activation 1 1
thorny 1 0
nephrocyte 1 0
joining 1 0
iminoacetate 1 0
acetylglucosaminephosphotransferase 1 0
casparian 1 0
endosperm 1 0
aes 1 0
subsynaptic 1 0
850 1 0
strand 1 0
pericanalicular 1 0
molecular 1 1
surveillance 1 0
glycolate 1 0
rich 1 0
isre 1 0
jam2 1 0
luminal 1 0
spo7 1 0
micro 1 0
annuli 1 0
mob1 1 0
tolc 1 0
pinceau 1 0
slik 1 0
extraorganismal 1 0
carbohydrate 1 3
desmotubule 1 0
tungsten 1 0
spectrosome 1 0
nic96 1 0
splicing 1 0
biphosphatase 1 0
nrd1 1 0
tmprss11e 1 0
internode 1 0
gstp1 1 0
yeast 1 3
coatomer 1 0
synaptonemal 1 0
exit 1 0
hedgehog 1 0
spot 1 0
silver 1 0
caax 1 0
ubiquinol 1 0
nelf 1 0
npbaf 1 0
lhciib 1 0
endocytotic 1 0
lhciia 1 0
top1 1 0
iswi 1 0
lhciid 1 0
pmt4p 1 0
lhciic 1 0
multipartite 1 1
provirus 1 0
erk 1 0
infected 1 0
npl4p 1 0
nem1 1 0
pcaf 1 0
angiogenin 1 0
a.p62 1 0
esc 1 0
isw1 1 0
anchor 1 1
rpd3s 1 0
gonadotropin 1 0
transhydrogenase 1 0
acetolactate 1 0
remodeling 1 0
ptex 1 0
antipodal 1 0
xxviii 1 0
atrip 1 0
rmrp 1 0
topo 1 0
tor2 1 0
mode 1 0
gata2 1 0
gata1 1 0
provwx 1 0
pten 1 0
net 1 0
msin3b 1 0
msin3a 1 0
alae 1 0
dehydrodolichyl 1 0
clock 1 0
rnp 1 0
desulfurase 1 0
tetraspanin 1 0
syndecan 1 0
moco 1 0
boundary 1 0
amp 1 0
intraconoid 1 0
sub1 1 0
tubulobulbar 1 0
ikke 1 0
sarcomere 1 0
ssrna 1 0
tricellular 1 0
crossbridge 1 0
43s 1 0
recq 1 0
varicosity 1 0
gin4 1 0
intercalated 1 0
hda1 1 0
annulus 1 0
endothelium 1 0
coating 1 1
ap1 1 0
pebow 1 0
trappiii 1 0
viroplasm 1 0
preprophase 1 0
droplet 1 0
rqc 1 0
crlf 1 0
antapex 1 0
curli 1 0
gins 1 0
shmoo 1 0
ubisch 1 0
peptide 1 0
coenzyme 1 0
parkin 1 0
flemming 1 0
transaminase 1 0
bard1 1 0
conoid 1 0
a:anp 1 0
cerf 1 0
lobed 1 1
multiprotein 1 0
dicing 1 0
baseplate 1 0
rsc 1 0
rsf 1 0
periplasm 1 0
methionyl 1 0
arc 1 0
ccaat 1 0
endothelial 1 0
mst2 1 0
nkx 1 0
isw1a 1 0
occluding 1 0
isw1b 1 0
polymerase:primase 1 0
pi3k 1 0
follicle 1 0
48s 1 0
nls 1 0
xanthine 1 0
asi 1 0
tumor 1 0
proteinaceous 1 0
karyomere 1 0
neurofibrillary 1 0
kappab2 1 0
sufu 1 0
rad18 1 0
importomer 1 0
enclosing 1 0
palade 1 0
rad17 1 0
p11 1 0
syp1 1 0
nms 1 0
mon1 1 0
herring 1 0
fibrous 1 0
semialdehyde 1 0
recurrent 1 1
atr 1 0
termination 1 0
glyoxysome 1 0
exosporium 1 0
rac1 1 0
epicone 1 0
p21 1 0
camp 1 0
overlap 1 1
alix 1 0
kinociliary 1 0
triglyceride 1 0
noc 1 0
rits 1 0
interchromatin 1 0
aminoacyl 1 0
symmetric 1 0
trimers 1 0
chorion 1 0
transcribed 1 0
adenosyltransferase 1 0
slx4 1 0
phenylalanine 1 0
resting 1 0
polycystin 1 0
slx1 1 0
fructose 1 0
bracelet 1 0
sculpture 1 0
megagametophyte 1 0
labyrinth 1 0
icat 1 0
microprocessor 1 0
dsrna 1 0
plau 1 0
rix1 1 0
rad51 1 0
pcr1 1 0
rad52 1 0
hypolemmal 1 0
ammonia 1 0
tectum 1 0
p50 1 0
rent 1 0
fak 1 0
alkanesulfonate 1 0
ddx3 1 0
far 1 3
dia2 1 0
plat 1 0
supernumerary 1 0
penta 1 0
chemotaxis 1 0
aster 1 0
limiting 1 0
p65 1 0
kms2 1 0
rzz 1 0
mastermind 1 0
calprotectin 1 0
phycobilisome 1 0
nsf 1 0
farnesyl 1 0
nsl 1 0
tenascin 1 0
natc 1 0
rnai 1 0
natb 1 0
nata 1 0
web 1 0
nonhomologous 1 0
hyaluranon 1 0
dystrobrevin 1 0
morf 1 0
pedicle 1 0
glycogen 1 0
phosphorylase 1 0
hsp90 1 0
hulc 1 0
nematocyst 1 0
grid 1 0
fancm 1 0
ada3 1 0
ada2 1 0
bassoon 1 0
disassembly 1 0
mature 1 1
simple 1 1
periciliary 1 0
hydrogen:potassium 1 0
cloud 1 0
organomineral 1 0
btucd 1 0
vimp 1 0
tangle 1 0
sarcoplasm 1 0
filtration 1 0
gait 1 2
ubc7 1 0
ipaf 1 0
elg1 1 0
stigma 1 0
syntrophin 1 0
ufo1 1 0
rrna 1 0
smad 1 0
symplast 1 0
ermes 1 0
periarbuscular 1 0
retrotranslocation 1 0
pbx1b 1 0
integrated 1 0
generative 1 0
nematosome 1 0
unencapsulated 1 0
ush2 1 0
gemmule 1 0
sas 1 0
fhf 1 0
kir2 1 0
cbp3p 1 0
sbf 1 0
a9 1 0
meprin 1 0
epicuticle 1 0
semaphorin 1 0
baf 1 0
kach 1 0
bak 1 0
b1 1 0
bam 1 0
b3 1 0
endonuclear 1 0
xxiv 1 0
bax 1 0
xxii 1 0
giant 1 0
grr1 1 0
actn4 1 0
promoting 1 0
sulfurtransferase 1 0
postsynapse 1 0
rasgap 1 0
c3 1 0
c5 1 0
occlusion 1 0
isgf3 1 0
smc6 1 0
braf35 1 0
mucocyst 1 0
smc5 1 0
myo2p 1 0
mutlbeta 1 0
rvs161p 1 0
trimeric 1 0
raps 1 0
processome 1 0
coiled 1 1
tubovesicular 1 0
farnesyltransferase 1 0
turret 1 0
tfiiie 1 0
food 1 0
skein 1 0
pirellulosome 1 0
cytoophidium 1 0
phosphopantothenoylcysteine 1 0
homodimer 1 0
fmn 1 0
homotetrameric 1 0
vimentin 1 0
cisternal 1 0
succinyltransferase 1 0
rpap3 1 0
survivin 1 0
garp 1 0
ribbon 1 0
g1 1 0
ionotropic 1 0
proteoglycan 1 0
sarcoglycan 1 0
ex 1 0
fe 1 0
shu 1 0
deep 1 2
pyk2 1 0
gator2 1 0
h2 1 0
intracristal 1 0
ldlr 1 0
shuttling 1 0
tle3 1 0
karyopherin 1 0
vrk3 1 0
related 1 0
csf1 1 0
h2a 1 0
e3karp 1 0
sin 1 0
macropinosome 1 0
cugbp1 1 0
intine 1 0
dityrosine 1 0
myogenin 1 0
bound 1 0
pyramidal 1 1
packaging 1 0
nbaf 1 0
anthranilate 1 0
ectexine 1 0
form 1 0
fused 1 1
antapical 1 0
sl1 1 0
cylinder 1 0
tfiie 1 0
hics 1 0
very 1 0
cbf3 1 0
cbf1 1 0
tfiif 1 0
excrescence 1 0
transferrin 1 0
ectopic 1 0
lignin 1 0
keops 1 0
tfiik 1 0
cytoproct 1 0
ski 1 0
sid2 1 0
inactive 1 2
fkbp12 1 0
phragmosome 1 0
ia 1 0
portal 1 0
tfiia 1 0
ig 1 10
tctn 1 0
lamella 1 0
lower 1 0
cadherin 1 0
rave 1 0
germination 1 0
edging 1 0
fascia 1 0
affinity 1 3
l2 1 0
smc 1 0
unlocalized 1 0
smd 1 0
leucosome 1 0
ligand 1 0
sphere 1 0
sulcus 1 0
cytostome 1 0
imidazoleglycerol 1 0
rvs167p 1 0
break 1 0
ku 1 0
porous 1 2
nlrp1 1 0
nlrp3 1 0
oral 1 0
ubr1 1 0
haustorium 1 0
megasporocyte 1 0
bmp 1 0
catsper 1 0
cyanosome 1 0
xxvi 1 0
synaptosome 1 0
dehydratase 1 0
kallikrein 1 0
nsk1 1 0
asexual 1 0
aspartate 1 0
ribozyme 1 0
ensheathing 1 0
calcitonin 1 0
wdr8 1 0
ms 1 0
myofilament 1 0
expansion 1 0
puff 1 0
mcm9 1 0
mcm8 1 0
pericentriolar 1 0
prominosome 1 0
ni 1 0
ercc2 1 0
dorsal 1 5
p1 1 0
p2 1 0
p3 1 0
p4 1 0
thioredoxin 1 0
p5 1 0
p6 1 0
wobble 1 0
nua3a 1 0
nua3b 1 0
microvillar 1 0
ste11 1 0
head 1 0
nitric 1 0
neurotrophic 1 0
bbsome 1 0
brahma 1 0
nucleated 1 1
pwp2p 1 0
src 1 0
kibra 1 0
srf 1 0
phospholamban 1 0
oaf1 1 0
hillock 1 0
granulocyte 1 0
mtor 1 0
methylphosphonate 1 0
chitosan 1 0
pr 1 0
mcs4 1 0
readily 1 0
upper 1 0
sim4 1 0
hydroperoxide 1 0
oric 1 0
cftr 1 0
vac17p 1 0
uev1a 1 0
pterinosome 1 0
alpha10 1 0
dnag 1 0
prophase 1 0
apicolateral 1 0
unc13 1 0
procapsid 1 0
rb 1 0
rc 1 0
atg16 1 0
bursicon 1 0
didemethyl 1 0
gerontoplast 1 0
atg12 1 0
bcl10 1 0
pericellular 1 0
rr 1 0
motor 1 4
sub 1 0
tumstatin 1 0
bleb 1 0
cbp6 1 0
elastin 1 0
helical 1 0
ceramide 1 0
chromatid 1 0
elongator 1 0
specificity 1 1
btk 1 0
sl 1 0
alanine 1 0
pump 1 0
u1 1 0
bunina 1 0
silent 1 0
u7 1 0
proteobacteria 1 0
mannosome 1 0
cd19 1 0
abin2 1 0
ukl1 1 0
adaxonal 1 0
147 1 0
bul 1 0
elastic 1 1
phosphodiesterase 1 0
wich 1 0
intercalary 1 0
amidotransferase 1 0
sulfite 1 0
virogenic 1 0
enclosed 1 0
cd53 1 0
reticularis 1 0
endostatin 1 0
mpp7 1 0
xxiii 1 0
noc3p 1 0
igf1r 1 0
lamin 1 0
separase 1 0
peripherin 1 0
abaxonal 1 0
chlamydospore 1 0
seh1 1 0
bending 1 0
cd40 1 0
inhibiting 1 0
169 1 0
lid2 1 0
phosphohistidine 1 0
epiplasm 1 0
noc4p 1 0
mmp14 1 0
potassium:proton 1 0
pyrroline 1 0
shaped 1 38
170 1 0
cd74 1 0
inversin 1 0
proteinoplast 1 0
kinocilium 1 0
guanylate 1 0
cytolytic 1 0
paranodal 1 0
zeta 1 0
xylanosome 1 0
noc1p 1 0
adrenomedullin 1 0
nsfl1c 1 0
xa 1 0
aminotransferase 1 0
exportin 1 0
phosphoribosylaminoimidazole 1 0
intron 1 0
pairing 1 0
migration 1 0
leaflet 1 0
vac8p 1 0
polkadots 1 0
xx 1 0
xy 1 0
oxobutanoate 1 0
held 1 0
yb 1 0
ucc1 1 0
enterobactin 1 0
ost 1 0
presynapse 1 0
cd95 1 0
mll3 1 0
fbxw7 1 0
ndc80 1 0
mitosome 1 0
sublamina 1 0
cop9 1 0
mll5 1 0
mutator 1 0
corvet 1 0
immunological 1 0
protrusion 1 0
phase 1 6
snt2c 1 0
lysp100 1 0
connexon 1 0
deaminase 1 0
vascular 1 0
coma 1 0
sad1 1 0
ampa 1 0
oncostatin 1 0
gdp 1 0
cd81 1 0
cd82 1 0
kinetoplast 1 0
tuft 1 0
sexual 1 0
subrhabdomeral 1 0
cdc50p 1 0
weak 1 0
get 1 0
riboflavin 1 0
annular 1 0
nherf 1 0
megasome 1 0
tec1p 1 0
restart 1 0
forespore 1 0
narghi 1 0
rhp57 1 0
leaf 1 1
saf1 1 0
rhp55 1 0
aminodeoxychorismate 1 0
cd98 1 0
resolvase 1 0
das1 1 0
galectin 1 0
located 1 1
nop14p 1 0
m1a 1 0
robo 1 0
norc 1 0
incipient 1 0
mub1 1 0
polysomal 1 0
isomaltase 1 0
bub3 1 0
exine 1 0
chelatase 1 0
bub1 1 0
bub2 1 0
glomerular 1 0
barrier 1 0
nos2 1 0
isopropylmalate 1 0
ca3 1 0
hydrogenosomal 1 0
pinosome 1 0
pdx1 1 0
cyclase 1 0
chiasma 1 0
climbing 1 0
macab 1 0
aggresome 1 0
weibel 1 0
aim2 1 0
tam 1 0
tap 1 0
filamentous 1 1
sulcal 1 0
xix 1 0
tat 1 0
lanterman 1 0
inositol 1 0
tendon 1 0
brisc 1 0
supercomplex 1 0
pik3r1 1 0
pleated 1 0
rootlet 1 0
dash 1 0
discoidal 1 0
gid 1 0
aip1 1 0
ckn1 1 0
xxvii 1 0
caf 1 0
cak 1 0
seqa 1 0
retrotransposon 1 0
cyr61 1 0
carbamoyl 1 0
macrolide 1 0
mediated 1 0
tcr 1 0
snrna 1 0
nexine 1 0
midpiece 1 0
groups 1 0
bipartite 1 1
cbm 1 0
rsp5 1 0
lin7 1 0
response 1 12
periactive 1 0
value 0 435
relative 0 160
absolute 0 146
increased 0 105
decreased 0 102
sensitivity 0 87
function 0 50
reflex 0 35
concentration 0 27
temperature 0 27
fertility 0 27
composition 0 26
orientation 0 26
acuity 0 24
rate 0 23
visual 0 22
angle 0 22
threshold 0 22
auditory 0 20
color 0 18
activity 0 18
size 0 17
intensity 0 16
variability 0 16
shape 0 15
mass 0 15
dark 0 15
quantity 0 14
unit 0 13
pattern 0 13
red 0 12
volume 0 12
odor 0 12
brown 0 12
ability 0 12
radiation 0 12
substance 0 11
yellow 0 10
fertile 0 10
saturated 0 10
percentage 0 10
desaturated 0 10
length 0 10
frequency 0 10
toward 0 10
polarity 0 9
age 0 9
number 0 9
mislocalised 0 9
sterile 0 9
water 0 9
thickness 0 9
parts 0 9
duration 0 9
speed 0 9
semi 0 9
from 0 9
energy 0 8
viscosity 0 8
elasticity 0 8
yield 0 8
susceptibility 0 8
neoplastic 0 8
curved 0 8
memory 0 8
time 0 8
consistency 0 8
width 0 8
compatability 0 8
rotated 0 8
pressure 0 8
photosensitivity 0 8
height 0 8
consumption 0 8
efficiency 0 8
resistance 0 8
force 0 8
drug 0 8
blue 0 7
receptivity 0 7
irregular 0 7
flux 0 7
distance 0 7
disease 0 7
green 0 7
acceleration 0 7
amplitude 0 7
solid 0 6
locomotor 0 6
behavioral 0 6
tone 0 6
splayed 0 6
latency 0 6
elevation 0 6
strength 0 6
alternation 0 6
porosity 0 6
momentum 0 6
strain 0 6
posterior 0 6
stiffness 0 6
opacity 0 6
position 0 6
orange 0 6
temporal 0 6
impulse 0 6
ratio 0 6
diameter 0 6
life 0 6
work 0 6
power 0 6
span 0 6
occurence 0 5
acidity 0 5
flow 0 5
pink 0 5
symmetry 0 5
closure 0 5
magenta 0 5
occurrent 0 5
direction 0 5
triangular 0 5
purple 0 5
grey 0 5
cyan 0 5
violet 0 5
incidence 0 5
potential 0 5
term 0 5
litter 0 5
occurrence 0 5
physical 0 5
deviation 0 5
behavioural 0 5
curvature 0 5
urine 0 5
rhythym 0 5
normal 0 5
sound 0 5
sleep 0 4
pilosity 0 4
angular 0 4
saturation 0 4
convex 0 4
righting 0 4
handedness 0 4
mobility 0 4
fecundity 0 4
sterility 0 4
organismal 0 4
arousal 0 4
differentiated 0 4
continuant 0 4
adhesivity 0 4
processual 0 4
laterally 0 4
velocity 0 4
soil 0 4
charge 0 4
intercross 0 4
backcross 0 4
neurobehavioral 0 4
f1 0 4
f2 0 4
deciduous 0 4
tactile 0 4
spatial 0 4
wavelength 0 4
present 0 4
texture 0 4
numbers 0 4
coordination 0 4
variant 0 4
learning 0 4
invariant 0 4
regular 0 4
depth 0 4
liquid 0 4
conductivity 0 4
towards 0 4
configuration 0 4
spontaneous 0 3
phosphorylation 0 3
reproductive 0 3
object 0 3
herniated 0 3
branchiness 0 3
physiological 0 3
tendency 0 3
period 0 3
functionality 0 3
protruding 0 3
posteriorly 0 3
accumulation 0 3
trisomy 0 3
aplastic 0 3
incompatible 0 3
broken 0 3
coiling 0 3
radiopacity 0 3
solubility 0 3
medially 0 3
pigmentation 0 3
brightness 0 3
pseudohermaphrodite 0 3
pale 0 3
wetness 0 3
circumference 0 3
fragility 0 3
fatigability 0 3
flattened 0 3
electric 0 3
extent 0 3
avidity 0 3
mild 0 3
dose 0 3
turgor 0 3
viability 0 3
ventrally 0 3
tonicity 0 3
articulated 0 3
osmolarity 0 3
delayed 0 3
action 0 3
disposition 0 3
fluorescence 0 3
heart 0 3
brood 0 3
perimeter 0 3
heat 0 3
magnitude 0 3
virulence 0 3
insensitive 0 3
moderate 0 3
functional 0 3
motility 0 3
cyclicity 0 3
partially 0 3
irradiation 0 3
osmolality 0 3
misaligned 0 3
compatible 0 3
contractility 0 3
magnetism 0 3
distribution 0 3
flexibility 0 3
fewer 0 3
startle 0 3
waxiness 0 3
colored 0 3
dislocated 0 2
sporophytic 0 2
placement 0 2
poorly 0 2
edematous 0 2
pinna 0 2
alkali 0 2
piloerection 0 2
hyperresponsive 0 2
salt 0 2
threshability 0 2
straight 0 2
severe 0 2
persistence 0 2
lethal 0 2
discrimination 0 2
anteroventral 0 2
neural 0 2
vocalization 0 2
anteriorly 0 2
well 0 2
progressive 0 2
anterodorsal 0 2
gametophyte 0 2
pupillary 0 2
ovate 0 2
morphology 0 2
excretory 0 2
product 0 2
spinal 0 2
movement 0 2
hyporesponsive 0 2
touch 0 2
gestational 0 2
hybrid 0 2
ictal 0 2
defecation 0 2
genetics 0 2
metabolite 0 2
unnecessary 0 2
erect 0 2
flinch 0 2
absorption 0 2
relaxation 0 2
pubescent 0 2
shattering 0 2
abiotic 0 2
micronutrient 0 2
sloped 0 2
swallowing 0 2
placing 0 2
urination 0 2
ossified 0 2
tension 0 2
mislocalized 0 2
abdominal 0 2
away 0 2
emitting 0 2
pain 0 2
olfactory 0 2
suckling 0 2
hardness 0 2
circling 0 2
bright 0 2
bilateral 0 2
addictive 0 2
nutrient 0 2
rostral 0 2
insecticide 0 2
malignant 0 2
inverted 0 2
flooding 0 2
paralysed 0 2
electrolyte 0 2
acute 0 2
lanceolate 0 2
glutinous 0 2
intensivity 0 2
plane 0 2
qualitative 0 2
humidity 0 2
hypotrophic 0 2
chemical 0 2
parental 0 2
metabolic 0 2
sessile 0 2
hypertrophic 0 2
circulatory 0 2
displaced 0 2
arched 0 2
concave 0 2
em 0 2
count 0 2
aromatic 0 2
vigorous 0 2
necessity 0 2
soma 0 2
content 0 2
herbicide 0 2
rhythm 0 2
hue 0 2
macronutrient 0 2
postural 0 2
digestive 0 2
prepulse 0 2
balance 0 2
posterodorsal 0 2
heterochronic 0 2
maturity 0 2
lacks 0 2
vibrissae 0 2
lordosis 0 2
chronic 0 2
tolerance 0 2
oriented 0 2
arrested 0 2
blinking 0 2
mixed 0 2
dorsally 0 2
viable 0 2
aerobic 0 2
radially 0 2
regeneration 0 2
magnetic 0 2
corneal 0 2
necessary 0 2
sporophyte 0 2
molar 0 2
adhesive 0 2
flavor 0 2
extends 0 2
vertical 0 2
cold 0 2
inhibition 0 2
premature 0 2
drought 0 2
oblique 0 2
hypoplastic 0 2
defensive 0 2
radioactivity 0 2
intact 0 2
autonomic 0 2
extension 0 2
botany 0 2
proprioreception 0 2
out 0 2
gel 0 2
scatter 0 2
mortem 0 2
degenerate 0 2
healing 0 2
proboscis 0 2
offset 0 2
disomy 0 2
fragile 0 2
line 0 2
gametophytic 0 2
ocular 0 2
concealed 0 2
bouts 0 2
limb 0 2
obtuse 0 2
temparature 0 2
performance 0 2
episodic 0 1
tricuspidate 0 1
unconcentrated 0 1
ochre 0 1
poor 0 1
absent 0 1
incisiform 0 1
hyperelliptic 0 1
auriculate 0 1
sexually 0 1
orbicular 0 1
perforate 0 1
bronze 0 1
irritable 0 1
exposure 0 1
obovate 0 1
nonpolar 0 1
pigmented 0 1
inefficient 0 1
folded 0 1
areolate 0 1
cancellous 0 1
floury 0 1
recombinant 0 1
unserrated 0 1
platelike 0 1
bulbous 0 1
balanced 0 1
anteromedial 0 1
dorso 0 1
ovariohysterectomized 0 1
trinucleate 0 1
quiet 0 1
aggressive 0 1
curled 0 1
atrophied 0 1
ventrolaterally 0 1
blistered 0 1
blotchy 0 1
odorless 0 1
conspicuousness 0 1
phosphorescence 0 1
truncated 0 1
onset 0 1
accelerated 0 1
scaphoid 0 1
prepupal 0 1
dappled 0 1
tripodal 0 1
trapezoid 0 1
saddle 0 1
polyploid 0 1
good 0 1
undulate 0 1
multicellular 0 1
elongated 0 1
misrouted 0 1
waisted 0 1
anosmia 0 1
looseness 0 1
haplodiploid 0 1
sonic 0 1
constitutively 0 1
involute 0 1
evergreen 0 1
subovoid 0 1
lack 0 1
mucoid 0 1
umbonate 0 1
sparse 0 1
ballooning 0 1
loose 0 1
rotional 0 1
alignment 0 1
trabecular 0 1
radionuclide 0 1
ornamented 0 1
young 0 1
medium 0 1
duplicated 0 1
columnar 0 1
lilac 0 1
knobbled 0 1
hard 0 1
bullet 0 1
radiopaque 0 1
iridescent 0 1
multiple 0 1
mobile 0 1
autopolyploid 0 1
rhythmic 0 1
versus 0 1
quadrangular 0 1
vermilion 0 1
overlapped 0 1
peramorphic 0 1
refractory 0 1
indifference 0 1
immortal 0 1
localised 0 1
property 0 1
odorous 0 1
albedo 0 1
paleopolyploid 0 1
ligamentous 0 1
mottled 0 1
distributed 0 1
limaciform 0 1
aggregated 0 1
hairy 0 1
castrated 0 1
partial 0 1
matted 0 1
isosceles 0 1
cms 0 1
interdigitated 0 1
malformed 0 1
albino 0 1
directional 0 1
rosy 0 1
multipotent 0 1
colorless 0 1
robust 0 1
flourescence 0 1
filled 0 1
allopolyploidy 0 1
inconsistent 0 1
sharp 0 1
neotenous 0 1
discolored 0 1
arrow 0 1
calcified 0 1
stratified 0 1
degeneration 0 1
absorbed 0 1
spur 0 1
pin 0 1
clavate 0 1
mineralized 0 1
defective 0 1
spoon 0 1
hydrocephalic 0 1
modified 0 1
motley 0 1
cribriform 0 1
mesiolateral 0 1
intense 0 1
all 0 1
insentive 0 1
relaxational 0 1
undistributed 0 1
indiscriminate 0 1
real 0 1
agenesis 0 1
unresponsive 0 1
meltability 0 1
unidirectional 0 1
uninflated 0 1
repetitive 0 1
shattered 0 1
diastatic 0 1
buoyancy 0 1
oblong 0 1
retracted 0 1
abaxially 0 1
antero 0 1
effective 0 1
anterolateral 0 1
warty 0 1
collagenous 0 1
blunt 0 1
adjacent 0 1
maximal 0 1
glandular 0 1
kinked 0 1
distended 0 1
refractile 0 1
hermaphrodite 0 1
crescent 0 1
quantitative 0 1
recurved 0 1
cladodromous 0 1
zoology 0 1
dull 0 1
saccharin 0 1
moderately 0 1
monocystic 0 1
hypoelliptic 0 1
potency 0 1
synchronous 0 1
bicornuate 0 1
pulvinate 0 1
osmotic 0 1
polycystic 0 1
refractivity 0 1
cupulate 0 1
generalized 0 1
cuboid 0 1
multifocal 0 1
hexaploid 0 1
state 0 1
ipsilateral 0 1
actinodromous 0 1
oblanceolate 0 1
dilated 0 1
confluent 0 1
necrotic 0 1
opposite 0 1
schizosaccharomyces 0 1
prepubescent 0 1
asymmetrically 0 1
abnormal 0 1
reniform 0 1
complexity 0 1
cut 0 1
arachnose 0 1
dispersed 0 1
collapsed 0 1
anaplastic 0 1
structured 0 1
cavities 0 1
dystrophic 0 1
digitate 0 1
fluctuating 0 1
black 0 1
lacking 0 1
beige 0 1
reflective 0 1
discontinuous 0 1
optical 0 1
obclavate 0 1
inedible 0 1
centered 0 1
hyperplastic 0 1
atretic 0 1
acinus 0 1
incomplete 0 1
decussate 0 1
white 0 1
demyelinated 0 1
unbalanced 0 1
remittent 0 1
polarizability 0 1
cuneate 0 1
insufficient 0 1
unornamented 0 1
measure 0 1
acidophilic 0 1
trumpet 0 1
luminous 0 1
cane 0 1
compatibility 0 1
uncrowded 0 1
full 0 1
luminance 0 1
osseous 0 1
blind 0 1
disrupted 0 1
flaky 0 1
resistant 0 1
eroding 0 1
telescopic 0 1
saccular 0 1
pentaploid 0 1
mono 0 1
grooved 0 1
monosomy 0 1
minimal 0 1
thermoinsensitive 0 1
unpigmented 0 1
attenuate 0 1
friability 0 1
immubocompetent 0 1
inflorescence 0 1
enlarged 0 1
senescent 0 1
generic 0 1
erose 0 1
borderline 0 1
separating 0 1
sigmoid 0 1
botryoidal 0 1
unlocalised 0 1
downward 0 1
funnel 0 1
stratification 0 1
upturned 0 1
phenotypic 0 1
shedability 0 1
anxious 0 1
ruffled 0 1
fan 0 1
decumbent 0 1
serration 0 1
hydrophilic 0 1
broad 0 1
greater 0 1
revolute 0 1
plowshare 0 1
fibrinopurulent 0 1
anucleate 0 1
dumbbell 0 1
hollow 0 1
edibility 0 1
rhizoidal 0 1
monoploid 0 1
papillary 0 1
unlumenized 0 1
oxidized 0 1
abaxial 0 1
scirrhous 0 1
epinastic 0 1
prolate 0 1
tetraploid 0 1
purity 0 1
euploid 0 1
neonatal 0 1
localized 0 1
unilateral 0 1
ovariectomized 0 1
sinuous 0 1
unknown 0 1
stubby 0 1
anteverted 0 1
ivory 0 1
vaporizability 0 1
aneuploid 0 1
acyclic 0 1
barred 0 1
concavity 0 1
boro 0 1
efficient 0 1
wet 0 1
fenestrated 0 1
sided 0 1
consistent 0 1
immobile 0 1
reclinate 0 1
tholiform 0 1
transversely 0 1
permanent 0 1
organization 0 1
fasciated 0 1
organized 0 1
decondensed 0 1
broadly 0 1
waxy 0 1
paedomorphic 0 1
offspring 0 1
narcolepsy 0 1
cataleptic 0 1
subrectangular 0 1
vestigial 0 1
marked 0 1
dysplastic 0 1
unstratified 0 1
pathological 0 1
alkaline 0 1
dorsolateral 0 1
shriveled 0 1
obstructed 0 1
square 0 1
keel 0 1
quinine 0 1
amphiphilic 0 1
interlocked 0 1
nerve 0 1
diluted 0 1
hispidulous 0 1
proximally 0 1
perseverative 0 1
viscid 0 1
corymb 0 1
hispid 0 1
scute 0 1
circinate 0 1
inconspicuous 0 1
photosensitive 0 1
exserted 0 1
viscous 0 1
biscupidate 0 1
crowded 0 1
heterophilic 0 1
diamond 0 1
conical 0 1
immunodeficient 0 1
front 0 1
maroon 0 1
insusceptible 0 1
notched 0 1
monstrous 0 1
equivalent 0 1
translucent 0 1
constricted 0 1
radioactive 0 1
biconvex 0 1
pluripotent 0 1
aversion 0 1
acinar 0 1
hourglass 0 1
pato 0 1
eosinophilic 0 1
tapered 0 1
delaminated 0 1
infiltrative 0 1
soft 0 1
capacitance 0 1
subacute 0 1
preference 0 1
fleshy 0 1
netted 0 1
pedunculate 0 1
population 0 1
flexible 0 1
transient 0 1
papillomatous 0 1
pointleted 0 1
tomentose 0 1
predisplaced 0 1
convolute 0 1
nodular 0 1
bi 0 1
inflammatory 0 1
arrhythmic 0 1
deaf 0 1
dead 0 1
transparent 0 1
torsioned 0 1
pinnate 0 1
electronegativity 0 1
adaxially 0 1
decurrent 0 1
lobate 0 1
segmental 0 1
alternate 0 1
defasciculated 0 1
lethargic 0 1
herbaceous 0 1
focally 0 1
inflexible 0 1
spongy 0 1
totipotent 0 1
posteromedial 0 1
tolerant 0 1
obconical 0 1
teardrop 0 1
dim 0 1
down 0 1
bracket 0 1
radius 0 1
nitrated 0 1
oligopotent 0 1
subtriangular 0 1
lateralized 0 1
fasciculation 0 1
abrased 0 1
strap 0 1
subterminal 0 1
punctiform 0 1
profound 0 1
trilobed 0 1
electromagnetic 0 1
impermeable 0 1
concavo 0 1
metaplastic 0 1
hexagonal 0 1
perpendicular 0 1
coalescing 0 1
parity 0 1
back 0 1
posterioralized 0 1
flavourless 0 1
random 0 1
proportionality 0 1
lemon 0 1
domed 0 1
rugose 0 1
subdermal 0 1
mosaic 0 1
exposed 0 1
ventralized 0 1
glistening 0 1
sutured 0 1
amphetamine 0 1
deposition 0 1
unfused 0 1
grand 0 1
striate 0 1
ubiquinated 0 1
insomnia 0 1
serous 0 1
arous 0 1
keyhole 0 1
gate 0 1
intolerant 0 1
dorsalized 0 1
hl 0 1
gaseus 0 1
cylindrical 0 1
advanced 0 1
retuse 0 1
ultrasonic 0 1
fluorescent 0 1
superficial 0 1
impaired 0 1
symmetrical 0 1
mosaicism 0 1
prism 0 1
semicircular 0 1
emmision 0 1
electrical 0 1
caudate 0 1
spheroid 0 1
altered 0 1
congested 0 1
detached 0 1
miscibility 0 1
hemorrhagic 0 1
contrast 0 1
biological 0 1
neoplasm 0 1
brittle 0 1
bilobed 0 1
alive 0 1
positional 0 1
crystal 0 1
anvil 0 1
inflated 0 1
pombe 0 1
flavourful 0 1
cicatricial 0 1
inserted 0 1
greasy 0 1
fibrinoid 0 1
anterioralized 0 1
dwarf 0 1
setose 0 1
wilty 0 1
prototrophic 0 1
scalene 0 1
forward 0 1
bent 0 1
prostrate 0 1
multiparous 0 1
uniparental 0 1
slender 0 1
laminar 0 1
overlapping 0 1
cauline 0 1
keratinous 0 1
scrobiculate 0 1
snowman 0 1
primiparous 0 1
foveate 0 1
reflectivity 0 1
blurry 0 1
blade 0 1
inelastic 0 1
sufficiency 0 1
concentrated 0 1
continuous 0 1
sufficient 0 1
patchy 0 1
triploid 0 1
dephosphorylated 0 1
haploid 0 1
perfoliate 0 1
furrowed 0 1
auxotrophic 0 1
asymmetrical 0 1
lance 0 1
abduction 0 1
level 0 1
wholeness 0 1
dry 0 1
towards1 0 1
proliferative 0 1
undamaged 0 1
volumetric 0 1
attached 0 1
focused 0 1
quadripartite 0 1
adolescent 0 1
anterodistal 0 1
glabrous 0 1
bifurcated 0 1
pedicellate 0 1
lumenized 0 1
unstructured 0 1
transformed 0 1
rhomboid 0 1
subcylindrical 0 1
raised 0 1
adenomatous 0 1
subcircular 0 1
emarginate 0 1
hydropic 0 1
equilateral 0 1
oblate 0 1
diagonal 0 1
punctate 0 1
actinomorphic 0 1
invaginated 0 1
dystonicity 0 1
autogenous 0 1
zygomorphic 0 1
firm 0 1
indurated 0 1
bang 0 1
pupal 0 1
dissolved 0 1
craspedodromous 0 1
recent 0 1
aliform 0 1
peracute 0 1
dysfunctional 0 1
divergent 0 1
frozen 0 1
unmodified 0 1
unbranched 0 1
decayed 0 1
pointed 0 1
endopolyploid 0 1
atonicity 0 1
unique 0 1
disassembled 0 1
maternal 0 1
prominent 0 1
permeable 0 1
cuspidate 0 1
autofluorescence 0 1
extended 0 1
pieces 0 1
chromatic 0 1
spatulate 0 1
imperforate 0 1
undifferentiated 0 1
star 0 1
acuminate 0 1
renewal 0 1
sunken 0 1
boomerang 0 1
multinucleate 0 1
dissociated 0 1
extensive 0 1
mononucleate 0 1
tightly 0 1
closed 0 1
uncoordinated 0 1
disoriented 0 1
progenetic 0 1
amylose 0 1
compressed 0 1
open 0 1
coordinated 0 1
unipotent 0 1
ligneous 0 1
posterodistal 0 1
fusiform 0 1
horizontal 0 1
vacuolated 0 1
hydrophobic 0 1
up 0 1
distensible 0 1
extreme 0 1
wrinkled 0 1
phototoxic 0 1
homophilic 0 1
shortened 0 1
degree 0 1
disheveled 0 1
intrasonic 0 1
phosphorylated 0 1
procumbent 0 1
metamphetamine 0 1
abut 0 1
ploidy 0 1
enhanced 0 1
fimbriated 0 1
squircle 0 1
transmural 0 1
nutritional 0 1
carpel 0 1
marbled 0 1
absolutedistance 0 1
saccharomyces 0 1
antrorse 0 1
ambidextrous 0 1
bitter 0 1
chinsurah 0 1
multifid 0 1
flush 0 1
missing 0 1
disorganized 0 1
morbidity 0 1
serrated 0 1
watery 0 1
bilaterally 0 1
slight 0 1
metastatic 0 1
separated 0 1
hydrophobicity 0 1
variegated 0 1
relational 0 1
chronological 0 1
binucleate 0 1
mediolateral 0 1
fasciculated 0 1
photoinsensitive 0 1
brochidodromous 0 1
biomaterial 0 1
parallelogram 0 1
adaxial 0 1
none 0 1
beyond 0 1
deformed 0 1
caseous 0 1
spotted 0 1
anteromedially 0 1
deeply 0 1
aligned 0 1
sharpness 0 1
presence 0 1
hydrophilicity 0 1
basophilic 0 1
surrounding 0 1
posterolateral 0 1
pleomorphic 0 1
distichous 0 1
suppurative 0 1
reduced 0 1
ornamentation 0 1
susceptible 0 1
superelliptic 0 1
axial 0 1
polyphasic 0 1
spectrum 0 1
juvenile 0 1
thermosensitive 0 1
gender 0 1
alobate 0 1
villiform 0 1
uncoiled 0 1
feature 0 1
drooping 0 1
flat 0 1
cerevisiae 0 1
rectangular 0 1
cellularity 0 1
aromaticity 0 1
posteroventral 0 1
reticulodromous 0 1
loud 0 1
introverted 0 1
subulate 0 1
ridged 0 1
trophic 0 1
multicuspidate 0 1
abstract 0 1
retrorse 0 1
tangled 0 1
spatiotemporal 0 1
nucleate 0 1
damaged 0 1
self 0 1
edible 0 1
cystic 0 1
nulliparous 0 1
bizarre 0 1
undivided 0 1
dentated 0 1
discoid 0 1
ciliatedness 0 1
sepal 0 1
temporally 0 1
diploid 0 1
scalloped 0 1
parallelodromous 0 1
scarred 0 1
conspicuous 0 1
adduction 0 1
hypermorphic 0 1
spade 0 1
postdisplaced 0 1
rotational 0 1
branched 0 1
elliptic 0 1
concrete 0 1
sporadic 0 1
everted 0 1
gigantic 0 1
triradiate 0 1
friable 0 1
numerical 0 1
biconcave 0 1
asynchronous 0 1
whorled 0 1
lathlike 0 1
cartilaginous 0 1
discriminate 0 1
continual 0 1
scaly 0 1
obliquely 0 1
opaque 0 1
falciform 0 1
limited 0 1
monophasic 0 1
fearful 0 1
passive 0 1
abortive 0 1
alcochol 0 1
assay 0 1
isometrical 0 1
swollen 0 1
variable 0 1
hyponastic 0 1
wild 0 1
dimorphic 0 1
paternal 0 1
