cell 1672 118
positive 174 14
epithelial 171 8
epithelium 160 12
type 125 37
t 124 34
muscle 124 181
obsolete 106 99
gland 100 28
b 97 38
neuron 97 7
alpha 88 29
receptor 88 8
kidney 87 16
negative 86 2
secreting 78 0
dendritic 75 0
tissue 68 48
endothelial 66 1
stem 64 6
1 58 26
smooth 57 8
progenitor 56 0
cd8 56 3
sensu 54 0
duct 54 11
beta 51 20
macrophage 50 2
fibroblast 45 1
immature 44 3
system 44 60
medulla 43 3
tubule 42 1
limb 42 90
cardiac 41 20
organ 40 0
protein 39 34
myocyte 39 0
memory 38 10
renal 38 87
line 38 2
cortex 36 12
vessel 36 5
blood 35 22
thymocyte 35 0
artery 35 71
intestine 35 11
killer 34 4
cd4 34 6
bone 33 123
mature 33 1
ii 32 10
natural 32 4
tract 31 45
cd38 31 0
layer 29 6
low 29 38
mucosa 29 8
skin 28 93
molecule 27 0
lateral 27 28
c 25 12
monocyte 25 2
anterior 25 81
glycoprotein 25 4
2 24 29
i 24 12
neural 24 1
goblet 24 0
element 24 1
small 24 113
glandular 24 1
lymphoid 24 4
hair 24 62
structure 23 2
gamma 23 5
surface 23 4
cord 23 27
transitional 22 6
product 22 0
sensory 22 17
cleavage 22 0
inner 22 16
skeletal 22 18
proteolytic 22 0
part 21 1
nematoda 21 0
respiratory 21 45
spinal 20 37
interstitial 20 4
outer 20 9
eye 20 29
olfactory 20 5
photoreceptor 20 4
nk 20 0
myeloid 19 3
basal 19 20
non 19 17
high 19 19
enteroendocrine 19 0
node 19 7
like 19 24
recta 18 0
igg 18 2
crest 18 2
nucleus 18 5
mesenchymal 18 0
derived 18 0
membrane 18 12
vein 18 9
vasa 18 0
cd34 18 0
glomerular 18 7
cd11b 18 0
4 17 16
hematopoietic 17 0
ganglion 17 0
chain 17 13
proper 17 0
factor 17 30
colon 17 6
vestibular 17 13
atrioventricular 17 36
marrow 16 7
3 16 21
ascending 16 8
entity 16 0
pre 16 1
primary 16 42
lymph 16 3
collecting 16 2
adrenal 16 23
mesenchyme 16 0
pancreatic 16 20
visceral 16 2
germ 16 4
regulatory 16 4
large 16 44
bundle 16 3
protostomia 16 0
motor 16 34
5 15 18
capillary 15 8
hormone 15 26
cartilage 15 17
precursor 15 0
fiber 15 59
stomach 15 6
member 15 0
associated 15 3
glial 15 1
interneuron 15 0
nephron 15 1
body 15 18
chemokine 15 1
dermal 15 5
lung 15 17
myoepithelial 15 0
connective 15 4
bipolar 15 1
cone 15 62
lactiferous 14 0
prostate 14 5
melanocyte 14 0
thymus 14 7
integrin 14 0
internodal 14 0
endothelium 14 2
segment 14 16
nervous 14 25
secondary 14 16
region 14 10
kit 14 0
vertebrata 13 0
pigment 13 22
squamous 13 10
retinal 13 93
ventricle 13 32
henle 13 0
adipose 13 17
mammary 13 0
loop 13 1
follicle 13 4
class 13 4
delta 13 4
immunoglobulin 13 3
bladder 13 21
d 12 6
epidermis 12 0
umbilical 12 10
embryonic 12 0
intestinal 12 31
antigen 12 2
compound 12 3
isoform 12 2
classical 12 0
subunit 12 0
descending 12 8
mus 12 0
microvascular 12 0
branch 12 3
nerve 12 48
posterior 12 64
intraepithelial 12 0
brain 12 17
anatomical 12 2
left 11 48
arteriole 11 0
plasma 11 7
viscerocranial 11 0
external 11 32
erythroid 11 5
parathyroid 11 12
eosinophil 11 1
lectin 11 0
lymphocyte 11 5
chromaffin 11 0
activated 11 1
quality 11 0
male 11 17
common 11 5
interleukin 11 1
columnar 11 0
molecular 11 1
ovary 11 5
peptide 11 0
ciliated 11 0
acinus 11 0
septum 11 21
form 11 3
striated 11 1
thymic 10 1
lens 10 10
accumulating 10 0
brush 10 0
myoblast 10 0
sheath 10 0
enterocyte 10 0
mesothelial 10 0
cavity 10 9
stromal 10 2
megakaryocyte 10 2
distal 10 397
splenic 10 2
erythroblast 10 0
gastric 10 7
labyrinth 10 0
double 10 21
intermediate 10 3
column 10 6
naive 10 3
fc 10 0
hindlimb 10 0
cd14 10 0
single 10 20
joint 10 87
neuromast 10 0
subdivision 10 0
bronchiole 10 0
principal 9 0
signal 9 3
digestive 9 0
heart 9 20
mhc 9 0
macula 9 5
basophil 9 0
endocrine 9 4
stratum 9 0
helper 9 1
female 9 16
plasmacytoid 9 0
follicular 9 5
fibrocyte 9 0
vasculature 9 10
central 9 69
condensation 9 2
fat 9 10
membranous 9 4
granule 9 8
serous 9 2
langerhans 9 0
spleen 9 5
affinity 9 1
purkinje 9 2
lineage 9 7
cd27 9 0
cd16 9 0
ureter 9 5
venous 8 20
x 8 6
root 8 5
bulb 8 2
prostatic 8 1
epidermal 8 4
langerin 8 0
preadipocyte 8 0
microfold 8 0
exocrine 8 2
multi 8 0
proximal 8 410
zone 8 3
domain 8 0
effector 8 0
pancreas 8 10
mononuclear 8 0
tyrosine 8 1
mast 8 1
epsilon 8 0
astrocyte 8 0
basophilic 8 0
arcuate 8 1
reproductive 8 3
family 8 6
removed 8 0
stimulating 8 7
adipocyte 8 0
intercalated 8 0
bronchus 8 0
ligament 8 2
trunk 8 9
terminal 8 12
switched 8 3
cd103 8 0
hippocampal 8 0
transcription 8 0
upper 8 103
b220 8 0
pulp 8 4
trophoblast 8 0
parietal 8 13
regular 8 0
fraction 8 4
metanephric 7 0
chondrocyte 7 0
endoderm 7 0
pulmonary 7 82
anal 7 14
stellate 7 1
spore 7 0
esophagus 7 2
pro 7 0
capsule 7 1
cranial 7 26
short 7 140
adventitia 7 0
synovial 7 3
ovarian 7 11
right 7 54
urethra 7 2
conventional 7 0
cortical 7 43
glya 7 0
choroid 7 13
neutrophil 7 11
growth 7 22
thoracic 7 26
appendix 7 0
crypt 7 0
luminal 7 0
sweat 7 11
stratified 7 0
unswitched 7 0
hepatic 7 33
peritubular 7 0
liver 7 16
papillary 7 9
nasal 7 63
trachea 7 4
fluid 7 7
dermis 7 0
head 7 39
cd1a 7 0
cochlea 7 6
tube 7 14
support 7 0
cerebral 7 65
6 6 1
7 6 1
schwann 6 0
terminally 6 0
urothelium 6 0
gut 6 0
matter 6 21
vgamma1.1 6 0
erythrocyte 6 6
abdomen 6 3
chief 6 0
leg 6 6
lamina 6 1
somatic 6 3
urothelial 6 0
early 6 12
fetal 6 23
lacrimal 6 17
tree 6 1
sinus 6 16
alveolus 6 0
nuclear 6 8
human 6 0
peritoneum 6 1
otic 6 0
horn 6 3
villus 6 1
vgamma2 6 0
long 6 68
papilla 6 0
dense 6 13
thyroid 6 37
76 6 0
placental 6 6
chamber 6 9
retina 6 11
ventral 6 4
matrix 6 1
red 6 16
satellite 6 0
plasmablast 6 0
endochondral 6 0
taste 6 2
gray 6 3
supporting 6 0
lived 6 0
differentiated 6 0
pleura 6 2
phosphatase 6 19
vdelta6.3 6 0
mesonephric 6 0
lower 6 81
prestalk 6 0
ly 6 0
promyelocyte 6 0
dorsal 6 7
forebrain 6 1
phagocyte 6 0
multinucleate 6 0
urinary 6 55
vascular 6 17
pelvis 6 14
atrial 6 24
plexus 6 7
tympanic 6 2
cd11c 6 0
8 5 2
cerebellum 5 4
straight 5 2
tip 5 12
gr1 5 0
sphincter 5 3
native 5 0
multipotent 5 0
cns 5 7
extraembryonic 5 0
canal 5 36
aorta 5 20
adenohypophysis 5 0
efferent 5 0
initial 5 0
paneth 5 0
esophageal 5 15
osteoblast 5 0
acinar 5 0
uterine 5 6
stage 5 5
suppressor 5 0
basket 5 0
sensitive 5 2
convoluted 5 0
keratinized 5 0
patch 5 1
adhesion 5 2
organic 5 2
iga 5 5
ige 5 2
igm 5 3
tongue 5 24
iii 5 6
migratory 5 0
cerebellar 5 40
cytotoxic 5 0
duodenum 5 1
acid 5 37
reticulocyte 5 0
shape 5 12
white 5 27
carotid 5 17
abdominal 5 24
interventricular 5 0
propria 5 0
cervix 5 2
neuroblast 5 0
pericyte 5 0
simple 5 1
sac 5 1
arterial 5 19
proteoglycan 5 1
ciliary 5 8
interstitium 5 0
peripheral 5 73
nucleated 5 1
granulocyte 5 1
primitive 5 4
cd25 5 4
cd24 5 0
mesoderm 5 0
peyer's 5 0
lymphatic 5 6
organism 5 0
seminal 5 0
leukocyte 5 5
afferent 5 0
barrier 5 0
interrenal 5 0
nonkeratinized 4 0
size 4 15
pigmented 4 3
ileum 4 1
saccule 4 1
spiral 4 0
p 4 0
interlobular 4 0
marginal 4 4
subcutaneous 4 24
plasmatocyte 4 0
secretory 4 4
subfamily 4 0
tunica 4 0
cluster 4 1
ccr4 4 0
sinusoid 4 0
endo 4 0
formation 4 6
salivary 4 2
absorptive 4 0
group 4 1
pars 4 0
keratinocyte 4 0
distalis 4 0
iris 4 19
metamyelocyte 4 0
bile 4 6
myeloblast 4 0
septal 4 29
interlobulary 4 0
myocardial 4 6
thick 4 12
division 4 0
myelocyte 4 0
gyrus 4 0
sebaceous 4 4
breast 4 10
uninucleate 4 0
bronchial 4 2
gonad 4 0
neuroendocrine 4 1
igd 4 0
binding 4 2
rectum 4 2
valve 4 39
internal 4 18
sperm 4 8
from 4 16
dentate 4 3
mesangial 4 3
oviduct 4 0
visual 4 100
decreased 4 143
neck 4 35
neurosecretory 4 0
neutrophilic 4 0
cd8alpha 4 0
lobular 4 2
platelet 4 31
border 4 3
acoustic 4 3
utricle 4 1
hippocampus 4 1
increased 4 150
eccrine 4 3
coronary 4 22
tonsil 4 0
femur 4 10
ly49ci 4 0
ecto 4 0
gall 4 0
conidium 4 0
giant 4 10
eosinophilic 4 1
tracheobronchial 4 3
endopterygota 4 0
related 4 10
pyramidal 4 7
enteric 4 1
cadherin 4 0
amniotic 4 6
oral 4 21
vertebra 4 2
cuboidal 4 1
interatrial 4 0
duodenal 4 8
pp 4 0
thin 4 22
gastrointestinal 4 21
cd41 4 0
cd69 4 0
cd56 4 0
cd94 4 0
dark 4 17
sinoatrial 4 2
nucleate 4 0
jejunum 4 1
cytoplasm 4 0
hemocyte 4 0
foreskin 4 2
cd7 4 0
mucosal 3 3
conjunctiva 3 4
cellular 3 7
object 3 0
epididymis 3 3
e 3 4
xenopus 3 0
k 3 2
l 3 3
m 3 0
n 3 14
component 3 0
v 3 3
ventricular 3 56
pan 3 0
cxcr3 3 0
oligodendrocyte 3 0
gamete 3 0
odontoblast 3 0
oocyte 3 0
proerythroblast 3 0
epicardial 3 0
irregular 3 88
neuronal 3 6
endometrium 3 1
mechanoreceptor 3 0
stylopod 3 0
lining 3 0
corneum 3 0
radial 3 68
notochordal 3 0
seminiferous 3 0
light 3 19
major 3 5
electrically 3 0
aortic 3 52
dental 3 17
articular 3 1
pituitary 3 32
inflammatory 3 8
pneumocyte 3 0
strial 3 0
paired 3 0
oligopotent 3 0
brown 3 3
lieberkuhn 3 0
amnion 3 0
kinase 3 3
sieve 3 0
vesicle 3 1
vagina 3 7
mucus 3 0
interferon 3 5
hypothalamus 3 3
band 3 2
resident 3 0
mesodermal 3 0
pillar 3 0
necrosis 3 17
cochlear 3 5
superfamily 3 0
iib 3 1
ear 3 43
thermoreceptor 3 0
obliquely 3 0
germinal 3 1
diptera 3 0
fungal 3 2
fate 3 0
spermatocyte 3 0
ectoderm 3 0
nephrocyte 3 0
gingival 3 4
mucous 3 0
odontoclast 3 0
polar 3 3
crista 3 0
vomeronasal 3 0
complement 3 12
atrium 3 5
annulus 3 1
paraganglion 3 0
omentum 3 0
penis 3 10
substantia 3 3
tumor 3 19
foam 3 4
developing 3 0
tracheal 3 5
mantle 3 0
polychromatophilic 3 0
substance 3 0
restricted 3 3
auditory 3 18
pulposus 3 0
continuant 3 0
interplexiform 3 0
prepuce 3 0
kappa 3 0
perirenal 3 1
scavenger 3 0
megaspore 3 0
venule 3 0
gabaergic 3 0
glioblast 3 0
lymphoblast 3 0
fin 3 0
complex 3 12
genus 3 0
plant 3 0
striatum 3 2
digit 3 4
pinealocyte 3 0
lymphangioblast 3 0
iv 3 3
macroconidium 3 0
crystal 3 0
camera 3 0
luteal 3 0
pupillae 3 1
nf 3 0
box 3 0
melanogaster 3 0
microglial 3 0
arthroconidium 3 0
testis 3 4
cd42 3 0
malpighian 3 0
aminopeptidase 3 0
medullary 3 9
vegetative 3 1
yolk 3 0
osteoclast 3 2
brainstem 3 15
arthropoda 3 0
mycetozoa 3 0
cd2 3 0
endocardial 3 2
neocortex 2 0
vacuolar 2 0
9 2 1
g 2 0
h 2 4
j 2 2
leydig 2 5
s 2 2
thy 2 0
peroxidase 2 0
echinococcus 2 0
regional 2 2
folliculostellate 2 0
takifugu 2 0
projection 2 3
mammalia 2 0
immortal 2 0
pyloric 2 2
block 2 18
bronchioalveolar 2 0
pongo 2 0
multinuclear 2 0
lactotransferrin 2 0
chorionic 2 2
sphenodon 2 0
brachiocephalic 2 1
inhibitory 2 0
villous 2 2
ampulla 2 0
xylem 2 0
tertiary 2 1
drosophila 2 0
wall 2 13
vertebrate 2 0
multinucleated 2 1
stato 2 0
monodon 2 0
reniform 2 0
nasopharynx 2 2
tingible 2 0
ccr6 2 0
phloem 2 0
mesangium 2 0
late 2 8
nucleotidase 2 0
testudines 2 0
medial 2 13
integumentary 2 0
center 2 1
spinosum 2 0
nigra 2 3
peritoneal 2 3
pedal 2 0
anucleate 2 0
macaca 2 0
fenestrated 2 0
transversely 2 0
myofibroblast 2 0
morula 2 0
rattus 2 0
chromosome 2 5
clear 2 1
myeloperoxidase 2 0
granulosum 2 0
ly49d 2 0
ammon's 2 0
ly49h 2 0
meatus 2 3
trigone 2 0
selectin 2 0
active 2 2
adult 2 6
term 2 2
nodal 2 2
pineal 2 10
paraaortic 2 0
cysteine 2 1
corpus 2 14
concave 2 2
areolar 2 0
aromatic 2 1
vitro 2 0
circumventricular 2 0
homo 2 0
dentine 2 0
muscular 2 27
caenorhabditis 2 0
jaculus 2 0
magnocellular 2 0
uterus 2 8
stalk 2 0
semicircular 2 7
sense 2 2
archosauria 2 0
fucosyltransferase 2 0
sirpa 2 0
main 2 0
fibrosus 2 0
circulating 2 36
oxygen 2 1
bearing 2 0
null 2 1
meso 2 1
danio 2 0
physical 2 0
gorilla 2 0
immune 2 8
processed 2 0
socket 2 0
recombination 2 1
vgamma5 2 0
nasolacrimal 2 2
17 2 0
macropus 2 0
middle 2 298
transverse 2 9
cathepsin 2 0
face 2 17
sca1 2 0
buccal 2 0
oryzias 2 0
raphe 2 3
densa 2 0
mass 2 2
neuroglioblast 2 0
gingiva 2 1
inferior 2 15
cells 2 36
80 2 0
binucleate 2 0
glutamatergic 2 0
endometrial 2 1
cerebrospinal 2 3
nuclei 2 3
alobate 2 0
prebcr 2 0
caecum 2 0
span 2 5
myotube 2 0
noradrenergic 2 0
p100 2 0
oxyphil 2 0
signaling 2 0
periodontium 2 0
subgenus 2 0
egg 2 0
decidua 2 0
plasmactyoid 2 0
macroglial 2 0
cd209 2 0
androgen 2 4
ray 2 1
tetraodon 2 0
phalangeal 2 8
cultured 2 0
intrahepatic 2 7
slam 2 0
fast 2 0
multicellular 2 0
pseudostratified 2 0
pericardium 2 9
adp 2 2
trabecular 2 3
ribosyl 2 0
plexiform 2 1
rich 2 0
oncogene 2 0
glycosylated 2 0
thrombomodulin 2 0
endocervix 2 0
excretory 2 0
ectodermal 2 5
presenting 2 0
carcinoembryonic 2 0
activating 2 1
alveolar 2 15
alc 2 0
domains 2 0
unit 2 1
golgi 2 0
rod 2 3
ror 2 0
specific 2 11
odontogenic 2 2
jaw 2 6
containing 2 2
slow 2 27
lobed 2 0
tracheid 2 0
releasing 2 4
ccaat 2 0
arm 2 11
alternatively 2 0
visceromotor 2 0
granular 2 4
mouse 2 0
mother 2 0
dura 2 2
rialpha 2 0
paracrine 2 0
gastrin 2 0
sensing 2 0
m130 2 0
sigmoid 2 0
guard 2 0
cushion 2 0
orthochromatic 2 0
cyclic 2 1
lobule 2 0
cardioblast 2 0
glycophorin 2 0
pronephric 2 0
paraganglial 2 0
myelinating 2 0
polymodal 2 0
juxtaglomerular 2 1
somatomotor 2 0
mater 2 5
blastoconidium 2 0
d1 2 0
sex 2 5
appendage 2 3
circulatory 2 0
hindbrain 2 1
f4 2 0
foregut 2 0
canaliculus 2 0
eyeball 2 0
prominin 2 0
nocireceptor 2 0
nk1.1 2 0
myxine 2 0
gata 2 0
pectoralis 2 7
cornea 2 7
transferrin 2 6
ib 2 1
ductal 2 2
mitral 2 15
bm2 2 0
bm3 2 0
plate 2 7
ligand 2 0
ornithorhynchus 2 0
cajal 2 0
optic 2 25
adventitial 2 0
knee 2 12
eyelid 2 16
meshwork 2 2
haploid 2 0
amoeboid 2 0
coat 2 1
disc 2 9
bos 2 0
chordata 2 0
mixed 2 7
storage 2 5
slamf1 2 0
hemoglobin 2 8
scolopidial 2 0
extraglomerular 2 0
integumental 2 0
enhancer 2 0
corneal 2 50
cd28 2 0
cd22 2 0
sus 2 0
vertebral 2 81
cd1c 2 0
keratinizing 2 0
bud 2 0
elastic 2 0
reticular 2 4
cd48 2 0
cd44 2 0
ploidy 2 0
gallus 2 0
anolis 2 0
life 2 2
cd71 2 0
hemopoietic 2 0
histocompatibility 2 0
monodelphis 2 0
mortal 2 0
parenchyma 2 1
accessory 2 22
retrotrapezoid 2 0
cd161 2 0
nkg2 2 0
tubular 2 22
antibody 2 15
autonomic 2 12
range 2 3
metazoa 2 0
enamel 2 9
pelvic 2 8
connecting 2 0
diploid 2 0
gastrula 2 0
cyclase 2 0
subclavian 2 4
tendon 2 9
cd115 2 0
proto 2 0
branched 2 2
cap 2 0
scalp 2 18
erinaceus 2 0
cd3 2 1
cd5 2 0
cd9 2 0
nonskeletal 1 0
heterochromatin 1 1
coelurosauria 1 0
glires 1 0
ecdysozoa 1 0
tylotrich 1 0
glycocalyx 1 0
holocrine 1 0
competent 1 0
glr 1 0
mineralocorticoid 1 0
0 1 0
nigroviridis 1 0
cardiomyocyte 1 0
gastropoda 1 0
osteoglossomorpha 1 0
myxiniformes 1 0
flight 1 0
independent 1 2
percomorphaceae 1 0
vasculosus 1 0
alkali 1 0
metallopeptidase 1 0
spanning 1 0
garland 1 0
f 1 1
urokinase 1 0
sebum 1 0
lactosylceramide 1 0
blue 1 6
y 1 5
cyanophore 1 0
cingulata 1 0
extramedullary 1 1
excitatory 1 0
anchoring 1 0
fundus 1 11
ncam 1 0
claudius 1 0
pylorus 1 1
leucoblast 1 0
pax 1 0
neurectodermal 1 0
vaginal 1 14
suina 1 0
metanephros 1 0
lymphomyeloid 1 0
fated 1 0
oryziinae 1 0
hexapoda 1 0
juxtamedullary 1 0
preameloblast 1 0
disci 1 0
medium 1 2
enterocrine 1 0
hyphal 1 0
multiple 1 45
pyrophosphatase 1 0
teleostei 1 0
tylopoda 1 0
sauropsida 1 0
vasoactive 1 0
odontoid 1 3
pioneer 1 0
glomerulus 1 2
actinopterygii 1 0
erinaceidae 1 0
pes 1 3
oxytocin 1 0
neuroplacodal 1 0
morphology 1 89
slowly 1 1
suidae 1 0
laevis 1 0
conduit 1 0
prespore 1 0
cypriniformes 1 0
aciculata 1 0
estradiol 1 1
dilator 1 1
reticulocytes 1 1
phe 1 0
didelphidae 1 0
fibrillary 1 0
bovinae 1 0
peptic 1 1
tr1 1 0
hemangioblast 1 0
cervidae 1 0
stiftchenzellen 1 0
sapiens 1 0
tanycyte 1 0
function 1 15
eurypterygia 1 0
pit 1 12
riftia 1 0
motilin 1 0
xenoturbella 1 0
mitogenic 1 0
parenchymal 1 0
chemoreceptor 1 0
gestational 1 2
mauthner 1 0
flt3 1 0
caecilia 1 0
perineuronal 1 0
basic 1 0
acidic 1 0
globose 1 0
specialized 1 0
fruit 1 0
occurrent 1 0
guidepost 1 0
convex 1 2
jelly 1 0
skull 1 16
paranasal 1 6
extracellular 1 0
glucocorticoid 1 1
actinopteri 1 0
euteleosteomorpha 1 0
haplorrhini 1 0
periglomerular 1 0
presomitic 1 0
hatching 1 0
saliva 1 0
chelicerata 1 0
csf 1 14
drainage 1 0
dopaminergic 1 1
norepinephrine 1 1
apparatus 1 0
pterygota 1 0
ependymoglial 1 0
realizable 1 0
rufus 1 0
theca 1 0
somatotropin 1 0
leu 1 0
amnioserosal 1 0
gnathostomata 1 0
coelemic 1 0
dipodinae 1 0
phasianidae 1 0
postmacula 1 0
branchiomeric 1 0
idioblast 1 0
myometrium 1 0
ccr1 1 0
parasympathetic 1 0
amphibia 1 0
somatotroph 1 0
granzyme 1 0
embryo 1 0
notochord 1 0
ameloblast 1 0
trachebronchial 1 0
polychromatic 1 0
taurus 1 0
percomorpharia 1 0
cardiocyte 1 0
paraganglia 1 0
radiata 1 0
ye1 1 0
iguanidae 1 0
heteroneura 1 0
intrinsic 1 4
ectocervix 1 0
periderm 1 0
acidophilic 1 1
oncocyte 1 0
curved 1 53
microspore 1 0
resistant 1 5
ooblast 1 0
epiblast 1 0
adrenocorticotropic 1 2
xenacoelomorpha 1 0
pipidae 1 0
cd45ro 1 0
cumulus 1 0
cd45ra 1 0
zoospore 1 0
surfactant 1 0
pain 1 21
palatal 1 2
siboglinidae 1 0
generic 1 0
flatworm 1 0
murinae 1 0
gravity 1 0
time 1 6
amniocyte 1 0
xanthoblast 1 0
melanophage 1 0
dicondylia 1 0
hydrogen 1 0
tips 1 2
polychrotinae 1 0
carbon 1 0
specifically 1 0
steroid 1 1
ditrysia 1 0
warmth 1 0
vasopressin 1 0
coelacanthimorpha 1 0
euploid 1 0
bright 1 6
mandibulata 1 0
lugaro 1 0
equatorial 1 0
caniformia 1 0
endospore 1 0
hyperotreti 1 0
centro 1 0
corticotroph 1 0
rodentia 1 0
batoidea 1 0
myelin 1 6
pressoreceptor 1 0
microsporocyte 1 0
maxillopoda 1 0
paraxial 1 0
fungi 1 0
muller 1 0
precementoblast 1 0
nitrergic 1 0
camelidae 1 0
metabolising 1 0
fut4 1 0
fmet 1 0
hip 1 15
saccus 1 0
zona 1 0
mammalian 1 0
enucleated 1 0
neurecto 1 0
imaginal 1 0
proximale 1 0
fixing 1 0
intra 1 1
cd45r 1 0
strigiformes 1 0
blastocyst 1 0
cambial 1 0
colony 1 0
progesterone 1 1
general 1 0
attachment 1 0
induced 1 40
otomorpha 1 0
sertoli 1 2
keratocyte 1 0
hla 1 1
corti 1 0
process 1 14
ponginae 1 0
troglodytes 1 0
oblongata 1 1
trophectodermal 1 0
developmental 1 9
hominoidea 1 0
conducting 1 0
conjunctival 1 8
qualitative 1 0
mucin 1 0
cementocyte 1 0
dilatator 1 0
soft 1 11
rhabditoidea 1 0
milk 1 1
subsidiary 1 0
disseminated 1 3
nuocyte 1 0
pseudounipolar 1 0
polytene 1 0
spermatid 1 0
physeteridae 1 0
trans 1 0
contractile 1 0
histamine 1 0
subgroup 1 0
heterocyst 1 0
hydroxy 1 0
bottle 1 0
echinoidea 1 0
transparent 1 0
chordamesoderm 1 0
integral 1 0
eurydendroid 1 0
glutinosa 1 0
testosterone 1 4
lobate 1 0
marco 1 0
pituicyte 1 0
monodontidae 1 0
blast 1 0
tetrapoda 1 0
podocyte 1 0
splenocyte 1 0
totipotent 1 0
dim 1 3
oenocyte 1 0
blastoderm 1 0
hensen 1 0
acceleration 1 1
chondroblast 1 0
dopamanergic 1 0
tartrate 1 0
anhimidae 1 0
mysticeti 1 0
anthozoa 1 0
extrinsic 1 1
parvocellular 1 0
winged 1 0
tc17 1 0
prolactin 1 4
dn1 1 0
polygonal 1 0
dn3 1 0
dn2 1 0
ovalentaria 1 0
dn4 1 0
material 1 5
osteoid 1 1
pharyngeal 1 5
iron 1 10
anatinus 1 0
gonocyte 1 0
amphiesmenoptera 1 0
sabellida 1 0
cylindrical 1 0
intervertebralis 1 0
superficial 1 6
rhodopsin 1 0
klrb1 1 0
dna 1 6
proximo 1 0
motoneuron 1 0
luteinizing 1 4
prokaryotic 1 0
cyclophyllidea 1 0
eumetazoa 1 0
corpuscle 1 0
cystoblast 1 0
acting 1 1
monoblast 1 0
hepatocyte 1 0
echinodermata 1 0
anguilliformes 1 0
scolopale 1 0
banded 1 0
phocidae 1 0
bythitoidei 1 0
nurse 1 0
pavement 1 0
melanin 1 1
oogonial 1 0
telencephalon 1 0
muridae 1 0
scaffold 1 0
syncytial 1 0
gelatinase 1 0
stria 1 0
perineurium 1 0
unimodal 1 0
forkhead 1 0
receptive 1 4
heterogeneous 1 1
endorphin 1 0
eucestoda 1 0
spermatogonium 1 0
mammotroph 1 0
dra 1 0
unilaminar 1 0
muraenidae 1 0
balaenopteridae 1 0
meninx 1 0
sustentacular 1 0
peridontal 1 0
polypeptide 1 0
ectonucleotide 1 0
cytotrophoblast 1 0
batrachia 1 0
echinozoa 1 0
trichome 1 0
tarsiidae 1 0
definitive 1 0
chimaeriformes 1 0
erythroblasts 1 0
kolmer 1 0
coronet 1 0
acalyptratae 1 0
epitheliocyte 1 0
calvarial 1 5
apoptosis 1 1
alouatta 1 0
fusimotor 1 0
hyalocyte 1 0
mer 1 0
vacuole 1 0
enucleate 1 0
sarcopterygii 1 0
deviation 1 45
segmented 1 0
episquamata 1 0
cementum 1 1
ascidiacea 1 0
keratin 1 0
lubricant 1 0
craniata 1 0
sauria 1 0
contribution 1 0
chemosensory 1 0
dx5 1 0
based 1 1
telencephalic 1 0
caeciliidae 1 0
primordial 1 0
module 1 0
hypocretin 1 0
animal 1 0
processing 1 0
mesenteric 1 8
22 1 0
transporting 1 0
functional 1 9
insectivora 1 0
oospore 1 0
microconidium 1 0
insulin 1 9
1a 1 0
1b 1 0
1c 1 0
1l 1 0
free 1 6
undifferentiated 1 0
cardiovascular 1 4
triggering 1 0
littoral 1 0
open 1 10
erythrophore 1 0
cercopithecinae 1 0
canidae 1 0
unipotent 1 0
48 1 0
commissural 1 1
rohon 1 0
vascularis 1 0
nonglandular 1 0
cephalochordata 1 0
beard 1 0
myoid 1 0
histaminergic 1 0
muroidea 1 0
ileal 1 2
lymphocytic 1 3
adnexa 1 1
premigratory 1 0
prototheria 1 0
granulosa 1 0
girdle 1 11
merocrine 1 0
subcapsular 1 6
didelphinae 1 0
chromophobe 1 0
75 1 0
cholangiocyte 1 0
osteoglossiformes 1 0
6c2 1 0
diprotodontia 1 0
6a 1 0
endosteum 1 0
6e 1 0
6g 1 0
perineural 1 0
dipnoi 1 0
spiny 1 0
eleutherozoa 1 0
norvegicus 1 0
adaxial 1 0
micropylar 1 0
presumptive 1 0
cnidaria 1 0
ascospore 1 0
defensive 1 0
bodily 1 0
dependent 1 6
centripetally 1 0
lysozyme 1 0
hemolymphoid 1 0
intervertebral 1 7
glucagon 1 0
activator 1 0
cecum 1 0
paraventricular 1 0
iia 1 0
macrosialin 1 0
ependymal 1 0
neognathae 1 0
acanthomorphata 1 0
elopocephala 1 0
enkephalin 1 0
ec1 1 0
ec2 1 0
interfollicle 1 0
neoptera 1 0
innate 1 0
sciurognathi 1 0
interdental 1 0
degenerate 1 0
teleostomi 1 0
interneuromast 1 0
runt 1 0
psto 1 0
obtectomera 1 0
pole 1 0
axis 1 1
space 1 8
ecl 1 0
gonadtroph 1 0
femoral 1 58
epicardium 1 0
tether 1 0
adapting 1 0
polyphenol 1 0
pygmaeus 1 0
secretin 1 0
appendicular 1 2
death 1 8
2b4 1 0
chromadorea 1 0
ornithorhynchidae 1 0
aggregate 1 0
ocular 1 12
subepithelial 1 1
array 1 0
biconcave 1 2
phasianinae 1 0
cartilaginous 1 4
macular 1 55
cementoblast 1 0
annelida 1 0
sialic 1 0
integument 1 1
lophotrochozoa 1 0
dipodidae 1 0
feyrter 1 0
galanergic 1 0
thecogen 1 0
egf 1 0
leading 1 4
cyclorrhapha 1 0
ion 1 1
cd200 1 0
decidual 1 0
mueller 1 0
microcirculatory 1 0
otophysa 1 0
electroreceptor 1 0
colonic 1 9
adrianichthyoidei 1 0
insects 1 0
petromyzontidae 1 0
xanthophore 1 0
hemichordata 1 0
heteroatomic 1 0
myb 1 0
uric 1 4
gallbladder 1 12
phyllodocida 1 0
pore 1 0
sphenodontidae 1 0
nereididae 1 0
dn2b 1 0
dn2a 1 0
corona 1 0
alimentary 1 0
cetacea 1 0
periarticular 1 1
osteochondroclast 1 0
parathyoid 1 0
cd217 1 0
somatostatin 1 0
gabanergic 1 0
nasopharyngeal 1 1
antrum 1 0
polyploid 1 0
schizophora 1 0
fusion 1 34
tracheoblast 1 0
carnivora 1 0
atheriniformes 1 0
loose 1 1
bilateria 1 0
basophillic 1 0
neoteleostei 1 0
companion 1 0
emp24 1 0
spongiotrophoblast 1 0
stretch 1 0
pstab 1 0
meningeal 1 2
laurasiatheria 1 0
tachyglossidae 1 0
insecta 1 0
tetraodontiformes 1 0
nitrogen 1 2
clupeocephala 1 0
myoendocrine 1 0
preodontoblast 1 0
haemolymphatic 1 0
ureteral 1 7
agm 1 0
colubroidea 1 0
alanyl 1 0
carbohydrate 1 1
number 1 34
ophidiimorpharia 1 0
drosophilinae 1 0
petromyzontiformes 1 0
kenyon 1 0
paniscus 1 0
chalcogen 1 0
serpentes 1 0
atypical 1 10
mesentery 1 1
peptidergic 1 0
programmed 1 0
trichogen 1 0
alouattinae 1 0
tetradontoidea 1 0
lipocalin 1 0
myocardium 1 1
islet 1 3
chondrichthyes 1 0
talpidae 1 0
elegans 1 0
mycetozoan 1 0
dinosauria 1 0
toxicofera 1 0
muscomorpha 1 0
viscus 1 0
gonadotropin 1 9
endosteal 1 2
antipodal 1 0
biogenic 1 0
lumen 1 0
mineralized 1 0
modified 1 0
mammosomatotroph 1 0
cytokine 1 2
opisthokonta 1 0
amniota 1 0
touch 1 1
peridermal 1 0
larval 1 0
tetraodontidae 1 0
amino 1 10
tetraspanin 1 0
odontocyte 1 0
organisms 1 0
syndecan 1 0
euteleostomi 1 0
coupled 1 0
amine 1 0
basale 1 0
supportive 1 0
tarsiiformes 1 0
cartwheel 1 0
articulation 1 1
lepidoptera 1 0
brachycera 1 0
orycteropodidae 1 0
agduhr 1 0
mannose 1 0
fibrocartilage 1 0
cx3c 1 0
neopterygii 1 0
osteoglossocephala 1 0
tormogen 1 0
tetraodontoidei 1 0
sclerenchyma 1 0
colubridae 1 0
elasmobranchii 1 0
zygospore 1 0
viscera 1 0
phenols 1 0
c1q 1 0
potency 1 0
midgut 1 1
multilocularis 1 0
endoglin 1 0
epinephrin 1 0
corpuscule 1 0
arginase 1 0
professional 1 0
ampullaris 1 0
myxininae 1 0
histology 1 1
photopic 1 0
endocardium 1 1
granulocytopoietic 1 0
parafollicular 1 0
canalipalpata 1 0
iota 1 0
cyprinoidea 1 0
jejunal 1 3
blastconidium 1 0
enterochromaffin 1 0
prickle 1 0
cationic 1 0
flask 1 1
statoacoustic 1 0
systemic 1 4
bifurcata 1 0
euarchontoglires 1 0
elopomorpha 1 0
melanoblast 1 0
femural 1 0
synergid 1 0
collagen 1 6
lacking 1 0
chiroptera 1 0
beige 1 0
hypothalamic 1 5
tracheary 1 0
iridophore 1 0
holocephali 1 0
chemotactic 1 0
physeter 1 0
organismal 1 0
epinephrine 1 2
duplicate 1 0
foveolar 1 0
crocodylia 1 0
xenopodinae 1 0
ecdysteroid 1 0
submucosal 1 0
microvillous 1 0
chorion 1 0
apud 1 0
tonsillar 1 0
mammal 1 0
rhabditida 1 0
neuroepithelial 1 1
unidentata 1 0
green 1 3
resting 1 3
glossata 1 0
experimentally 1 0
intralobular 1 0
mouth 1 12
periperhal 1 0
meristematic 1 0
chromophil 1 0
perivascular 1 1
multilaminar 1 0
latipes 1 0
mesothelium 1 0
cypriniphysae 1 0
neuroglioform 1 0
cercopithecidae 1 0
xenoturbellida 1 0
luteum 1 0
cyprinidae 1 0
limiting 1 0
shps 1 0
serotonergic 1 0
serosal 1 0
cavitated 1 0
glycinergic 1 0
leptomeningeal 1 0
pericardial 1 5
pancrustacea 1 0
cutaneous 1 27
simiiformes 1 0
elicited 1 0
eutheria 1 0
crustacea 1 0
autopod 1 0
sophophora 1 0
concavity 1 1
immaterial 1 0
bergmann 1 0
lamellocyte 1 0
glycogen 1 6
musculus 1 0
great 1 8
adrianichthyidae 1 0
lysosome 1 1
stuff 1 0
section 1 3
eggshell 1 0
heterokaryon 1 0
erinaceinae 1 0
afrotheria 1 0
hepatoblast 1 0
homininae 1 0
trematoda 1 0
periodontal 1 0
anura 1 0
syncytiotrophoblast 1 0
broncial 1 0
ostariophysi 1 0
coelomocyte 1 0
visible 1 0
deuterostomia 1 0
ghrelin 1 0
filtration 1 3
transfer 1 1
osteoglossocephalai 1 0
ephydroidea 1 0
acute 1 37
pacemaker 1 0
transmembrane 1 0
closable 1 0
epithem 1 0
premacula 1 0
generative 1 0
leucophore 1 0
prechondroblast 1 0
along 1 2
structural 1 1
cytotoxicity 1 0
enzyme 1 4
photosynthetic 1 0
bovidae 1 0
proteinase 1 0
ruminantia 1 0
prohemocyte 1 0
hyperoartia 1 0
neuroepidermoblast 1 0
epithelioid 1 1
theropoda 1 0
eukaryota 1 0
punctatus 1 0
anseriformes 1 0
pluripotent 1 0
b7 1 0
humidity 1 0
euacanthomorphacea 1 0
intima 1 0
ab 1 0
vermiform 1 0
midbrain 1 1
arthopoda 1 0
pyrenocyte 1 0
chemical 1 0
mollusca 1 0
epidermoblast 1 0
neuroepithelium 1 0
nongranular 1 0
procrystal 1 0
nodular 1 10
feliformia 1 0
be2 1 0
mesonephros 1 0
boreoeutheria 1 0
be1 1 0
bcr 1 0
seromucus 1 0
europaeus 1 0
tooth 1 9
neolepidoptera 1 0
founder 1 0
oval 1 3
mulatta 1 0
co 1 0
atrichoblast 1 0
dasypodidae 1 0
food 1 1
bombesin 1 0
plasminogen 1 0
gymnophiona 1 0
fly 1 0
rerio 1 0
neprilysin 1 0
cholinergic 1 0
adrenergic 1 0
hypertrophic 1 6
transducer 1 0
kupffer 1 0
monoceros 1 0
sialoadhesin 1 0
apical 1 1
bursa 1 0
saurischia 1 0
ec 1 0
neutrophillic 1 0
stroma 1 4
nucleotidylexotransferase 1 0
crystallin 1 0
platyrrhini 1 0
tears 1 0
fos 1 0
cyanoblast 1 0
diencephalic 1 0
domed 1 0
didelphimorphia 1 0
ctenosquamata 1 0
clara 1 0
lymphoma 1 12
hyaline 1 2
sporangiospore 1 0
myogenic 1 0
starch 1 0
perforin 1 0
equidae 1 0
endodermal 1 0
hominidae 1 0
nephrogenic 1 4
inactive 1 0
tbx21 1 0
ig 1 1
mucilage 1 0
theria 1 0
chordamesodermal 1 0
maturity 1 1
metal 1 0
caudata 1 0
platynereis 1 0
platyhelminthes 1 0
nemertea 1 0
monotremata 1 0
spheroplast 1 0
diverticulum 1 14
bm1 1 0
bm4 1 0
domestica 1 0
bm5 1 0
orthochromatophilic 1 0
polyatomic 1 0
craniocervical 1 0
cetartiodactyla 1 0
iguania 1 0
copepoda 1 0
rubripes 1 0
canis 1 0
costimulator 1 0
perijunctional 1 0
conidiophore 1 0
skeletogenic 1 0
galactosyltransferase 1 0
camelus 1 0
off 1 2
leukemia 1 19
megasporocyte 1 0
actinomycete 1 0
edge 1 1
asexual 1 0
elopocephalai 1 0
primates 1 0
calcitonin 1 1
acoelomorpha 1 0
tunicata 1 0
permanently 1 0
plus 1 0
myrosin 1 0
lepidosauria 1 0
felidae 1 0
p3 1 0
scleral 1 1
seam 1 0
cercopithecoidea 1 0
beta7 1 0
proboscidea 1 0
germinativum 1 0
invertebrate 1 0
arachnida 1 0
ophidiiformes 1 0
hexacorallia 1 0
myometrial 1 0
panarthropoda 1 0
pdgf 1 0
choroidal 1 6
ph 1 1
amacrine 1 0
nkga2 1 0
merkel 1 1
r1 1 0
r2 1 0
r3 1 0
r4 1 0
r5 1 0
r6 1 0
pu 1 0
r7 1 0
r8 1 0
acidophil 1 0
eukaryotic 1 0
curvature 1 4
zygote 1 0
lambda 1 0
serotonin 1 1
cuticle 1 0
pylroric 1 0
branchiostomidae 1 0
glomerulosa 1 0
carolinensis 1 0
viridiplantae 1 0
drosophilina 1 0
boettcher 1 0
drosophilini 1 0
unipolar 1 0
thyrotroph 1 0
endopolyploid 1 0
polychaeta 1 0
placenta 1 6
pleural 1 6
quarternary 1 0
t1 1 0
t2 1 10
t3 1 3
minus 1 0
11a 1 0
monopoietic 1 0
branchiomotor 1 0
insulating 1 0
copper 1 6
cd1d 1 0
metatheria 1 0
sclera 1 2
macropodidae 1 0
angioblastic 1 0
cyclostomata 1 0
ionocyte 1 0
cd19 1 0
muraeninae 1 0
hydroxides 1 0
glutamyl 1 0
inducible 1 0
tg 1 0
porifera 1 0
mononucleate 1 0
phosphodiesterase 1 0
preosteoblast 1 0
beloniformes 1 0
hilus 1 0
formyl 1 0
fusiform 1 1
granulated 1 0
cd43 1 1
deiter's 1 0
horizontal 1 16
biliary 1 14
hypodermal 1 0
migrating 1 0
substrate 1 0
ribonuclease 1 0
uv 1 2
crocodylidae 1 0
thromboblast 1 0
collenchymal 1 0
odontoceti 1 0
meynert 1 0
pharyngotympanic 1 0
adepithelial 1 0
chlamydospore 1 0
cd33 1 0
atelidae 1 0
sphenodontia 1 0
cold 1 3
gag 1 0
multipolar 1 0
ceriantharia 1 0
echinocyte 1 0
zeta 1 0
normal 1 7
types 1 0
airway 1 4
osteocyte 1 0
cd59 1 0
arcade 1 1
apocrine 1 1
pipoidea 1 0
meristemoid 1 0
basidiospore 1 0
papilionoidea 1 0
motile 1 6
potent 1 0
dikaryon 1 0
iridoblast 1 0
respiration 1 5
pupil 1 3
lagomorpha 1 0
sirp 1 0
perissodactyla 1 0
collar 1 0
peloderinae 1 0
invariant 1 0
thrombocyte 1 0
cd86 1 0
axial 1 11
quiescent 1 0
cd83 1 0
branchiostoma 1 0
echidna 1 0
cd80 1 0
juvenile 1 12
trichoblast 1 0
sexual 1 4
scotopic 1 0
sympathetic 1 0
protoplast 1 0
osteoprogenitor 1 0
corneocyte 1 0
feature 1 0
retzius 1 0
promonocyte 1 0
eomesodermin 1 0
catarrhini 1 0
palpata 1 0
atherinomorphae 1 0
malassez 1 0
eremoneura 1 0
xenarthra 1 0
metallophillic 1 0
galectin 1 0
longirostres 1 0
tufted 1 1
amnioserosa 1 0
galliformes 1 0
passage 1 0
tubulidentata 1 0
taeniidae 1 0
dipnotetrapodomorpha 1 0
discoid 1 1
chlorenchyma 1 0
aves 1 0
diencephalon 1 1
squamata 1 0
nonsynovial 1 0
wharton's 1 0
myxinidae 1 0
hypodermis 1 0
tc2 1 0
tc1 1 0
rhabditidae 1 0
drosophilidae 1 0
core 1 1
limbus 1 0
cd117 1 0
leukosialin 1 0
pecora 1 0
cd141 1 0
cholecystokin 1 0
gip 1 0
alarm 1 0
meningothelial 1 0
nose 1 18
cestoda 1 0
drosophiliti 1 0
histoblast 1 0
giraffidae 1 0
scrofa 1 0
cd1 1 0
blastemal 1 0
response 1 20
responsive 1 4
abnormality 0 1033
phalanx 0 899
finger 0 597
toe 0 545
abnormal 0 416
epiphysis 0 385
hypoplasia 0 317
aplasia 0 288
2nd 0 256
5th 0 255
3rd 0 250
4th 0 247
epiphyses 0 229
phalanges 0 217
absent 0 199
shaped 0 180
hand 0 161
duplication 0 145
bones 0 126
sclerosis 0 126
thumb 0 110
congenital 0 109
broad 0 104
hallux 0 100
neoplasm 0 97
triangular 0 97
atrophy 0 93
ossification 0 87
reduced 0 87
metacarpal 0 83
metabolism 0 83
enlarged 0 78
eeg 0 77
recurrent 0 76
hypoplastic 0 72
generalized 0 71
progressive 0 70
partial 0 70
activity 0 67
symphalangism 0 65
defect 0 65
defects 0 65
elevated 0 64
humeral 0 64
patchy 0 62
level 0 62
metatarsal 0 59
facial 0 59
limbs 0 58
stenosis 0 58
weakness 0 57
involving 0 56
serum 0 56
acuity 0 56
calcification 0 55
contracture 0 54
chronic 0 54
stippling 0 54
absence 0 54
complete 0 53
impaired 0 52
toes 0 52
impairment 0 52
agenesis 0 52
bilateral 0 51
focal 0 50
carcinoma 0 50
osteolytic 0 49
1st 0 49
bracket 0 48
loss 0 48
bullet 0 48
prominent 0 48
synostosis 0 47
ivory 0 47
deficiency 0 47
fragmentation 0 46
disease 0 45
logmar 0 45
cervical 0 45
affecting 0 45
seizures 0 45
dysplasia 0 44
degeneration 0 44
bodies 0 43
cataract 0 43
atresia 0 42
delayed 0 40
cleft 0 40
anemia 0 40
dystrophy 0 39
metaphysis 0 39
premature 0 39
infections 0 39
interphalangeal 0 39
teeth 0 39
narrow 0 38
metaphyseal 0 37
joints 0 37
hearing 0 37
cyst 0 37
onset 0 35
hypertrophy 0 35
musculature 0 35
pseudoepiphysis 0 35
vertebrae 0 35
lip 0 34
syndactyly 0 34
ulnar 0 34
pigmentation 0 33
severe 0 33
unilateral 0 33
physiology 0 32
electroretinogram 0 32
carpal 0 32
concentration 0 31
flexion 0 31
epiphyseal 0 30
metaphyses 0 30
forearm 0 30
incisor 0 29
tachycardia 0 29
foot 0 29
count 0 28
mitochondrial 0 28
elbow 0 28
evoked 0 27
superior 0 27
frontal 0 27
hyperpigmentation 0 27
potentials 0 27
diffuse 0 27
arch 0 26
tibial 0 25
eyelashes 0 25
muscles 0 25
nail 0 25
ectopic 0 25
helix 0 25
polydactyly 0 24
neonatal 0 24
bifid 0 24
test 0 24
fingers 0 24
urine 0 24
dislocation 0 24
anomaly 0 24
genitalia 0 24
episodic 0 24
homeostasis 0 24
due 0 23
malformation 0 23
oct 0 23
acidosis 0 23
wide 0 23
metacarpals 0 23
humerus 0 23
adenoma 0 23
limited 0 23
hyperplasia 0 22
palate 0 22
edema 0 22
ribs 0 22
fistula 0 22
failure 0 22
vitamin 0 22
adapted 0 22
linked 0 22
asymmetry 0 22
pattern 0 22
neuropathy 0 22
stature 0 21
syndrome 0 21
feet 0 21
maternal 0 21
hemorrhage 0 21
waves 0 21
ulna 0 21
lumbar 0 21
rib 0 21
shortening 0 21
aneurysm 0 21
radius 0 20
mandibular 0 20
contractures 0 20
palmar 0 20
permanent 0 20
hyperkeratosis 0 20
movement 0 20
insufficiency 0 20
bowing 0 19
glycosylation 0 19
first 0 19
delay 0 19
telangiectasia 0 19
antihelix 0 18
discharges 0 18
maxillary 0 18
fibular 0 18
alkaline 0 18
arteries 0 18
prolonged 0 18
accumulation 0 18
nystagmus 0 18
anomalous 0 18
reflex 0 18
corrected 0 18
palmoplantar 0 18
pseudoepiphyses 0 18
fifth 0 17
speech 0 17
field 0 17
hemangioma 0 17
behavior 0 17
emg 0 17
ring 0 17
flash 0 17
amyotrophy 0 17
lesions 0 17
origin 0 17
connection 0 17
aciduria 0 17
obstruction 0 17
crus 0 17
foveal 0 17
unaided 0 16
flattened 0 16
irregularity 0 16
pressure 0 16
fibrosis 0 16
cystic 0 16
gait 0 16
thickening 0 16
midline 0 16
second 0 16
pinhole 0 16
ganglia 0 16
bleeding 0 16
dysfunction 0 16
diaphysis 0 16
sensorineural 0 16
tarsal 0 16
best 0 16
eyebrow 0 16
total 0 16
coloboma 0 15
chorioretinal 0 15
density 0 15
pathway 0 15
encephalopathy 0 15
slender 0 15
palpebral 0 15
hypotonia 0 15
sclerotic 0 15
abnormalities 0 15
hypopigmentation 0 15
inheritance 0 15
movements 0 15
amplitude 0 15
clinodactyly 0 15
paroxysmal 0 15
dysgenesis 0 15
subluxation 0 15
transient 0 15
spontaneous 0 14
sinuses 0 14
sparse 0 14
laryngeal 0 14
palsy 0 14
glands 0 14
occipital 0 14
creases 0 14
sharp 0 14
shoulder 0 14
auras 0 14
fused 0 14
crease 0 14
birth 0 14
multifocal 0 14
wave 0 14
cardiomyopathy 0 14
ratio 0 14
age 0 14
spastic 0 14
axonal 0 14
urethral 0 14
epileptiform 0 14
hemolytic 0 14
diabetes 0 13
dysplastic 0 13
mild 0 13
moderate 0 13
expression 0 13
exostoses 0 13
sensation 0 13
deformity 0 13
changes 0 13
pubic 0 13
infancy 0 13
fossa 0 13
morphological 0 13
punctate 0 13
iliac 0 13
supraventricular 0 13
secretion 0 13
all 0 13
tremor 0 13
fibers 0 13
intermittent 0 13
constriction 0 13
flared 0 13
after 0 12
melanoma 0 12
cutis 0 12
ears 0 12
paralysis 0 12
base 0 12
forehead 0 12
hands 0 12
widened 0 12
nevus 0 12
polyposis 0 12
fractures 0 12
ataxia 0 12
cysts 0 12
ridge 0 12
vessels 0 12
chin 0 12
pointed 0 12
spike 0 12
spine 0 12
ridges 0 12
vermis 0 12
callosum 0 12
exercise 0 12
testicular 0 12
metabolic 0 12
flat 0 12
arteriosus 0 11
dissection 0 11
calcium 0 11
thickened 0 11
calcifications 0 11
philtrum 0 11
conduction 0 11
demyelination 0 11
hepatitis 0 11
metacarpophalangeal 0 11
tortuosity 0 11
thrombosis 0 11
outlet 0 11
language 0 11
vocal 0 11
lytic 0 11
alopecia 0 11
osteolysis 0 11
persistent 0 11
diaphyses 0 11
wrist 0 11
ophthalmoplegia 0 11
thickness 0 11
aggregation 0 11
patent 0 11
hernia 0 11
appearance 0 11
poor 0 11
infantile 0 11
incisors 0 11
bowel 0 11
spaces 0 11
sarcoglycan 0 11
ectopia 0 11
fissure 0 11
intracranial 0 10
dystonia 0 10
hamartoma 0 10
third 0 10
immunodeficiency 0 10
encephalocele 0 10
childhood 0 10
complexes 0 10
incomplete 0 10
supernumerary 0 10
situs 0 10
ductus 0 10
vermilion 0 10
myotonia 0 10
arms 0 10
fatty 0 10
arteriovenous 0 10
plantar 0 10
gonadal 0 10
hyperostosis 0 10
temporal 0 10
global 0 10
restrictive 0 10
pheochromocytoma 0 10
tibia 0 10
labia 0 10
grade 0 10
dilatation 0 10
localized 0 10
hypoglycemia 0 10
disorder 0 10
earlobe 0 10
deep 0 10
molar 0 10
excretion 0 9
brachydactyly 0 9
hypertrichosis 0 9
capital 0 9
puberty 0 9
tricuspid 0 9
chest 0 9
fingernail 0 9
osteomyelitis 0 9
extension 0 9
talipes 0 9
notch 0 9
volume 0 9
von 0 9
thorax 0 9
abnormally 0 9
corticospinal 0 9
clavicles 0 9
sided 0 9
dyskinesia 0 9
perimetry 0 9
compression 0 9
vena 0 9
underdeveloped 0 9
blindness 0 9
bridge 0 9
turcica 0 9
positivity 0 9
nails 0 9
without 0 9
sloping 0 9
infection 0 9
patellar 0 9
myopathy 0 9
asymmetric 0 9
fatigable 0 9
diaphyseal 0 9
hypopigmented 0 9
lesion 0 9
intolerance 0 9
excessive 0 9
episodes 0 9
cava 0 9
spikes 0 9
retardation 0 9
toenail 0 9
sella 0 9
fourth 0 9
deviated 0 9
o 0 8
scrotum 0 8
skeleton 0 8
uvula 0 8
abscess 0 8
defective 0 8
postaxial 0 8
goiter 0 8
night 0 8
creatine 0 8
wasting 0 8
widely 0 8
precocious 0 8
thrombocytopenia 0 8
stiffness 0 8
postnatal 0 8
deterioration 0 8
conductive 0 8
autosomal 0 8
deformed 0 8
periosteal 0 8
periventricular 0 8
osteoarthritis 0 8
eruption 0 8
disability 0 8
adrenocortical 0 8
acidemia 0 8
fold 0 8
placed 0 8
adenocarcinoma 0 8
mandible 0 8
platyspondyly 0 8
congenita 0 8
scotoma 0 8
fibula 0 8
veins 0 8
lack 0 8
dominant 0 8
lactic 0 8
dynein 0 8
median 0 8
stippled 0 8
hypertension 0 8
osteosclerosis 0 8
costochondral 0 8
hypospadias 0 8
hairline 0 8
swelling 0 8
pneumonia 0 8
sacral 0 8
mobility 0 8
difficulty 0 8
genital 0 8
sacrum 0 8
timing 0 8
axillary 0 8
advanced 0 8
scrotal 0 8
pursuit 0 8
phosphate 0 8
inclusion 0 8
glucose 0 7
premolar 0 7
fallot 0 7
intellectual 0 7
autofluorescent 0 7
neurofibromas 0 7
scarring 0 7
inlet 0 7
areas 0 7
tragus 0 7
narrowing 0 7
length 0 7
hyperextensible 0 7
paraganglioma 0 7
diameter 0 7
proteinuria 0 7
suture 0 7
nonprogressive 0 7
voice 0 7
fontanelles 0 7
craniofacial 0 7
sleep 0 7
steatosis 0 7
scaphoid 0 7
sternal 0 7
apraxia 0 7
hyperpigmented 0 7
hemianopia 0 7
granules 0 7
nevi 0 7
fontanelle 0 7
foci 0 7
hypothyroidism 0 7
eyelids 0 7
nephrolithiasis 0 7
overgrowth 0 7
pallor 0 7
lipopigment 0 7
content 0 7
rate 0 7
maturation 0 7
distribution 0 7
development 0 7
truncal 0 7
sulfate 0 7
hyperextensibility 0 7
ulcer 0 7
ulceration 0 7
fallopian 0 7
cupped 0 7
mineral 0 7
megaloblastic 0 7
vitreous 0 7
epimetaphyseal 0 7
hypogonadism 0 7
tetralogy 0 7
kyphosis 0 7
degrees 0 7
sarcoma 0 7
arthritis 0 7
vasculitis 0 7
fibroma 0 7
closure 0 7
osteoporosis 0 7
susceptibility 0 7
alkalosis 0 7
spaced 0 7
fibrous 0 7
instability 0 7
reflexes 0 7
globe 0 7
segmentation 0 7
detachment 0 7
facies 0 7
sign 0 7
mellitus 0 7
shortened 0 7
thalamic 0 7
legs 0 6
myoclonic 0 6
lipoma 0 6
hallucinations 0 6
expanded 0 6
spots 0 6
chloride 0 6
somatosensory 0 6
aplastic 0 6
cordis 0 6
peduncle 0 6
measured 0 6
palm 0 6
tonic 0 6
maxilla 0 6
malrotation 0 6
inappropriate 0 6
myoclonus 0 6
laterally 0 6
velocity 0 6
spasticity 0 6
valgus 0 6
chondromatosis 0 6
autoimmune 0 6
retinopathy 0 6
cholesterol 0 6
glaucoma 0 6
folate 0 6
sternum 0 6
dermatitis 0 6
atherosclerosis 0 6
amyloidosis 0 6
trapezoid 0 6
hypointense 0 6
rigidity 0 6
schwannoma 0 6
transposition 0 6
widening 0 6
delivery 0 6
fever 0 6
hypermobility 0 6
malignant 0 6
obstructive 0 6
myelination 0 6
disproportionate 0 6
profound 0 6
antitragus 0 6
index 0 6
nephrotic 0 6
valves 0 6
viral 0 6
deformities 0 6
periodic 0 6
choanal 0 6
involuntary 0 6
rupture 0 6
columella 0 6
prominence 0 6
cilia 0 6
walk 0 6
stridor 0 6
fingernails 0 6
preserved 0 6
macrocephaly 0 6
thoracolumbar 0 6
medially 0 6
hirsutism 0 6
deficient 0 6
wedging 0 6
conical 0 6
sacroiliac 0 6
arachnoid 0 6
vision 0 6
scoliosis 0 6
action 0 6
trapezium 0 6
coarctation 0 6
radially 0 6
orbital 0 6
extremities 0 6
fucosylation 0 6
junction 0 6
coordination 0 6
autoamputation 0 6
coccyx 0 6
celiac 0 6
wings 0 6
diarrhea 0 6
round 0 6
hydrocephalus 0 6
coagulation 0 6
dementia 0 6
intracellular 0 6
willebrand 0 6
carnitine 0 6
centers 0 6
posteriorly 0 6
erythroderma 0 6
acetabular 0 6
hyporeflective 0 6
distance 0 6
calcific 0 6
ptosis 0 6
opacification 0 6
craniosynostosis 0 6
tapered 0 6
digits 0 6
lactate 0 6
extraocular 0 6
signs 0 6
rotated 0 6
sutures 0 6
diaphragmatic 0 6
social 0 6
sun 0 6
degree 0 6
apnea 0 6
enlargement 0 6
polyneuropathy 0 6
clonic 0 5
feeding 0 5
tubulointerstitial 0 5
torsion 0 5
bacterial 0 5
cancer 0 5
coa 0 5
achilles 0 5
lymphangiectasia 0 5
fibrillation 0 5
kyphoscoliosis 0 5
pits 0 5
hypotrichosis 0 5
dilated 0 5
ankle 0 5
diverticula 0 5
diaphragm 0 5
ambiguous 0 5
cortisol 0 5
keratoderma 0 5
demyelinating 0 5
interval 0 5
teratoma 0 5
interrupted 0 5
cirrhosis 0 5
midface 0 5
leukoencephalopathy 0 5
metopic 0 5
macules 0 5
pigmentary 0 5
stationary 0 5
polymorphic 0 5
subarachnoid 0 5
mri 0 5
meningocele 0 5
mrs 0 5
inversus 0 5
bifida 0 5
hyperhidrosis 0 5
foramen 0 5
fetoprotein 0 5
hyperreflexia 0 5
granulomatosis 0 5
color 0 5
scapular 0 5
hemifacial 0 5
fdg 0 5
heads 0 5
levels 0 5
headache 0 5
reduction 0 5
c3 0 5
nares 0 5
pancreatitis 0 5
rami 0 5
metatcarpal 0 5
electrophysiology 0 5
aspiration 0 5
deposition 0 5
hyperparathyroidism 0 5
dysostosis 0 5
ability 0 5
proliferation 0 5
renin 0 5
gaze 0 5
potassium 0 5
laxity 0 5
tumors 0 5
consciousness 0 5
subcortical 0 5
vertical 0 5
paresis 0 5
extrapyramidal 0 5
streaks 0 5
self 0 5
photoparoxysmal 0 5
truncus 0 5
yellow 0 5
endplates 0 5
erythema 0 5
minora 0 5
longitudinal 0 5
lipid 0 5
dimple 0 5
lipomas 0 5
radioulnar 0 5
linear 0 5
neuromuscular 0 5
toenails 0 5
hyperventilation 0 5
weight 0 5
ends 0 5
macrocytic 0 5
ventricles 0 5
uveitis 0 5
periorbital 0 5
cramps 0 5
stapes 0 5
tall 0 5
exposed 0 5
scapulae 0 5
hyperbilirubinemia 0 5
sequestration 0 5
tracts 0 5
supraorbital 0 5
spina 0 5
gliosis 0 5
calcaneus 0 5
resistance 0 5
nipples 0 5
hyperconvex 0 5
dicarboxylic 0 5
pericentral 0 5
metatarsophalangeal 0 5
cupping 0 5
saccades 0 5
transmission 0 5
ankles 0 5
carcinoid 0 5
shoulders 0 5
reversal 0 5
neoplasia 0 5
margin 0 5
pregnancy 0 5
calf 0 5
beaking 0 5
hyperactive 0 5
ankylosis 0 5
spinocerebellar 0 5
limitation 0 5
sialylation 0 5
pterygium 0 5
rest 0 5
wrinkling 0 5
hyperaldosteronism 0 5
shunt 0 5
camptodactyly 0 5
set 0 5
difficulties 0 5
lissencephaly 0 5
dermatoglyphic 0 5
nodule 0 5
fatigue 0 5
cycle 0 5
angle 0 5
interpedicular 0 5
rhabdomyolysis 0 5
mesothelioma 0 5
epiglottis 0 5
frequency 0 5
oligodactyly 0 5
polymicrogyria 0 5
undetectable 0 5
effusion 0 5
prenatal 0 5
squared 0 4
ileus 0 4
prothrombin 0 4
corticomedullary 0 4
perforation 0 4
hard 0 4
refractory 0 4
pupillary 0 4
hyperphenylalaninemia 0 4
catecholamine 0 4
calvaria 0 4
depigmentation 0 4
pulverulent 0 4
condyle 0 4
prolapse 0 4
thyrotoxicosis 0 4
triphalangeal 0 4
dopamine 0 4
lunate 0 4
thumbs 0 4
rhinitis 0 4
vomiting 0 4
rudimentary 0 4
hepatocellular 0 4
anus 0 4
patella 0 4
neuroectodermal 0 4
atrophic 0 4
dysregulation 0 4
arrhythmia 0 4
branchial 0 4
displaced 0 4
club 0 4
hypotension 0 4
static 0 4
lymphocytopenia 0 4
sodium 0 4
bite 0 4
embryonal 0 4
acral 0 4
colitis 0 4
lungs 0 4
hemidiaphragm 0 4
abduction 0 4
spurred 0 4
deposits 0 4
differentiation 0 4
paraplegia 0 4
keratosis 0 4
hypertonia 0 4
10 0 4
neovascularization 0 4
butterfly 0 4
benign 0 4
hydroxyglutaric 0 4
glomerulonephritis 0 4
rapid 0 4
bronchiolitis 0 4
striations 0 4
hyporeflexia 0 4
retroesophageal 0 4
genitourinary 0 4
expressive 0 4
spasms 0 4
opacities 0 4
insertion 0 4
imperfecta 0 4
microtia 0 4
glenoid 0 4
creatinine 0 4
pinna 0 4
purine 0 4
lethal 0 4
palatine 0 4
holoprosencephaly 0 4
anosmia 0 4
cholestasis 0 4
ejection 0 4
apex 0 4
protruding 0 4
deficit 0 4
vibration 0 4
new 0 4
repetitive 0 4
media 0 4
hypokalemic 0 4
manifest 0 4
fasciculations 0 4
patches 0 4
allergy 0 4
disturbance 0 4
hyperplastic 0 4
lymphadenopathy 0 4
pectus 0 4
dehydrogenase 0 4
redundant 0 4
angioma 0 4
exudate 0 4
pyruvate 0 4
dumbbell 0 4
aminoaciduria 0 4
bronchitis 0 4
nephritis 0 4
candidiasis 0 4
c2 0 4
au 0 4
flammeus 0 4
sudden 0 4
larynx 0 4
dysharmonic 0 4
image 0 4
naris 0 4
personality 0 4
thenar 0 4
rash 0 4
otitis 0 4
fractured 0 4
portal 0 4
caudate 0 4
cheeks 0 4
myelodysplasia 0 4
oxidase 0 4
noncompaction 0 4
undergrowth 0 4
azoospermia 0 4
cation 0 4
autofluorescence 0 4
glioma 0 4
location 0 4
depressed 0 4
inability 0 4
leukodystrophy 0 4
eminence 0 4
dorsum 0 4
exudative 0 4
intrauterine 0 4
microcephaly 0 4
committed 0 4
coxa 0 4
combined 0 4
gastritis 0 4
anteriorly 0 4
ejaculation 0 4
hypoventilation 0 4
inspiratory 0 4
pet 0 4
folds 0 4
lait 0 4
depletion 0 4
tics 0 4
splayed 0 4
hypersensitivity 0 4
jaundice 0 4
syncope 0 4
pilonidal 0 4
erosions 0 4
regurgitation 0 4
exaggerated 0 4
basement 0 4
osseous 0 4
quadriceps 0 4
equinovarus 0 4
deltoid 0 4
gallstones 0 4
potential 0 4
sounds 0 4
fissures 0 4
coronal 0 4
mirror 0 4
intraocular 0 4
segmental 0 4
mesomelic 0 4
thrive 0 4
hypometabolism 0 4
mastoid 0 4
periodontitis 0 4
ichthyosiform 0 4
displacement 0 4
caesarian 0 4
rectal 0 4
nerves 0 4
kinetic 0 4
fine 0 4
extensor 0 4
osteoporotic 0 4
processes 0 4
ketoacidosis 0 4
nephrocalcinosis 0 4
hemiatrophy 0 4
excess 0 4
presentation 0 4
meningitis 0 4
during 0 4
eustachian 0 4
concealed 0 4
lacrimation 0 4
styloid 0 4
accelerated 0 4
hamate 0 4
duplicated 0 4
breech 0 4
supranuclear 0 4
spot 0 4
sinusitis 0 4
cage 0 4
alae 0 4
cafe 0 4
metatarsals 0 4
xiphoid 0 4
paraparesis 0 4
polycystic 0 4
males 0 4
thinning 0 4
acth 0 4
cataracts 0 4
auricular 0 4
symmetric 0 4
dermatoglyphics 0 4
bony 0 4
vestibule 0 4
hyperintense 0 4
stress 0 4
blistering 0 4
spurs 0 4
cavernous 0 4
punctum 0 4
intimal 0 4
phosphokinase 0 4
lymphoblastic 0 4
sacrosciatic 0 4
tapering 0 4
nodules 0 4
orthostatic 0 4
stroke 0 4
postural 0 4
output 0 4
areflexia 0 4
morbus 0 4
microdontia 0 4
amyloid 0 4
split 0 4
arteriolar 0 4
telangiectases 0 4
cross 0 4
onycholysis 0 4
majora 0 4
motility 0 4
pellucidum 0 4
multimers 0 4
helices 0 4
aganglionosis 0 4
sensitivity 0 4
subungual 0 4
testes 0 4
growing 0 4
obesity 0 4
clonus 0 4
reticulate 0 4
fovea 0 4
melanocytic 0 3
dislocated 0 3
ascites 0 3
energy 0 3
rounded 0 3
poorly 0 3
rheumatoid 0 3
salt 0 3
multinodular 0 3
pharynx 0 3
nephroblastomatosis 0 3
flaring 0 3
ferritin 0 3
roof 0 3
lamellar 0 3
mottled 0 3
tarsals 0 3
neuropathic 0 3
granulocytic 0 3
desmin 0 3
2.0 0 3
dysferlin 0 3
cor 0 3
arthrogryposis 0 3
gout 0 3
temporomandibular 0 3
pneumothorax 0 3
direction 0 3
cry 0 3
rows 0 3
cystadenoma 0 3
hemiparesis 0 3
myelinated 0 3
merosin 0 3
dystrophin 0 3
two 0 3
lipodystrophy 0 3
thigh 0 3
submucous 0 3
ossified 0 3
pseudohermaphroditism 0 3
lysine 0 3
systolic 0 3
megacolon 0 3
borderline 0 3
crumpled 0 3
junctional 0 3
hyperammonemia 0 3
multicentric 0 3
eyebrows 0 3
tomography 0 3
malabsorption 0 3
mildly 0 3
pyrimidine 0 3
hematuria 0 3
notched 0 3
criss 0 3
chromosomal 0 3
profile 0 3
ectropion 0 3
biventricular 0 3
multiplex 0 3
pterygia 0 3
polyp 0 3
meningioma 0 3
proportionate 0 3
back 0 3
hemisphere 0 3
endplate 0 3
talus 0 3
olecranon 0 3
polyarticular 0 3
microcytic 0 3
dysphagia 0 3
3.0 0 3
status 0 3
bands 0 3
unilambdoid 0 3
intravascular 0 3
streak 0 3
ovaries 0 3
hypersegmentation 0 3
myelomonocytic 0 3
intensity 0 3
premaxilla 0 3
occiput 0 3
photosensitivity 0 3
height 0 3
lymphocytes 0 3
endometriosis 0 3
aseptic 0 3
25 0 3
agnosia 0 3
partition 0 3
30 0 3
heterotopia 0 3
stiff 0 3
lymphedema 0 3
hyposmia 0 3
abortion 0 3
dystroglycan 0 3
subaortic 0 3
cortices 0 3
venosus 0 3
rickets 0 3
aged 0 3
pneumonitis 0 3
fertility 0 3
coarse 0 3
obliteration 0 3
polyps 0 3
offset 0 3
flexor 0 3
nuchal 0 3
intermamillary 0 3
intracerebral 0 3
tensor 0 3
urticaria 0 3
dehydration 0 3
hordeolum 0 3
pseudarthrosis 0 3
monochromacy 0 3
infertility 0 3
ekg 0 3
cryptorchidism 0 3
ristocetin 0 3
elongated 0 3
membranes 0 3
females 0 3
shaft 0 3
hemihypertrophy 0 3
enteroviral 0 3
sagittal 0 3
perception 0 3
diverticulosis 0 3
saturation 0 3
bridging 0 3
amelia 0 3
hypoparathyroidism 0 3
emerin 0 3
progression 0 3
around 0 3
peromelia 0 3
stimulation 0 3
macrodactyly 0 3
chiari 0 3
bulging 0 3
glomerulosclerosis 0 3
midnasal 0 3
xanthine 0 3
atretic 0 3
imaging 0 3
acroosteolysis 0 3
pneumatization 0 3
ischemic 0 3
glabella 0 3
window 0 3
euthyroid 0 3
calpain 0 3
arteriosclerosis 0 3
tinnitus 0 3
erythematous 0 3
ventriculomegaly 0 3
portion 0 3
acromelia 0 3
arrest 0 3
marked 0 3
proximally 0 3
cofactor 0 3
leukoplakia 0 3
hemivertebrae 0 3
occlusion 0 3
crystals 0 3
pseudobulbar 0 3
magna 0 3
ambiguus 0 3
opacity 0 3
expenditure 0 3
enuresis 0 3
digital 0 3
necrotizing 0 3
histiocytosis 0 3
nasolabial 0 3
very 0 3
hz 0 3
plates 0 3
lingual 0 3
strabismus 0 3
bossing 0 3
l5 0 3
cerebrum 0 3
solitary 0 3
macrodontia 0 3
tolerance 0 3
carpometacarpal 0 3
hemangioblastoma 0 3
os 0 3
radiation 0 3
regeneration 0 3
tubulopathy 0 3
mesoaxial 0 3
plagiocephaly 0 3
t4 0 3
st 0 3
rhizomelic 0 3
varus 0 3
neutropenia 0 3
vi 0 3
gap 0 3
leiomyosarcoma 0 3
breakage 0 3
dimples 0 3
agranulocytosis 0 3
intraretinal 0 3
citrulline 0 3
occlusive 0 3
flicker 0 3
numerous 0 3
lips 0 3
labial 0 3
drusen 0 3
persistence 0 3
facet 0 3
capitate 0 3
phocomelia 0 3
albinism 0 3
young 0 3
reabsorption 0 3
carboxylase 0 3
ossicles 0 3
melanosomes 0 3
conjunctivitis 0 3
histidine 0 3
preauricular 0 3
epiblepharon 0 3
extra 0 3
elevation 0 3
compensatory 0 3
epidermoid 0 3
scapuloperoneal 0 3
moderately 0 3
nipple 0 3
hyperlipidemia 0 3
synechiae 0 3
myxoma 0 3
incontinence 0 3
adrenocorticotropin 0 3
nephropathy 0 3
nocturnal 0 3
neuroblastoma 0 3
wrists 0 3
bulbar 0 3
magnesium 0 3
thrombophlebitis 0 3
anteverted 0 3
organs 0 3
cryptotia 0 3
fragility 0 3
humphrey 0 3
square 0 3
paracentral 0 3
infarction 0 3
intralobar 0 3
mean 0 3
globus 0 3
hoarse 0 3
willibrand 0 3
infra 0 3
macroorchidism 0 3
migraine 0 3
dyspnea 0 3
arthralgia 0 3
hole 0 3
fetalis 0 3
constipation 0 3
atlantoaxial 0 3
hydrops 0 3
phenomenon 0 3
paradoxical 0 3
perifoveal 0 3
return 0 3
lagophthalmos 0 3
patellae 0 3
position 0 3
rhomboid 0 3
regulation 0 3
b12 0 3
clavicle 0 3
hypophosphatemia 0 3
psychotic 0 3
rugation 0 3
temperature 0 3
diplegia 0 3
titubation 0 3
angulated 0 3
adjusting 0 3
unicoronal 0 3
arteritis 0 3
commissure 0 3
preaxial 0 3
distress 0 3
saccadic 0 3
ridged 0 3
cylindruria 0 3
lenticonus 0 3
subependymal 0 3
clubbing 0 3
biceps 0 3
falx 0 3
tshr 0 3
pseudoarthrosis 0 3
subretinal 0 3
pons 0 3
exstrophy 0 3
cerebri 0 3
bulbous 0 3
amenorrhea 0 3
shallow 0 3
post 0 3
congestive 0 3
activation 0 3
production 0 3
aganglionic 0 3
degenerative 0 3
hyperautofluorescence 0 3
segments 0 3
synthesis 0 3
calcaneovalgus 0 3
acne 0 3
hypomyelination 0 3
vulvar 0 3
0.1 0 3
0.2 0 3
0.3 0 3
0.4 0 3
0.5 0 3
0.6 0 3
0.7 0 3
0.8 0 3
0.9 0 3
lumbosacral 0 3
dislocations 0 3
cavities 0 3
curly 0 3
microphthalmos 0 3
fragmented 0 3
atp 0 3
choreoathetosis 0 3
acids 0 3
hypo 0 3
hygroma 0 3
anomalies 0 3
arthropathy 0 3
genu 0 3
greater 0 3
totalis 0 3
tetraparesis 0 3
hypoglycemic 0 3
pedicle 0 3
plaque 0 3
crisis 0 3
ketoglutarate 0 3
insensitivity 0 3
depression 0 3
constricted 0 3
whorls 0 3
synaptic 0 3
urachus 0 3
dentinogenesis 0 3
extrahepatic 0 3
anxiety 0 3
compulsive 0 3
symmetrical 0 3
gluteal 0 3
bicarbonate 0 3
rhabdomyosarcoma 0 3
inflammation 0 3
clearance 0 3
parotid 0 3
myoglobinuria 0 3
malar 0 3
1.0 0 3
1.1 0 3
1.2 0 3
1.3 0 3
mental 0 3
freckling 0 3
vitreoretinopathy 0 3
cavus 0 3
mannosylation 0 3
asthma 0 3
febrile 0 3
imperforate 0 3
gonadoblastoma 0 3
sideroblastic 0 3
hemiplegia 0 3
enhanced 0 3
myopia 0 3
occulta 0 3
triceps 0 3
magnum 0 3
acetylcholine 0 3
papule 0 3
tetraplegia 0 3
papilloma 0 3
aldolase 0 3
following 0 3
spinous 0 3
weak 0 3
erythrocytes 0 3
entrapment 0 3
site 0 3
sita 0 3
pallidus 0 3
hemangiomatosis 0 3
tag 0 3
adduction 0 3
fragile 0 3
everted 0 3
insipidus 0 3
motion 0 3
mitochondria 0 3
rachitic 0 2
oligodendroglia 0 2
varix 0 2
dysmotility 0 2
corners 0 2
paralytic 0 2
violent 0 2
undulate 0 2
melanocytes 0 2
onto 0 2
soles 0 2
erosion 0 2
elasticity 0 2
hypometric 0 2
microtubular 0 2
behavioral 0 2
anticipation 0 2
pili 0 2
dyschromatopsia 0 2
straddling 0 2
flow 0 2
xanthomatosis 0 2
mutation 0 2
cords 0 2
mydriasis 0 2
microscopic 0 2
heterochromia 0 2
purpura 0 2
allergic 0 2
2.5 0 2
inhibitors 0 2
minor 0 2
findings 0 2
angiokeratoma 0 2
carboxylic 0 2
pitched 0 2
vacuoles 0 2
pericarditis 0 2
maximal 0 2
fullness 0 2
osmotic 0 2
extrasystoles 0 2
pneumothoraces 0 2
responsiveness 0 2
postauricular 0 2
dystrophic 0 2
intraabdominal 0 2
chevron 0 2
lid 0 2
basilar 0 2
separation 0 2
dwarfism 0 2
fixed 0 2
reentry 0 2
full 0 2
painful 0 2
pair 0 2
hypercalcemia 0 2
dysmetria 0 2
polysaccharide 0 2
pyelonephritis 0 2
conjugate 0 2
suppression 0 2
periportal 0 2
drowsiness 0 2
myelomeningocele 0 2
serpiginous 0 2
anhidrosis 0 2
meconium 0 2
hydrocele 0 2
overriding 0 2
frenulum 0 2
kidneys 0 2
hypoproteinemia 0 2
angiomatosis 0 2
humeroradial 0 2
pseudo 0 2
shock 0 2
pulmonic 0 2
tuberosities 0 2
hamartomatous 0 2
chaotic 0 2
congruous 0 2
osteoma 0 2
underdevelopment 0 2
propagation 0 2
vertigo 0 2
angiotensin 0 2
mucopolysaccharide 0 2
utero 0 2
whorl 0 2
ovoid 0 2
aqueduct 0 2
isomerism 0 2
fundal 0 2
hypercorticolism 0 2
fingerprint 0 2
flattening 0 2
inorganic 0 2
lobe 0 2
3.5 0 2
hypoxemia 0 2
glabellar 0 2
periosteum 0 2
bridged 0 2
tented 0 2
neurologic 0 2
continuous 0 2
spotty 0 2
dry 0 2
hypothenar 0 2
hypermyelination 0 2
ischia 0 2
cheilitis 0 2
rhabdomyoma 0 2
dysmyelination 0 2
dexamethasone 0 2
circulation 0 2
branching 0 2
synthetase 0 2
tarsometatarsal 0 2
esterase 0 2
11 0 2
sensorimotor 0 2
shuffling 0 2
20 0 2
mid 0 2
destruction 0 2
cloacal 0 2
gyrata 0 2
laminin 0 2
40 0 2
talar 0 2
perstans 0 2
echogenic 0 2
50 0 2
wrinkled 0 2
nausea 0 2
discrete 0 2
congenitally 0 2
urgency 0 2
hyperechogenic 0 2
penile 0 2
humor 0 2
neurofibromatosis 0 2
corticotropin 0 2
neuralgia 0 2
vas 0 2
pendular 0 2
carinatum 0 2
variability 0 2
choline 0 2
glycosaminoglycan 0 2
droplets 0 2
ossifying 0 2
dispersion 0 2
fingertip 0 2
jejunoileal 0 2
exotropia 0 2
prostaglandin 0 2
sequence 0 2
odontoideum 0 2
perianal 0 2
retroperitoneal 0 2
walking 0 2
valvular 0 2
variable 0 2
peroneal 0 2
electrooculogram 0 2
scapula 0 2
adolescence 0 2
dentition 0 2
rhythms 0 2
slurred 0 2
erythematosus 0 2
angiosarcoma 0 2
fulminant 0 2
leukocytes 0 2
loops 0 2
canine 0 2
nonketotic 0 2
discrimination 0 2
synthase 0 2
dissociation 0 2
thoracoabdominal 0 2
undermodelled 0 2
localization 0 2
pulsatile 0 2
indeterminate 0 2
myopathic 0 2
valga 0 2
humoral 0 2
malocclusion 0 2
pseudohypertrophy 0 2
inertia 0 2
tetany 0 2
monodactyly 0 2
hyperphalangy 0 2
transfusion 0 2
disorders 0 2
dyssynergia 0 2
breasts 0 2
cisterna 0 2
lethargy 0 2
angles 0 2
cupid's 0 2
hypokalemia 0 2
urogenital 0 2
dermatological 0 2
transport 0 2
autism 0 2
humeroulnar 0 2
neurodegeneration 0 2
trapezoidal 0 2
ipsilateral 0 2
aphasia 0 2
depigmented 0 2
angiography 0 2
anaplastic 0 2
genetic 0 2
woolly 0 2
fluctuating 0 2
metencephalon 0 2
aphalangy 0 2
chondrocalcinosis 0 2
features 0 2
malleus 0 2
myelopathy 0 2
flutter 0 2
midclavicular 0 2
denervation 0 2
saccular 0 2
lupus 0 2
anterioposterior 0 2
leiomyoma 0 2
flexural 0 2
doubly 0 2
shafts 0 2
hyperkalemic 0 2
junctions 0 2
cholestatic 0 2
web 0 2
erectile 0 2
grid 0 2
tapetoretinal 0 2
stomatitis 0 2
inguinal 0 2
inversion 0 2
oligodontia 0 2
a2 0 2
attention 0 2
aldosterone 0 2
ganglioside 0 2
b3 0 2
morphologic 0 2
thromboxane 0 2
c1 0 2
scalloping 0 2
av 0 2
formed 0 2
unerupted 0 2
akinesia 0 2
urate 0 2
condyles 0 2
psychomotor 0 2
scapulohumeral 0 2
scars 0 2
supination 0 2
burst 0 2
lymphocytosis 0 2
neurodevelopmental 0 2
mosaic 0 2
chewing 0 2
decade 0 2
zonular 0 2
intramuscular 0 2
relationships 0 2
zinc 0 2
verrucous 0 2
leptin 0 2
ix 0 2
brittle 0 2
cephalocele 0 2
valosin 0 2
oxidation 0 2
atopic 0 2
overlapping 0 2
mutism 0 2
aspartate 0 2
toxic 0 2
asymmetrical 0 2
disk 0 2
furrow 0 2
fasting 0 2
hyperglycemia 0 2
subpulmonary 0 2
rarefaction 0 2
hypermetropia 0 2
communicating 0 2
pr 0 2
spondylolisthesis 0 2
emission 0 2
fascicular 0 2
interdigital 0 2
s1 0 2
qt 0 2
apneic 0 2
caudal 0 2
cognitive 0 2
cavernosum 0 2
miosis 0 2
chromatid 0 2
spatulate 0 2
connected 0 2
mastocytosis 0 2
sulfite 0 2
biting 0 2
ophthalmoparesis 0 2
awareness 0 2
lamin 0 2
mutilation 0 2
vu 0 2
schwalbe 0 2
seborrheic 0 2
microsaccadic 0 2
salivation 0 2
cystoid 0 2
deaminase 0 2
coma 0 2
surrounded 0 2
columns 0 2
onion 0 2
drug 0 2
healing 0 2
capsular 0 2
esotropia 0 2
epileptic 0 2
glutaric 0 2
tympanii 0 2
clefting 0 2
hyperinsulinemia 0 2
assay 0 2
thyroiditis 0 2
inversa 0 2
slowed 0 2
excavatum 0 2
trauma 0 2
macronodular 0 2
externally 0 2
wing 0 2
splenomegaly 0 2
plateaux 0 2
clitoral 0 2
webbed 0 2
flecks 0 2
oculomotor 0 2
encephalitis 0 2
bicuspid 0 2
area 0 2
calcaneal 0 2
underfolded 0 2
hyperglycinemia 0 2
pear 0 2
ethmoidal 0 2
infiltrates 0 2
groin 0 2
methylmalonic 0 2
myotonic 0 2
favorable 0 2
dermoid 0 2
peg 0 2
myxoid 0 2
balding 0 2
ilium 0 2
prematurely 0 2
peer 0 2
requiring 0 2
epididymal 0 2
phagocytes 0 2
colorectal 0 2
pathologic 0 2
umbilicus 0 2
stricture 0 2
mobitz 0 2
paraspinal 0 2
hypochromic 0 2
pretibial 0 2
translucency 0 2
cuboid 0 2
interpediculate 0 2
myotilin 0 2
hypersomnia 0 2
precursors 0 2
cytochrome 0 2
automated 0 2
miniature 0 2
enchondromatosis 0 2
spongiform 0 2
propionyl 0 2
impingement 0 2
olivopontocerebellar 0 2
minimal 0 2
pth 0 2
ionizing 0 2
freckles 0 2
lipoprotein 0 2
happy 0 2
phenotypic 0 2
gustatory 0 2
laxa 0 2
unossified 0 2
glutamine 0 2
bradycardia 0 2
elliptocytosis 0 2
torticollis 0 2
vitelliform 0 2
postprandial 0 2
scheuermann 0 2
neuritis 0 2
misalignment 0 2
gross 0 2
malaligned 0 2
pigmentosa 0 2
perioral 0 2
alternative 0 2
crowded 0 2
darwin 0 2
irregularly 0 2
zygomatic 0 2
libido 0 2
metachromasia 0 2
emotional 0 2
astigmatism 0 2
choledochus 0 2
hypogammaglobulinemia 0 2
normocytic 0 2
methionine 0 2
relatively 0 2
confusion 0 2
tactile 0 2
globulin 0 2
cilium 0 2
endocarditis 0 2
variants 0 2
spatial 0 2
predominance 0 2
heavy 0 2
altered 0 2
glioblastoma 0 2
modalities 0 2
vitreoretinal 0 2
within 0 2
serine 0 2
bidirectional 0 2
hyperactivity 0 2
fistulas 0 2
pleocytosis 0 2
schisis 0 2
hypertensive 0 2
true 0 2
present 0 2
laughter 0 2
metatarsus 0 2
confetti 0 2
transaminases 0 2
atonic 0 2
synovitis 0 2
tendineae 0 2
obsessive 0 2
palpitations 0 2
hyperlordosis 0 2
cheekbone 0 2
pubertal 0 2
positron 0 2
impacted 0 2
aniridia 0 2
qrs 0 2
stagnation 0 2
pruritus 0 2
epistaxis 0 2
arnold 0 2
reactive 0 2
laboratory 0 2
uvea 0 2
surfaces 0 2
reflux 0 2
dilation 0 2
lattice 0 2
myeloproliferative 0 2
hyperchloremic 0 2
hemoglobinuria 0 2
draining 0 2
narrowness 0 2
regions 0 2
immunity 0 2
proprioception 0 2
astrocytoma 0 2
megacystis 0 2
caused 0 2
comma 0 2
macule 0 2
myalgia 0 2
dehydrocholesterol 0 2
vitiligo 0 2
liposarcoma 0 2
repair 0 2
frequent 0 2
cellulitis 0 2
quantity 0 2
sweating 0 2
paternal 0 2
carpals 0 2
orifice 0 2
percussion 0 2
adenosine 0 2
percentile 0 2
placement 0 2
inclusions 0 2
trabeculae 0 2
jerky 0 2
thromboembolism 0 2
aggressive 0 2
kommerell 0 2
hypothermia 0 2
jerk 0 2
meninges 0 2
aortopulmonary 0 2
claudication 0 2
contiguous 0 2
preexcitation 0 2
normochromic 0 2
ulcers 0 2
bitemporal 0 2
madelung 0 2
subarterial 0 2
craving 0 2
hypodensities 0 2
varicose 0 2
ichthyosis 0 2
teleangiectasia 0 2
calcified 0 2
clavicular 0 2
t12 0 2
eczema 0 2
interossei 0 2
frontotemporal 0 2
orotic 0 2
chondritis 0 2
diminished 0 2
heteronymous 0 2
oncocytoma 0 2
hematoma 0 2
quadriplegia 0 2
lobes 0 2
epicanthus 0 2
rings 0 2
unconjugated 0 2
ducts 0 2
menstrual 0 2
periauricular 0 2
bowed 0 2
premaxillary 0 2
glomus 0 2
phytanic 0 2
interosseus 0 2
horner 0 2
keratoconjunctivitis 0 2
mood 0 2
affective 0 2
crying 0 2
concentric 0 2
phenylalanine 0 2
fructose 0 2
compensated 0 2
homonymous 0 2
vestibulo 0 2
severely 0 2
gene 0 2
bronchopulmonary 0 2
hypopituitarism 0 2
penoscrotal 0 2
clivus 0 2
hepatomegaly 0 2
parkinsonism 0 2
frontalis 0 2
pectoral 0 2
fontanel 0 2
hypohidrosis 0 2
polyuria 0 2
homovanillic 0 2
perifollicular 0 2
increase 0 2
recessive 0 2
trichilemmoma 0 2
pyelectasis 0 2
subacute 0 2
pyrophosphate 0 2
lichenification 0 2
symptoms 0 2
ketosis 0 2
polysyndactyly 0 2
frontoparietal 0 2
resorption 0 2
bed 0 2
myokymia 0 2
subvalvular 0 2
perineal 0 2
breathing 0 2
gonadotropins 0 2
hemolysis 0 2
corner 0 2
hypocalcemic 0 2
bactericidal 0 2
trabeculation 0 2
ilia 0 2
aura 0 2
chordae 0 2
sutural 0 2
glomerulopathy 0 2
knees 0 2
falls 0 2
medulloblastoma 0 2
keratitis 0 2
forceps 0 2
hypochloremic 0 2
leiomyomatosis 0 2
bow 0 2
highly 0 2
perilobar 0 2
subperiosteal 0 2
retinitis 0 2
diastasis 0 2
injury 0 2
extremity 0 2
alcohol 0 2
graying 0 2
morning 0 2
hodgkin 0 2
tachypnea 0 2
stones 0 2
imprinting 0 2
vertex 0 2
anophthalmia 0 2
pairs 0 2
minicore 0 2
fragments 0 2
constrictive 0 2
deferens 0 2
galactose 0 2
intrapulmonary 0 2
malformations 0 2
thalamus 0 2
germinoma 0 2
voltage 0 2
hips 0 2
migration 0 2
micronodular 0 2
onychogryposis 0 2
curvilinear 0 2
penetrance 0 2
interna 0 2
methyltetrahydrofolate 0 2
situ 0 2
trophic 0 2
twelfth 0 2
obliterans 0 2
thumbnail 0 2
tibialis 0 2
stereotypical 0 2
dysarthria 0 2
bipartite 0 2
fasciitis 0 2
encased 0 1
half 0 1
rosary 0 1
disproportion 0 1
imperfect 0 1
stomatocytosis 0 1
eversion 0 1
thymoma 0 1
trochanters 0 1
endolymphatic 0 1
avascularization 0 1
hydratase 0 1
pica 0 1
periungual 0 1
scleroderma 0 1
hypertropy 0 1
spreading 0 1
hyperprostaglandinuria 0 1
avoidance 0 1
myelogram 0 1
glucocerebrosidase 0 1
synovia 0 1
autoimmunity 0 1
osteochondroma 0 1
supravalvular 0 1
visceromegaly 0 1
nodding 0 1
galactosidase 0 1
slowing 0 1
enteropathy 0 1
myoclonia 0 1
hypolipoproteinemia 0 1
deuteranopia 0 1
asymptomatic 0 1
eating 0 1
latissimus 0 1
hypervolemia 0 1
u 0 1
flavoprotein 0 1
acetylcarnitine 0 1
aprosencephaly 0 1
macroglobulinemia 0 1
surgery 0 1
pseudopapilledema 0 1
postductal 0 1
crescentic 0 1
nonverbal 0 1
esthesioneuroblastoma 0 1
mnemonic 0 1
hypocellularity 0 1
angiolipomas 0 1
hypercitraturia 0 1
hyperlysinemia 0 1
walker 0 1
microcysts 0 1
immotile 0 1
thrombin 0 1
hypoammonemia 0 1
dexter 0 1
waldenstrom 0 1
bilobate 0 1
diplopia 0 1
dihydroxyvitamin 0 1
levator 0 1
ventilator 0 1
koehler 0 1
chalazion 0 1
nonepidermolytic 0 1
serratus 0 1
sarcoplasmic 0 1
methylcobalamin 0 1
iridescent 0 1
cheek 0 1
dioxygenase 0 1
aldehyde 0 1
prolinuria 0 1
infarcts 0 1
ependymoblastoma 0 1
sarcosine 0 1
dysuria 0 1
polycoria 0 1
cobalamin 0 1
punding 0 1
aneurysmal 0 1
torsade 0 1
carious 0 1
granulocytes 0 1
angular 0 1
sydney 0 1
brushfield 0 1
cloverleaf 0 1
hyperoxaluria 0 1
varum 0 1
top 0 1
microcornea 0 1
calcaneovarus 0 1
question 0 1
occupational 0 1
drugs 0 1
microphakia 0 1
bouchard's 0 1
orotidine 0 1
willis 0 1
dissecans 0 1
sacks 0 1
epididymitis 0 1
hyperalphalipoproteinemia 0 1
hyperesthesia 0 1
cheyne 0 1
cow 0 1
abilities 0 1
cardiogenic 0 1
gastroparesis 0 1
paravenous 0 1
lax 0 1
pituicytoma 0 1
less 0 1
fatiguable 0 1
hydroxydicarboxylic 0 1
granulopoesis 0 1
supramitral 0 1
descemet 0 1
urocanic 0 1
attenuation 0 1
exterior 0 1
tryptophanuria 0 1
oromotor 0 1
lymphangiectasis 0 1
amyotrophic 0 1
wound 0 1
crh 0 1
stapedial 0 1
autophagic 0 1
hyperthyroxinemia 0 1
lipomatous 0 1
pirc 0 1
avium 0 1
bruxism 0 1
incisional 0 1
opening 0 1
submandibular 0 1
sideroblasts 0 1
anisocoria 0 1
hyperchloridura 0 1
spoken 0 1
abducted 0 1
spokes 0 1
maintenance 0 1
leukemias 0 1
symphysis 0 1
bicornuate 0 1
lentigo 0 1
frenula 0 1
intracardiac 0 1
gastroesophageal 0 1
pace 0 1
lewy 0 1
dissecting 0 1
preeclampsia 0 1
tonsils 0 1
beaded 0 1
245 0 1
dolichocephaly 0 1
cup 0 1
acrobrachycephaly 0 1
acantholysis 0 1
constitutional 0 1
killing 0 1
ringed 0 1
downbeat 0 1
hypotriglyceridemia 0 1
sacralization 0 1
attack 0 1
ungual 0 1
thyroxin 0 1
atrophodermia 0 1
schizencephaly 0 1
hypoactive 0 1
aureus 0 1
microglossia 0 1
galactorrhea 0 1
contour 0 1
claw 0 1
filling 0 1
pads 0 1
trismus 0 1
optical 0 1
margins 0 1
chondrocytes 0 1
hyperbetaalaninemia 0 1
pneumoniae 0 1
streaking 0 1
smell 0 1
neurocytoma 0 1
meningoencephalocele 0 1
uncontrolled 0 1
wolff 0 1
bias 0 1
acquired 0 1
stability 0 1
fluorescein 0 1
glass 0 1
tension 0 1
chess 0 1
athetoid 0 1
precordial 0 1
develop 0 1
neurogenic 0 1
hemophagocytosis 0 1
anarthria 0 1
clumsiness 0 1
luminance 0 1
motivation 0 1
hypofunction 0 1
trichromacy 0 1
conotruncal 0 1
coccygeal 0 1
mononeuropathy 0 1
opposing 0 1
onychomycosis 0 1
discordant 0 1
dysmetric 0 1
albumin 0 1
arrhinencephaly 0 1
polycythemia 0 1
reciprocating 0 1
incus 0 1
meningococcal 0 1
three 0 1
vermillion 0 1
diabetic 0 1
hyperchromic 0 1
cyanosis 0 1
tracheoesophageal 0 1
intrapartum 0 1
laryngomalacia 0 1
achromatopsia 0 1
atransferrinemia 0 1
acetylglucosamine 0 1
symptomatic 0 1
multicystic 0 1
dysfibrinogenemia 0 1
ventilation 0 1
glycosphingolipid 0 1
solar 0 1
chylous 0 1
lop 0 1
dome 0 1
anti 0 1
onychauxis 0 1
pretesticular 0 1
bifocal 0 1
candida 0 1
doll 0 1
megalencephaly 0 1
downturned 0 1
abasia 0 1
adermatoglyphia 0 1
agoraphobia 0 1
triquetral 0 1
macrofollicular 0 1
hanging 0 1
projectile 0 1
phosphoethanolaminuria 0 1
melanonychia 0 1
cytology 0 1
asternia 0 1
papp 0 1
narcolepsy 0 1
renovascular 0 1
antinuclear 0 1
lester's 0 1
goitre 0 1
osteochondrosis 0 1
dermatan 0 1
retinoschisis 0 1
absences 0 1
drinking 0 1
philtral 0 1
puncta 0 1
leukocyturia 0 1
divalent 0 1
osmiophilic 0 1
tubercle 0 1
trichodysplasia 0 1
overjet 0 1
prpp 0 1
keratoglobus 0 1
stokes 0 1
concentrating 0 1
eclabion 0 1
stereotypic 0 1
notches 0 1
slitlike 0 1
hyperuricemia 0 1
propionicacidemia 0 1
photosensitive 0 1
psychic 0 1
xiii 0 1
hyperopic 0 1
ultrasound 0 1
hypoproteinemic 0 1
piebaldism 0 1
build 0 1
interaction 0 1
antenatal 0 1
rituals 0 1
superoxide 0 1
porokeratosis 0 1
widow's 0 1
catecholamines 0 1
coherence 0 1
dysmenorrhea 0 1
blepharitis 0 1
n95 0 1
disorganization 0 1
rightward 0 1
calcaneonavicular 0 1
impulsive 0 1
alloimmune 0 1
nonceruloplasmin 0 1
mesiodens 0 1
peritonitis 0 1
antihelical 0 1
adulthood 0 1
easy 0 1
terminals 0 1
hydroxyacyl 0 1
relative 0 1
areata 0 1
alobar 0 1
dysgammaglobulinemia 0 1
ceruminal 0 1
antithrombin 0 1
protozoan 0 1
atelectasis 0 1
foveoschisis 0 1
pustulosis 0 1
splanchnic 0 1
cytomegaly 0 1
sleepiness 0 1
amnesia 0 1
retrograde 0 1
dacrystic 0 1
inflexible 0 1
rimmed 0 1
hypocalcification 0 1
opposable 0 1
subconjunctival 0 1
freckle 0 1
fibromatosis 0 1
hidrotic 0 1
burkholderia 0 1
unicuspid 0 1
osteopoikilosis 0 1
spondyloepiphyseal 0 1
bird 0 1
thiamine 0 1
valgum 0 1
disintegration 0 1
angioplasty 0 1
dyslexia 0 1
chromosomes 0 1
hypocalciuria 0 1
canaliculi 0 1
phonophobia 0 1
agonist 0 1
urticarial 0 1
enthesitis 0 1
dermatographic 0 1
pawn 0 1
lipogranulomatosis 0 1
bicoronal 0 1
bronchogenic 0 1
hypouricemia 0 1
perimembranous 0 1
septate 0 1
myxedema 0 1
lentiglobus 0 1
continuation 0 1
glycolysis 0 1
trichiasis 0 1
uni 0 1
synkinesia 0 1
achromatic 0 1
urothione 0 1
guttata 0 1
hyperirritability 0 1
equinus 0 1
bilambdoid 0 1
pollakisuria 0 1
chylolymphatic 0 1
spermatozoa 0 1
venules 0 1
jamais 0 1
fear 0 1
frayed 0 1
takotsubo 0 1
epidermolytic 0 1
cystine 0 1
plethora 0 1
sacrococcygeal 0 1
anion 0 1
periostosis 0 1
hemorrhagic 0 1
mitten 0 1
decorticate 0 1
amputation 0 1
semantic 0 1
ablepharon 0 1
xanthinuria 0 1
verrucae 0 1
tibiae 0 1
dot 0 1
overhanging 0 1
cicatricial 0 1
ureterovesical 0 1
map 0 1
tryptophan 0 1
ectopy 0 1
partum 0 1
methylglutaric 0 1
cigarette 0 1
nutans 0 1
forward 0 1
recti 0 1
cubitus 0 1
use 0 1
recognition 0 1
epicanthal 0 1
nostrils 0 1
promyelocytic 0 1
gerbode 0 1
arrangement 0 1
spicule 0 1
trigeminal 0 1
rectoperineal 0 1
chaddock 0 1
picking 0 1
stahl 0 1
cepacia 0 1
adhesions 0 1
background 0 1
sialopeptides 0 1
glutathione 0 1
hashimoto 0 1
echolalia 0 1
hematopoiesis 0 1
dihydroxycholecalciferol 0 1
blaschko 0 1
palms 0 1
hypertelorism 0 1
spindle 0 1
tufts 0 1
blurred 0 1
mania 0 1
ethmoid 0 1
oropharyngeal 0 1
rapidly 0 1
asphyxia 0 1
dialeptic 0 1
hypotrophy 0 1
digenic 0 1
parkinson 0 1
beaked 0 1
dysmyelinating 0 1
xanthelasma 0 1
ventouse 0 1
sized 0 1
paraglioma 0 1
97th 0 1
polyotia 0 1
palmitoyltransferase 0 1
micropenis 0 1
retrognathia 0 1
toxemia 0 1
dysgerminoma 0 1
midperipheral 0 1
molybdenum 0 1
dysfunctional 0 1
erythroblastopenia 0 1
minimally 0 1
platelets 0 1
cardiorespiratory 0 1
exostosis 0 1
components 0 1
24 0 1
microblepharia 0 1
oculogyric 0 1
cuts 0 1
overtubulated 0 1
cusp 0 1
liposaccharide 0 1
hypertonic 0 1
sunken 0 1
glycoside 0 1
gordon 0 1
corneolenticular 0 1
stensen 0 1
eclampsia 0 1
intercrural 0 1
wool 0 1
46 0 1
berry 0 1
numbers 0 1
rhegmatogenous 0 1
expressing 0 1
aberrant 0 1
enhancement 0 1
neurons 0 1
dente 0 1
wrinkles 0 1
antineutrophil 0 1
myocarditis 0 1
photophobia 0 1
hematochezia 0 1
comodogenic 0 1
scar 0 1
anticardiolipin 0 1
hypergalactosemia 0 1
neuroma 0 1
galactosylation 0 1
marbled 0 1
hypervalinemia 0 1
isomerase 0 1
asplenia 0 1
experiential 0 1
tenosynovitis 0 1
sleepy 0 1
clusters 0 1
hypotelorism 0 1
orthopnea 0 1
mask 0 1
circumungual 0 1
vesicoureteral 0 1
pedicles 0 1
metastatic 0 1
epilepticus 0 1
epiretinal 0 1
palatinus 0 1
cholangitis 0 1
carnosinuria 0 1
keratan 0 1
hyperprolinemia 0 1
libman 0 1
axoneme 0 1
hamartomata 0 1
microlithiasis 0 1
mark 0 1
callus 0 1
metamorphopsia 0 1
lenticular 0 1
suspensory 0 1
axes 0 1
whole 0 1
hypoplastia 0 1
schmorl's 0 1
quadriparesis 0 1
tracheobronchomalacia 0 1
microfollicular 0 1
nonmotile 0 1
corticotropic 0 1
hypodysplasia 0 1
acholic 0 1
speckled 0 1
vascularity 0 1
talon 0 1
ethylmalonic 0 1
word 0 1
dimers 0 1
axenfeld 0 1
oligohydramnios 0 1
crohn's 0 1
hyperproteinemia 0 1
lisch 0 1
impotence 0 1
cramp 0 1
preputium 0 1
conjugated 0 1
multifactorial 0 1
outflow 0 1
transradiancy 0 1
imbalance 0 1
nigricans 0 1
keratoses 0 1
anisometropia 0 1
granuloma 0 1
reticulated 0 1
pachygyria 0 1
irritability 0 1
cascade 0 1
paget's 0 1
paranoia 0 1
marcus 0 1
bethlem 0 1
mineralization 0 1
hyperkinetic 0 1
sporadic 0 1
nuchae 0 1
fanconi 0 1
hirano 0 1
leukotriene 0 1
senile 0 1
frontomalar 0 1
cyanotic 0 1
urea 0 1
hyperpituitarism 0 1
overactivity 0 1
hypermagnesemia 0 1
arteriopathy 0 1
ornithinuria 0 1
operculum 0 1
hyperthreoninemia 0 1
maculae 0 1
projections 0 1
ovale 0 1
markedly 0 1
thimble 0 1
invagination 0 1
interictal 0 1
pierre 0 1
gyral 0 1
refraction 0 1
maxillozygomatic 0 1
camptocormia 0 1
vii 0 1
sudomotor 0 1
ragged 0 1
vincristine 0 1
malposition 0 1
overfolded 0 1
bronze 0 1
heinz 0 1
forelock 0 1
sickled 0 1
metabolically 0 1
protracted 0 1
spleens 0 1
infiltrations 0 1
folded 0 1
monocarboxylic 0 1
adenomas 0 1
notching 0 1
overbite 0 1
phimosis 0 1
lability 0 1
emphysema 0 1
hypersarcosinemia 0 1
desquamation 0 1
epibulbar 0 1
stump 0 1
lymphocele 0 1
centrally 0 1
noncommunicating 0 1
macrocytosis 0 1
nasogastric 0 1
eustachii 0 1
hyperglycinuria 0 1
dehydrogenation 0 1
brachycephaly 0 1
hypnic 0 1
molluscoid 0 1
corticosterone 0 1
sweet 0 1
oligomenorrhea 0 1
chorioretinopathy 0 1
screening 0 1
morbilliform 0 1
jerking 0 1
wormian 0 1
lobation 0 1
repetition 0 1
teratogenic 0 1
arginine 0 1
prostatitis 0 1
aminolevulinic 0 1
herpetiform 0 1
leucine 0 1
anotia 0 1
monovalent 0 1
areola 0 1
synotia 0 1
hypermetric 0 1
tests 0 1
keratodermia 0 1
anejaculation 0 1
anorexia 0 1
gelastic 0 1
hemisacrum 0 1
tortuous 0 1
lactose 0 1
porencephaly 0 1
sinopulmonary 0 1
finely 0 1
paucity 0 1
acetylglucosaminyltransferase 0 1
internum 0 1
lines 0 1
dermopathy 0 1
abetalipoproteinemia 0 1
intramyocellular 0 1
radiolucency 0 1
special 0 1
suppresible 0 1
buphthalmos 0 1
vasovagal 0 1
release 0 1
amegakaryocytic 0 1
hyperautofluorescent 0 1
halitosis 0 1
hypoxanthine 0 1
glycine 0 1
irido 0 1
spinalarachnoid 0 1
p2y12 0 1
panuveitis 0 1
splitting 0 1
pustule 0 1
hyperorality 0 1
malleolus 0 1
writer's 0 1
malnutrition 0 1
panniculitis 0 1
seventh 0 1
graves 0 1
crossed 0 1
nbt 0 1
tone 0 1
gonadotropic 0 1
infarctions 0 1
angioid 0 1
hypobetalipoproteinemia 0 1
neurofibrosarcoma 0 1
prosopagnosia 0 1
versive 0 1
snowflake 0 1
premyoclonus 0 1
basalioma 0 1
cyclopia 0 1
macrovesicular 0 1
epigastric 0 1
patterning 0 1
hematological 0 1
estriol 0 1
slit 0 1
microalbuminuria 0 1
hyoplasia 0 1
iridis 0 1
psychosis 0 1
hypokinesia 0 1
mongolian 0 1
clumps 0 1
leishmaniasis 0 1
warfarin 0 1
proline 0 1
intervals 0 1
pseudotumors 0 1
anodontia 0 1
uremic 0 1
hypermelanotic 0 1
diastema 0 1
nonarteritic 0 1
dyserythropoietic 0 1
running 0 1
regenerative 0 1
reversible 0 1
ureterocele 0 1
anaphylactic 0 1
hydroxybutyric 0 1
hyponasal 0 1
kienboeck 0 1
stepped 0 1
rates 0 1
onychodystrophy 0 1
racemose 0 1
paresthesia 0 1
hypersplenism 0 1
threonine 0 1
gynecomastia 0 1
appetite 0 1
fibulae 0 1
hiatus 0 1
macularis 0 1
amaurosis 0 1
herpesvirus 0 1
scleritis 0 1
coenzyme 0 1
polyphagia 0 1
tragal 0 1
erlenmeyer 0 1
jitter 0 1
triradius 0 1
bilirubin 0 1
deposit 0 1
recurvatum 0 1
hypodontia 0 1
omphalocele 0 1
occult 0 1
dandy 0 1
stillbirth 0 1
subsarcolemmal 0 1
interpeduncularis 0 1
aspirin 0 1
looping 0 1
gram 0 1
black 0 1
hemeralopia 0 1
hepatoblastoma 0 1
unexplained 0 1
microaneurysm 0 1
igg2 0 1
confrontational 0 1
brachytelomesophalangy 0 1
suck 0 1
lafora 0 1
cranialis 0 1
sweats 0 1
papular 0 1
administration 0 1
erupting 0 1
flank 0 1
heterotopias 0 1
tracheobronchmegaly 0 1
anasarca 0 1
decrease 0 1
leads 0 1
krebs 0 1
pleuropulmonary 0 1
orbits 0 1
hyperhistidinemia 0 1
overfriendliness 0 1
hyperapobetalipoproteinemia 0 1
porphobilinogen 0 1
blind 0 1
gingivitis 0 1
wringing 0 1
nearly 0 1
neuroepithelioma 0 1
enterocolitis 0 1
suprascapular 0 1
eczematoid 0 1
severity 0 1
decarboxylase 0 1
overmodelled 0 1
ischemia 0 1
massively 0 1
asterixis 0 1
desaturation 0 1
spondylolysis 0 1
flaccidity 0 1
melatonin 0 1
granulomatous 0 1
velopharyngeal 0 1
play 0 1
peters 0 1
trimethylaminuria 0 1
p50 0 1
posturing 0 1
serration 0 1
electron 0 1
deformation 0 1
cytokines 0 1
acephalic 0 1
hyperkalemia 0 1
binocular 0 1
oligogenic 0 1
monocular 0 1
hypogonadotrophic 0 1
mycobacterial 0 1
subglottic 0 1
megakaryocytopenia 0 1
hemiballismus 0 1
dystocia 0 1
colic 0 1
mandibulofacial 0 1
hump 0 1
midshaft 0 1
acromelic 0 1
pyridoxine 0 1
poliosis 0 1
prelingual 0 1
nodosa 0 1
calvarium 0 1
stereopsis 0 1
motheaten 0 1
vanillylmandelic 0 1
chemosis 0 1
enlargment 0 1
organization 0 1
hallucinatory 0 1
organizing 0 1
fatigability 0 1
secundum 0 1
myositis 0 1
eruptive 0 1
eleventh 0 1
schizophrenia 0 1
eruptiva 0 1
hypercholesterolemia 0 1
lacticaciduria 0 1
blotching 0 1
metachromatic 0 1
inverted 0 1
accesory 0 1
mounding 0 1
hyperbetalipoproteinemia 0 1
habitus 0 1
marker 0 1
osteopathia 0 1
unfavorable 0 1
obtundation 0 1
hemoperitoneum 0 1
electrolyte 0 1
swings 0 1
oppositional 0 1
hyperchylomicronemia 0 1
microglia 0 1
cavitation 0 1
selective 0 1
sialophorin 0 1
stimulus 0 1
dysraphism 0 1
schistocytosis 0 1
a1 0 1
hypocortisolemia 0 1
epilepsia 0 1
didelphys 0 1
lymphatics 0 1
pyuria 0 1
b1 0 1
losing 0 1
rand 0 1
aversion 0 1
b2 0 1
marmorata 0 1
b5 0 1
b6 0 1
b8 0 1
trigonocephaly 0 1
aphakia 0 1
nocturna 0 1
regitine 0 1
grod 0 1
c4 0 1
c5 0 1
c6 0 1
c8 0 1
c9 0 1
hemihypotrophy 0 1
tenesmus 0 1
frank 0 1
exudation 0 1
fibres 0 1
humeri 0 1
fissus 0 1
achalasia 0 1
d3 0 1
oxidative 0 1
blurring 0 1
alzheimer 0 1
gowers 0 1
hypermenorrhea 0 1
tombstone 0 1
hypoaldosteronism 0 1
staphylococci 0 1
rounding 0 1
alternate 0 1
cervicomedullary 0 1
e2 0 1
clenching 0 1
cholesteatoma 0 1
monocytopenia 0 1
kernicterus 0 1
chickenpox 0 1
petechiae 0 1
maldevelopment 0 1
de 0 1
calcinosis 0 1
stairs 0 1
retrusion 0 1
dr 0 1
familial 0 1
iodide 0 1
acthr 0 1
clitoromegaly 0 1
poikiloderma 0 1
indocyanine 0 1
g2 0 1
mediastinal 0 1
chondrodysplasia 0 1
restlessness 0 1
cephalohematoma 0 1
aglossia 0 1
fibril 0 1
ingrown 0 1
bullous 0 1
piece 0 1
galactosuria 0 1
lipoatrophy 0 1
sequestrum 0 1
pursuits 0 1
bronchiectasis 0 1
supracardiac 0 1
intraaxonal 0 1
microprolactinoma 0 1
rhythm 0 1
accumulations 0 1
binasal 0 1
dupuytren 0 1
tympani 0 1
nonocclusive 0 1
pseudohypoaldosteronism 0 1
contractions 0 1
enchondroma 0 1
synophrys 0 1
easily 0 1
orchitis 0 1
burkitt 0 1
abscesses 0 1
rectovaginal 0 1
ft3 0 1
hitchhiker 0 1
methemoglobinemia 0 1
heterozygosity 0 1
writhing 0 1
delusions 0 1
contrast 0 1
leukaemia 0 1
fascia 0 1
whitish 0 1
fsh 0 1
hyperaminoaciduria 0 1
hypergammaglobulinemia 0 1
perinephritis 0 1
positional 0 1
l1 0 1
l2 0 1
l3 0 1
ventriculo 0 1
banging 0 1
dependence 0 1
flushing 0 1
leukocytosis 0 1
neuroblastic 0 1
overfolding 0 1
paraphimosis 0 1
hyperornithinemia 0 1
somnolence 0 1
atheromatosis 0 1
hyperuricosuria 0 1
termporal 0 1
disposition 0 1
rectocele 0 1
pylori 0 1
lh 0 1
chondral 0 1
tachycardias 0 1
dysphonia 0 1
kallikrein 0 1
locked 0 1
nonpolyposis 0 1
mm 0 1
coalescence 0 1
mycobacterium 0 1
agyrophilic 0 1
orthokeratosis 0 1
hyperlipoproteinemia 0 1
anhedonia 0 1
anorectal 0 1
alacrima 0 1
superioris 0 1
distention 0 1
wilms 0 1
heat 0 1
acidotic 0 1
lymphangiomyomatosis 0 1
blepharophimosis 0 1
septa 0 1
erysipelas 0 1
septo 0 1
hypokinetic 0 1
superiorly 0 1
brachyturricephaly 0 1
nasofrontal 0 1
moyamoya 0 1
friction 0 1
contralateral 0 1
avascular 0 1
rocker 0 1
determination 0 1
eunuchoid 0 1
extremely 0 1
acanthocytosis 0 1
parotitis 0 1
s2 0 1
pseudohypoparathyroidism 0 1
s5 0 1
grouped 0 1
old 0 1
frustration 0 1
downslanted 0 1
limbic 0 1
device 0 1
undermodeled 0 1
pyogenic 0 1
rs 0 1
pharyngitis 0 1
belly 0 1
floaters 0 1
hematocrit 0 1
vulva 0 1
ataxic 0 1
albipunctatus 0 1
giardia 0 1
tomacula 0 1
iodine 0 1
embryotoxon 0 1
one 0 1
sublingual 0 1
molarization 0 1
dissociated 0 1
hypocupremia 0 1
naevus 0 1
menometrorrhagia 0 1
vasoconstriction 0 1
acanthosis 0 1
partially 0 1
waddling 0 1
hemiclonic 0 1
furunculosis 0 1
spondyloepimetaphyseal 0 1
subluxations 0 1
foramina 0 1
abolished 0 1
hyperlactemia 0 1
azygous 0 1
usual 0 1
adactyly 0 1
retarded 0 1
rhizomelia 0 1
abulia 0 1
fibromas 0 1
shagreen 0 1
hemihypsarrhythmia 0 1
imprint 0 1
coli 0 1
thromboplastin 0 1
learning 0 1
pure 0 1
osteopetrosis 0 1
macrophages 0 1
retrobulbar 0 1
monocytosis 0 1
nephrosclerosis 0 1
examination 0 1
gas 0 1
tonsillitis 0 1
xanthomas 0 1
partialis 0 1
polymorphous 0 1
uraciluria 0 1
xi 0 1
pilomatrixoma 0 1
hypophosphaturia 0 1
xy 0 1
ankyloblepharon 0 1
acetabuli 0 1
therapeutic 0 1
postterior 0 1
myelogenous 0 1
deeply 0 1
amyolid 0 1
presence 0 1
ischium 0 1
ota 0 1
remyelination 0 1
phase 0 1
hypercoagulability 0 1
desquamative 0 1
slanting 0 1
canalicular 0 1
leukonychia 0 1
insight 0 1
menorrhagia 0 1
ectasia 0 1
intrathoracic 0 1
pleuritis 0 1
acrocyanosis 0 1
proptosis 0 1
eicosanoid 0 1
circumcision 0 1
keratocytosis 0 1
lipedema 0 1
capacity 0 1
malignancies 0 1
course 0 1
atresias 0 1
heme 0 1
transformation 0 1
triatriatrum 0 1
sicca 0 1
ubiquitin 0 1
streaky 0 1
progeroid 0 1
histrionic 0 1
nocturia 0 1
mutase 0 1
anesthetic 0 1
expiratory 0 1
antiphospholipid 0 1
perisylvian 0 1
xii 0 1
hyperinsulinemic 0 1
climbing 0 1
hanger 0 1
uplifted 0 1
brisk 0 1
branches 0 1
startle 0 1
periostitis 0 1
ground 0 1
isovaleryl 0 1
hypercalciuria 0 1
intussusception 0 1
crosslinking 0 1
ceruloplasmin 0 1
anatomic 0 1
elfin 0 1
scale 0 1
robin 0 1
intramembranous 0 1
fibroelastosis 0 1
isoelectric 0 1
intraventricular 0 1
bacteriuria 0 1
scaly 0 1
obtuse 0 1
agraphesthesia 0 1
cognition 0 1
syngnathia 0 1
anonychia 0 1
halberd 0 1
neurofibroma 0 1
asynergia 0 1
follow 0 1
vestibulocochlear 0 1
craniopharyngioma 0 1
vanishing 0 1
maculopathy 0 1
atheroeruptive 0 1
trichilemmomata 0 1
gm2 0 1
sirenomelia 0 1
urethrovaginal 0 1
oculi 0 1
nyctalopia 0 1
extraneuronal 0 1
sister 0 1
upslanted 0 1
pedis 0 1
fatiguability 0 1
anorgasmia 0 1
neutral 0 1
mulberry 0 1
vitreitis 0 1
megacalicosis 0 1
honeycomb 0 1
exposure 0 1
pineoblastoma 0 1
pancreatoblastoma 0 1
budd 0 1
aminoisobutyric 0 1
nonattachment 0 1
wind 0 1
osteomalacia 0 1
enchondral 0 1
fibrinogen 0 1
angiofibromas 0 1
hexosaminidase 0 1
edematous 0 1
polyclonal 0 1
unsteady 0 1
menarche 0 1
currents 0 1
ornithine 0 1
insidious 0 1
myeloma 0 1
dural 0 1
tractional 0 1
helicobacter 0 1
sudanophilic 0 1
ulcerative 0 1
trifascicular 0 1
microphallus 0 1
nongranulomatous 0 1
sharpey 0 1
choanae 0 1
angiomyolipoma 0 1
hemobilia 0 1
palpebrae 0 1
hypoglycorrhachia 0 1
lymphadenitis 0 1
tethered 0 1
dysesthesia 0 1
pad 0 1
toddler 0 1
endopolyploidy 0 1
retinoblastoma 0 1
megakaryocytic 0 1
torti 0 1
pyocele 0 1
scimitar 0 1
bull's 0 1
torus 0 1
proteinosis 0 1
telangiectasiae 0 1
anteroposterior 0 1
akinetic 0 1
oligospermia 0 1
thiosulfate 0 1
cystathioninemia 0 1
peripapillary 0 1
cataplexy 0 1
agammaglobulinemia 0 1
symblepharon 0 1
fatal 0 1
pcc 0 1
producing 0 1
nephroblastoma 0 1
dihydropyrimidine 0 1
hypocholesterolemia 0 1
peak 0 1
rhythmic 0 1
neurological 0 1
bronchi 0 1
nadph 0 1
hypermagnesiuria 0 1
pdh 0 1
aphthous 0 1
ewing's 0 1
hypertyrosinemia 0 1
extraadrenal 0 1
channel 0 1
focus 0 1
entire 0 1
ultra 0 1
hemidiaphragms 0 1
precipitated 0 1
incoordination 0 1
rhizo 0 1
ligamentous 0 1
oxoprolinase 0 1
upbeat 0 1
tracheomegaly 0 1
assisted 0 1
neuroplasm 0 1
aculeiform 0 1
empyema 0 1
prevalence 0 1
clitoris 0 1
parakeratosis 0 1
afebril 0 1
esophagitis 0 1
diplomyelia 0 1
obturatorium 0 1
varicella 0 1
pubarche 0 1
discolored 0 1
chorea 0 1
popliteal 0 1
odontoma 0 1
nephronophthisis 0 1
dysautonomia 0 1
heparan 0 1
pia 0 1
penetrating 0 1
wake 0 1
pip 0 1
xerostomia 0 1
myofibrillar 0 1
pulmonale 0 1
glucagonoma 0 1
kininogen 0 1
ovotestis 0 1
swan 0 1
taurine 0 1
affected 0 1
clinical 0 1
unresponsive 0 1
limbed 0 1
hyposegmentation 0 1
fevers 0 1
sepsis 0 1
anteversion 0 1
phacodonesis 0 1
units 0 1
drooling 0 1
anterolateral 0 1
myxomatous 0 1
gemination 0 1
ketonuria 0 1
kinin 0 1
automatic 0 1
kinked 0 1
isosexual 0 1
hyponatremia 0 1
hyperalaninemia 0 1
extending 0 1
tetrazolium 0 1
spasmus 0 1
conus 0 1
schlatter 0 1
iiia 0 1
fracture 0 1
duane 0 1
retraction 0 1
lesser 0 1
hyperemesis 0 1
supraauricular 0 1
portions 0 1
mucopolysacchariduria 0 1
absorption 0 1
almond 0 1
collectionism 0 1
protoporphyrin 0 1
circle 0 1
oxidoreductase 0 1
arachnodactyly 0 1
quelprud 0 1
macroprolactinoma 0 1
vaginismus 0 1
scanning 0 1
morphea 0 1
malsegmentation 0 1
dyscalculia 0 1
escape 0 1
retention 0 1
anisopoikilocytosis 0 1
gradient 0 1
sandal 0 1
subluxated 0 1
simplification 0 1
embolism 0 1
epispadias 0 1
drumstick 0 1
rectilinear 0 1
standing 0 1
hyperkeratoses 0 1
retractile 0 1
defiant 0 1
discontinuous 0 1
bilineage 0 1
fibromuscular 0 1
predominantly 0 1
polysplenia 0 1
pubis 0 1
shovel 0 1
cloaca 0 1
intoxication 0 1
heparin 0 1
continua 0 1
expressivity 0 1
glyoxalase 0 1
phosphoribosylpyrophosphate 0 1
catalase 0 1
vibratory 0 1
calcifying 0 1
chromsome 0 1
intraalveolar 0 1
warm 0 1
hypointensity 0 1
serpentine 0 1
retrocerebellar 0 1
injurious 0 1
reticulocytosis 0 1
hyaloid 0 1
effort 0 1
spermatogenesis 0 1
hurthle 0 1
telecanthus 0 1
trident 0 1
eventration 0 1
rotation 0 1
sulfatase 0 1
forgetfulness 0 1
methylmalonyl 0 1
alternating 0 1
curves 0 1
aorto 0 1
typical 0 1
sialylated 0 1
forming 0 1
hypernatremia 0 1
melanosome 0 1
hypernatremic 0 1
papilledema 0 1
dyspareunia 0 1
chorangioma 0 1
babinski 0 1
sciatica 0 1
hyperthyroidism 0 1
fluctuations 0 1
freckled 0 1
mucocutaneous 0 1
zollinger 0 1
overmodification 0 1
glycosuria 0 1
glycolipid 0 1
presenile 0 1
hypomagnesiuria 0 1
phytohemagglutinin 0 1
glycopeptiduria 0 1
subcortex 0 1
otosclerosis 0 1
extraction 0 1
bruising 0 1
mentation 0 1
chilblain 0 1
hypolipidemia 0 1
nfkb1 0 1
mediastinum 0 1
osteopenia 0 1
bronchodysplasia 0 1
dextrocardia 0 1
adductus 0 1
hypoalbuminemia 0 1
seesaw 0 1
ferric 0 1
klebsiella 0 1
frontolimbic 0 1
centromeric 0 1
hyperglutaminemia 0 1
occultum 0 1
lysosomes 0 1
orofacial 0 1
barrel 0 1
dorsoventral 0 1
murmur 0 1
hyposerinemia 0 1
vesicovaginal 0 1
ganglioneuroblastoma 0 1
nonspherocytic 0 1
facility 0 1
episcleritis 0 1
organification 0 1
cardiomegaly 0 1
adductor 0 1
thoracocervical 0 1
fundi 0 1
neurotoxicity 0 1
cerebellopontine 0 1
stools 0 1
bean 0 1
hydroxycholecalciferol 0 1
hypovolemia 0 1
aneurysms 0 1
hypergonadotropic 0 1
ebstein's 0 1
reciprocity 0 1
glaucomatous 0 1
anisocytosis 0 1
paramedian 0 1
homocystinuria 0 1
kayser 0 1
fibre 0 1
thrusting 0 1
distortion 0 1
restenosis 0 1
granulovacuolar 0 1
convergence 0 1
rocking 0 1
hyperleucinemia 0 1
hyperacusis 0 1
electrolytes 0 1
point 0 1
hydromyelia 0 1
alternans 0 1
lysosomal 0 1
hypermethioninemia 0 1
hemangiomas 0 1
hydroxylase 0 1
urachal 0 1
syringomyelia 0 1
costal 0 1
suprasellar 0 1
gluten 0 1
mesencephalon 0 1
nonbullous 0 1
hypercapnia 0 1
karyotype 0 1
hyponatriuria 0 1
oxalate 0 1
prime 0 1
excision 0 1
biparietal 0 1
fleshy 0 1
crepitus 0 1
tags 0 1
synechia 0 1
opsoclonus 0 1
gastrostomy 0 1
phonic 0 1
barts 0 1
angulation 0 1
diastomatomyelia 0 1
presacral 0 1
nucleobase 0 1
naviculare 0 1
osteoblastoma 0 1
involvement 0 1
blocking 0 1
tail 0 1
lentis 0 1
transition 0 1
series 0 1
spasm 0 1
adenomatoid 0 1
mesomelia 0 1
portosystemic 0 1
aging 0 1
arches 0 1
hydroxyprolinuria 0 1
thrombocytes 0 1
cryptospridium 0 1
arched 0 1
unsaturated 0 1
leukopenia 0 1
5mm 0 1
trait 0 1
phosphotransferase 0 1
striae 0 1
pathways 0 1
distally 0 1
trilobed 0 1
glucocortocoid 0 1
impulsivity 0 1
carrying 0 1
thighs 0 1
dermatochalasis 0 1
lutheran 0 1
additional 0 1
macrotia 0 1
ankyloglossia 0 1
hemosiderinuria 0 1
pinealoma 0 1
oroticaciduria 0 1
protrusio 0 1
xanthoma 0 1
contraction 0 1
potter 0 1
sole 0 1
bimanual 0 1
screwdriver 0 1
semilobar 0 1
entropion 0 1
insomnia 0 1
nodes 0 1
regression 0 1
femurs 0 1
antecubital 0 1
amyoplasia 0 1
marcescens 0 1
triplication 0 1
basophils 0 1
dentin 0 1
neisserial 0 1
soon 0 1
hva 0 1
hook 0 1
pansynostosis 0 1
tritanomaly 0 1
hydroxyphenylpyruvic 0 1
maligna 0 1
bulbi 0 1
colpocephaly 0 1
quadrupedal 0 1
sclerocornea 0 1
bell 0 1
hammertoe 0 1
skinfold 0 1
plasmacytosis 0 1
nephroptosis 0 1
impression 0 1
cortically 0 1
arrays 0 1
virilization 0 1
keratopathy 0 1
externum 0 1
shield 0 1
adducted 0 1
dilatated 0 1
amsler 0 1
abruption 0 1
grimacing 0 1
spondylosis 0 1
leiomyomas 0 1
earlobes 0 1
illness 0 1
nonopposable 0 1
socially 0 1
mastoiditis 0 1
hypertriglyceridemia 0 1
marks 0 1
agents 0 1
septic 0 1
micrognathia 0 1
porphyrinuria 0 1
diffusum 0 1
radii 0 1
caseating 0 1
cough 0 1
radio 0 1
orbicularis 0 1
hematomas 0 1
romberg 0 1
oromandibular 0 1
tubercles 0 1
iritis 0 1
neutrophils 0 1
distichiasis 0 1
sickling 0 1
medulloepithelioma 0 1
gyration 0 1
spherocytosis 0 1
problems 0 1
perifascicular 0 1
groove 0 1
poikilocytosis 0 1
cervicitis 0 1
estermann 0 1
anaphylactoid 0 1
crystalluria 0 1
interhemispheric 0 1
pleiocytosis 0 1
adenomatous 0 1
rotary 0 1
anisospondyly 0 1
pulling 0 1
descemet's 0 1
hypermyelinated 0 1
hypomineralization 0 1
disturbances 0 1
neurosensory 0 1
shawl 0 1
cryptophthalmos 0 1
postpubertal 0 1
aryepiglottic 0 1
firm 0 1
allodynia 0 1
convulsive 0 1
tibiofibular 0 1
irides 0 1
hyperkeratotic 0 1
pointes 0 1
globozoospermia 0 1
tiger 0 1
intention 0 1
symptom 0 1
hypophosphatemic 0 1
vomer 0 1
wafer 0 1
insulinoma 0 1
chorioretinitis 0 1
except 0 1
venipuncture 0 1
infectious 0 1
steatorrhea 0 1
iridoretinal 0 1
hyperphosphaturia 0 1
pinnae 0 1
argininuria 0 1
chondroitin 0 1
choroideremia 0 1
leber 0 1
hyperparakeratosis 0 1
disaccharide 0 1
chondroblastoma 0 1
sprengel 0 1
diplegic 0 1
irregularities 0 1
steppage 0 1
blisters 0 1
thyrotropic 0 1
midcervical 0 1
raindrop 0 1
acromesomelia 0 1
hemimegalencephaly 0 1
vulvovaginal 0 1
cessation 0 1
athetosis 0 1
microthorax 0 1
fumarate 0 1
supernormal 0 1
duplex 0 1
vacuolated 0 1
azotemia 0 1
qtc 0 1
imbalanced 0 1
dacrocystitis 0 1
dermatomyositis 0 1
ectrodactyly 0 1
anemic 0 1
fossae 0 1
polyhydramnios 0 1
bursts 0 1
perlecan 0 1
planus 0 1
vital 0 1
rough 0 1
swept 0 1
hypomature 0 1
calyx 0 1
heberden's 0 1
trochanter 0 1
hymen 0 1
periapical 0 1
bulimia 0 1
illusory 0 1
characteristics 0 1
bartholin 0 1
amblyopia 0 1
polymenorrhea 0 1
vermiculata 0 1
dibasicaminoaciduria 0 1
platybasia 0 1
epidural 0 1
granulocytopenia 0 1
blepharospasm 0 1
venoocclusive 0 1
cholelithiasis 0 1
lambdoidal 0 1
uncombable 0 1
centrocecal 0 1
fair 0 1
pruritic 0 1
hypochloriduria 0 1
transillumination 0 1
grammar 0 1
cholestenol 0 1
gunn 0 1
gums 0 1
temples 0 1
aqueductal 0 1
focusing 0 1
natal 0 1
hyperchloremia 0 1
steep 0 1
myelitis 0 1
isolated 0 1
lamellation 0 1
hyperpnea 0 1
methylglutaconic 0 1
tubers 0 1
tardive 0 1
polyostotic 0 1
chondrosarcoma 0 1
macroglossia 0 1
tracheomalacia 0 1
rootless 0 1
incremental 0 1
ependymoma 0 1
ischiopubic 0 1
crusting 0 1
poking 0 1
runs 0 1
glossitis 0 1
hypersarcosinuria 0 1
winging 0 1
crystalline 0 1
steatocystoma 0 1
hypoperfusion 0 1
epiphysiolysis 0 1
rittler 0 1
hydroxyphenylpyruvate 0 1
sarcoglyan 0 1
hydrometrocolpos 0 1
segregation 0 1
fingerpad 0 1
dagger 0 1
bottom 0 1
herniation 0 1
ilial 0 1
hypopolasia 0 1
covered 0 1
bence 0 1
cholecystitis 0 1
replacement 0 1
rectus 0 1
hypomimic 0 1
axonemal 0 1
polyspikes 0 1
glomerulomegaly 0 1
hemopericardium 0 1
paper 0 1
varicocele 0 1
pursed 0 1
microangiopathic 0 1
pyoderma 0 1
echocardiogram 0 1
deuteranomoly 0 1
staphylococcal 0 1
acrokeratosis 0 1
angiodysplasia 0 1
setting 0 1
lagopthalmos 0 1
thermal 0 1
inactivating 0 1
sulfur 0 1
acetaldehyde 0 1
micromelia 0 1
internally 0 1
disharmonious 0 1
choriocapillaris 0 1
blastoma 0 1
ketotic 0 1
plasmacytoma 0 1
inactivation 0 1
rosenthal 0 1
jerks 0 1
mediosternal 0 1
irritative 0 1
spondylometaphyseal 0 1
olivary 0 1
exfoliative 0 1
manual 0 1
hypocitraturia 0 1
laterality 0 1
multicore 0 1
multidrug 0 1
rolling 0 1
multiforme 0 1
noninfectious 0 1
cerebrosidase 0 1
citrate 0 1
dorsi 0 1
diphosphoglycerate 0 1
sling 0 1
invasion 0 1
talocalcaneal 0 1
cistern 0 1
histiocytoma 0 1
routines 0 1
collateral 0 1
macroscopic 0 1
preductal 0 1
restless 0 1
longus 0 1
chemodectoma 0 1
hepatosplenomegaly 0 1
fava 0 1
anencephaly 0 1
spikule 0 1
hypomelanotic 0 1
sternocleidomastoid 0 1
hypsarrhythmia 0 1
awakening 0 1
chylothorax 0 1
rem 0 1
abducens 0 1
renotubular 0 1
hemoptysis 0 1
blepharochalasis 0 1
constructive 0 1
shelf 0 1
lamblia 0 1
parachute 0 1
shell 0 1
calcitriol 0 1
photoexposed 0 1
exchange 0 1
antegonial 0 1
chemodectomas 0 1
gastroschisis 0 1
adrenarche 0 1
haemophilus 0 1
concha 0 1
parathormone 0 1
triatriatum 0 1
palmomental 0 1
varices 0 1
immunoreactive 0 1
osteosarcoma 0 1
smaller 0 1
tendency 0 1
laryngotracheomalacia 0 1
bradyopsia 0 1
hardy 0 1
polyspike 0 1
years 0 1
variation 0 1
polydipsia 0 1
hypoketotic 0 1
incomprehensible 0 1
chordoma 0 1
pilosebaceous 0 1
follicularis 0 1
astrocytosis 0 1
fishnet 0 1
oddi 0 1
distributed 0 1
mesoblastic 0 1
isothenuria 0 1
diastolic 0 1
psoriasis 0 1
hairs 0 1
silver 0 1
astrocytes 0 1
hyperpepsinogenemia 0 1
taurodontia 0 1
malformed 0 1
dysgraphia 0 1
anoperineal 0 1
astrocytic 0 1
bubble 0 1
milia 0 1
oligosacchariduria 0 1
struvite 0 1
universalis 0 1
urethrocele 0 1
streptococcus 0 1
univentricular 0 1
uhl's 0 1
scissor 0 1
modifier 0 1
neryous 0 1
vulval 0 1
mode 0 1
distensae 0 1
hypoglycinemia 0 1
t11 0 1
crhr 0 1
antimitochondrial 0 1
ala 0 1
snout 0 1
desmoid 0 1
hyperthermia 0 1
histidinuria 0 1
dysarthic 0 1
visuospatial 0 1
biosynthetic 0 1
mesocardia 0 1
pseudoaneurysm 0 1
ribbonlike 0 1
fingertips 0 1
hyposthenuria 0 1
varicosities 0 1
microvesicular 0 1
prognathia 0 1
acetabulae 0 1
pretragal 0 1
hypoperistalsis 0 1
amp 0 1
angiofibroma 0 1
simplex 0 1
transudative 0 1
panhypopituitarism 0 1
flaccid 0 1
row 0 1
fibrosarcoma 0 1
unicameral 0 1
perifolliculitis 0 1
phonologic 0 1
asthmaticus 0 1
prune 0 1
cystathioninuria 0 1
arcus 0 1
reversed 0 1
profuse 0 1
predisposition 0 1
photomyoclonic 0 1
monostotic 0 1
microcolon 0 1
retrocollis 0 1
polytopic 0 1
primum 0 1
hematemesis 0 1
nonarteriosclerotic 0 1
mound 0 1
odon 0 1
odor 0 1
cryoglobulinemia 0 1
dysphasia 0 1
malic 0 1
diaphoresis 0 1
shear 0 1
lentigines 0 1
hyperkinesis 0 1
hypnopompic 0 1
lipemia 0 1
esterification 0 1
swallowing 0 1
neurofibrillary 0 1
occasional 0 1
bradykinesia 0 1
repeated 0 1
opticokinetic 0 1
perseveration 0 1
nitroblue 0 1
kaposi's 0 1
unbalanced 0 1
monocytic 0 1
barrett 0 1
hypnagogic 0 1
worse 0 1
agitation 0 1
chondrocostal 0 1
nodosum 0 1
thelarche 0 1
xq28 0 1
luxation 0 1
crowding 0 1
lentiginous 0 1
cystitis 0 1
shoe 0 1
nemaline 0 1
splenoportal 0 1
equinovalgus 0 1
faciosynostosis 0 1
dystopic 0 1
vagal 0 1
sclerodactyly 0 1
blunting 0 1
extrapulmonary 0 1
panhypogammaglobulinemia 0 1
whistling 0 1
osteovalgus 0 1
ammonia 0 1
upturned 0 1
prefrontal 0 1
cerulean 0 1
nummular 0 1
generation 0 1
crises 0 1
viii 0 1
acetabulum 0 1
tympanicum 0 1
uninodular 0 1
buttocks 0 1
sonography 0 1
cherry 0 1
damage 0 1
trichorrhexis 0 1
amyelia 0 1
jugular 0 1
valsalva 0 1
hamstring 0 1
choriocarcinoma 0 1
nonossified 0 1
volvulus 0 1
infestation 0 1
fibrocystic 0 1
gonosomal 0 1
nasi 0 1
hyperisoleucinemia 0 1
pineocytoma 0 1
hypofibrinogenemia 0 1
menopause 0 1
staphylococcus 0 1
lineages 0 1
bronchomalacia 0 1
cystinuria 0 1
hyper 0 1
plaques 0 1
endomysial 0 1
phthisis 0 1
leukocoria 0 1
arden 0 1
diurna 0 1
hypoargininemia 0 1
hermaphroditism 0 1
sarcomatoid 0 1
turricephaly 0 1
microaneurysms 0 1
pontocerebellar 0 1
interactions 0 1
anergy 0 1
fleischer 0 1
protanopia 0 1
upsweep 0 1
dorsiflexor 0 1
opportunistic 0 1
gravidarum 0 1
visually 0 1
adherence 0 1
lymphoproliferative 0 1
sandwich 0 1
ellison 0 1
hyperlysinuria 0 1
rieger 0 1
frequencies 0 1
subdural 0 1
triplomyelia 0 1
leonine 0 1
angina 0 1
cytoplasmatic 0 1
protanomaly 0 1
acetyl 0 1
centrotemporal 0 1
biconvex 0 1
alexia 0 1
bar 0 1
lymphangioma 0 1
iridodonesis 0 1
eosinophilia 0 1
dappling 0 1
oncocytic 0 1
influenzae 0 1
tubuloreticular 0 1
scintillating 0 1
straightening 0 1
postlingual 0 1
corporis 0 1
jones 0 1
iduronate 0 1
stained 0 1
nonexposed 0 1
affect 0 1
facing 0 1
intractable 0 1
reye 0 1
eyes 0 1
sea 0 1
sixth 0 1
hydroxyprolinemia 0 1
salmonella 0 1
acylglycine 0 1
urolithiasis 0 1
handgrip 0 1
procedure 0 1
immunologic 0 1
dysdiadochokinesis 0 1
microspherocytosis 0 1
ultraviolet 0 1
fibrofolliculoma 0 1
hypoglycosylation 0 1
spider 0 1
protuberances 0 1
triiodothyronine 0 1
myokymic 0 1
extracranial 0 1
ureteropelvic 0 1
contact 0 1
metrorrhagia 0 1
lateralized 0 1
cogwheel 0 1
pectoris 0 1
neutrophillia 0 1
euryblepharon 0 1
pseudoexfoliation 0 1
little 0 1
phenylpyruvic 0 1
laryngotracheal 0 1
hypocapnia 0 1
deletions 0 1
aterial 0 1
protuberant 0 1
pseudocyst 0 1
glossoptosis 0 1
hypercortisolism 0 1
cystocele 0 1
homocysteine 0 1
striata 0 1
tenderness 0 1
six 0 1
outfoldings 0 1
bound 0 1
extralobar 0 1
thalami 0 1
hypomagnesemia 0 1
multimer 0 1
tunnel 0 1
manifestations 0 1
big 0 1
mechanical 0 1
astereognosia 0 1
sick 0 1
retinalis 0 1
aminoglycoside 0 1
mosaicism 0 1
pallidal 0 1
microvilli 0 1
altitudinal 0 1
autistic 0 1
rhabdomylosis 0 1
aspartylglucosaminuria 0 1
pugilistic 0 1
hyperperistalsis 0 1
ishihara 0 1
anteroposteriorly 0 1
chordee 0 1
hypocalcemia 0 1
hyperflexibility 0 1
polymorphonuclear 0 1
midphalangeal 0 1
proportion 0 1
melena 0 1
coralliform 0 1
erythropoesis 0 1
arterioles 0 1
nonnuclear 0 1
angioedema 0 1
deja 0 1
change 0 1
ganglioneuroma 0 1
intercostal 0 1
gnrh 0 1
hepatocytes 0 1
lobulation 0 1
hypoalphalipoproteinemia 0 1
pronation 0 1
anterio 0 1
skewed 0 1
lymphopenia 0 1
singultus 0 1
exertional 0 1
cotton 0 1
traction 0 1
thyroglossal 0 1
microgastria 0 1
macrogyria 0 1
megalocornea 0 1
lobar 0 1
nephrons 0 1
striation 0 1
229e 0 1
directly 0 1
deafness 0 1
furrowed 0 1
iridocyclitis 0 1
mottling 0 1
nephroma 0 1
roots 0 1
hypochloremia 0 1
thrombocytosis 0 1
diaminoaciduria 0 1
sebaceum 0 1
attached 0 1
cholangiocarcinoma 0 1
hemiagenesis 0 1
nonimmune 0 1
nonword 0 1
switch 0 1
sclerae 0 1
cavum 0 1
gangrene 0 1
opisthotonus 0 1
stercoral 0 1
coronavirus 0 1
anuria 0 1
medication 0 1
control 0 1
hydropic 0 1
sylvian 0 1
spongiosa 0 1
hereditary 0 1
oppenheim 0 1
arachidonic 0 1
buried 0 1
insensitive 0 1
episode 0 1
polygenic 0 1
hemispheres 0 1
lipofuscin 0 1
chylopericardium 0 1
inadequate 0 1
lenticularis 0 1
bitot 0 1
tissues 0 1
hypersexuality 0 1
dens 0 1
mucinous 0 1
scaphoids 0 1
hydroxyphenylacetic 0 1
vara 0 1
leukomalacia 0 1
generalization 0 1
hydroureter 0 1
daytime 0 1
lobulated 0 1
painless 0 1
discoloration 0 1
extended 0 1
amelogenesis 0 1
myoclonias 0 1
decremental 0 1
alanine 0 1
coombs 0 1
intake 0 1
infracardiac 0 1
oliguria 0 1
keratoconus 0 1
serratia 0 1
texture 0 1
pneumococcal 0 1
hypomethioninemia 0 1
priapism 0 1
diploe 0 1
mortality 0 1
juxtaductal 0 1
bun 0 1
fugax 0 1
pyropoikilocytosis 0 1
conspicuously 0 1
microretrognathia 0 1
hypoautofluorescent 0 1
hemothorax 0 1
adenosylcobalamin 0 1
hydranencephaly 0 1
variant 0 1
unusual 0 1
demeanor 0 1
reticulocytopenia 0 1
monilial 0 1
intranuclear 0 1
trimester 0 1
gluconeogenesis 0 1
mitochondrion 0 1
horseshoe 0 1
hyperoxemia 0 1
tuba 0 1
horns 0 1
higher 0 1
clotting 0 1
pancytopenia 0 1
vivid 0 1
atlanto 0 1
initiation 0 1
herpes 0 1
missing 0 1
doughy 0 1
bronchomegaly 0 1
shyness 0 1
flapping 0 1
aspergillus 0 1
ubiquinone 0 1
cachexia 0 1
demineralization 0 1
tetraamelia 0 1
180 0 1
consumption 0 1
cd57 0 1
apathy 0 1
oxycephaly 0 1
anhidrotic 0 1
tegumentary 0 1
leaflet 0 1
dysmorphic 0 1
hydronephrosis 0 1
bicarbonaturia 0 1
isoleucine 0 1
hyphema 0 1
adrenogenital 0 1
children 0 1
meckel 0 1
myelofibrosis 0 1
hemimacroglossia 0 1
hyperthreoninuria 0 1
contractility 0 1
amyelination 0 1
midfrontal 0 1
sedimentation 0 1
intact 0 1
keratocystic 0 1
anagen 0 1
membranoproliferative 0 1
disinhibition 0 1
paronychia 0 1
celosomia 0 1
seasonal 0 1
hypohidrotic 0 1
lacunar 0 1
wean 0 1
osgood 0 1
leak 0 1
hyperalbuminemia 0 1
adnexal 0 1
lacunae 0 1
annular 0 1
tangles 0 1
calcifediol 0 1
twisted 0 1
pseudocoarctation 0 1
hesitancy 0 1
bifidum 0 1
angiopathy 0 1
albuminuria 0 1
cementoma 0 1
emotion 0 1
responses 0 1
seminoma 0 1
cranium 0 1
keloids 0 1
grayish 0 1
oligosaccharides 0 1
butyryl 0 1
hyperhomocystinemia 0 1
cardiological 0 1
galactoside 0 1
hyperphosphatemia 0 1
megaureter 0 1
proboscis 0 1
receptors 0 1
individual 0 1
behaviors 0 1
isometric 0 1
enanthema 0 1
towards 0 1
thromboembolic 0 1
biphenotypic 0 1
dichromacy 0 1
hematocele 0 1
fibroadenoma 0 1
eosinophils 0 1
glucosephosphate 0 1
crimped 0 1
floating 0 1
cat 0 1
studies 0 1
mediated 0 1
orientation 0 1
hypernatriuria 0 1
falciform 0 1
hyperfibrinogenemia 0 1
valine 0 1
