cell 1672 0
positive 174 2
epithelial 171 0
epithelium 160 0
type 125 21
t 124 1
muscle 124 6
obsolete 106 0
gland 100 0
b 97 0
neuron 97 0
alpha 88 1
receptor 88 0
kidney 87 0
negative 86 2
secreting 78 0
dendritic 75 1
tissue 68 0
endothelial 66 0
stem 64 0
1 58 1
smooth 57 1
progenitor 56 0
cd8 56 0
sensu 54 5
duct 54 0
beta 51 0
macrophage 50 0
fibroblast 45 0
immature 44 1
system 44 0
medulla 43 0
tubule 42 0
limb 42 2
cardiac 41 0
organ 40 0
protein 39 4
myocyte 39 0
memory 38 8
renal 38 0
line 38 2
cortex 36 0
vessel 36 0
blood 35 0
thymocyte 35 0
artery 35 0
intestine 35 0
killer 34 0
cd4 34 0
bone 33 0
mature 33 1
ii 32 0
natural 32 0
tract 31 0
cd38 31 0
layer 29 0
low 29 6
mucosa 29 0
skin 28 0
molecule 27 0
lateral 27 6
c 25 0
monocyte 25 0
anterior 25 6
glycoprotein 25 0
2 24 2
i 24 0
neural 24 2
goblet 24 0
element 24 0
small 24 0
glandular 24 1
lymphoid 24 0
hair 24 1
structure 23 3
gamma 23 0
surface 23 4
cord 23 0
transitional 22 0
product 22 2
sensory 22 2
cleavage 22 0
inner 22 0
skeletal 22 0
proteolytic 22 0
part 21 1
nematoda 21 0
respiratory 21 8
spinal 20 2
interstitial 20 0
outer 20 0
eye 20 0
olfactory 20 2
photoreceptor 20 0
nk 20 0
myeloid 19 0
basal 19 2
non 19 14
high 19 9
enteroendocrine 19 0
node 19 0
like 19 13
recta 18 0
igg 18 0
crest 18 0
nucleus 18 0
mesenchymal 18 0
derived 18 0
membrane 18 1
vein 18 0
vasa 18 0
cd34 18 0
glomerular 18 0
cd11b 18 0
4 17 0
hematopoietic 17 0
ganglion 17 0
chain 17 0
proper 17 0
factor 17 0
colon 17 0
vestibular 17 0
atrioventricular 17 0
marrow 16 0
3 16 4
ascending 16 0
entity 16 0
pre 16 1
primary 16 0
lymph 16 0
collecting 16 0
adrenal 16 0
mesenchyme 16 0
pancreatic 16 0
visceral 16 0
germ 16 2
regulatory 16 0
large 16 0
bundle 16 0
protostomia 16 0
motor 16 4
5 15 0
capillary 15 0
hormone 15 2
cartilage 15 0
precursor 15 0
fiber 15 1
stomach 15 0
member 15 0
associated 15 1
glial 15 0
interneuron 15 0
nephron 15 0
body 15 7
chemokine 15 0
dermal 15 0
lung 15 0
myoepithelial 15 0
connective 15 0
bipolar 15 0
cone 15 0
lactiferous 14 0
prostate 14 0
melanocyte 14 0
thymus 14 0
integrin 14 0
internodal 14 0
endothelium 14 0
segment 14 0
nervous 14 0
secondary 14 3
region 14 0
kit 14 0
vertebrata 13 0
pigment 13 0
squamous 13 0
retinal 13 0
ventricle 13 0
henle 13 0
adipose 13 0
mammary 13 0
loop 13 0
follicle 13 0
class 13 0
delta 13 0
immunoglobulin 13 2
bladder 13 0
d 12 10
epidermis 12 0
umbilical 12 0
embryonic 12 0
intestinal 12 0
antigen 12 0
compound 12 1
isoform 12 0
classical 12 0
subunit 12 0
descending 12 0
mus 12 0
microvascular 12 0
branch 12 0
nerve 12 1
posterior 12 6
intraepithelial 12 0
brain 12 0
anatomical 12 0
left 11 4
arteriole 11 0
plasma 11 0
viscerocranial 11 0
external 11 2
erythroid 11 0
parathyroid 11 0
eosinophil 11 0
lectin 11 0
lymphocyte 11 0
chromaffin 11 0
activated 11 0
quality 11 56
male 11 17
common 11 0
interleukin 11 0
columnar 11 1
molecular 11 1
ovary 11 0
peptide 11 0
ciliated 11 0
acinus 11 1
septum 11 0
form 11 0
striated 11 3
thymic 10 0
lens 10 0
accumulating 10 0
brush 10 1
myoblast 10 0
sheath 10 0
enterocyte 10 0
mesothelial 10 0
cavity 10 0
stromal 10 0
megakaryocyte 10 0
distal 10 2
splenic 10 0
erythroblast 10 0
gastric 10 0
labyrinth 10 0
double 10 0
intermediate 10 0
column 10 0
naive 10 0
fc 10 0
hindlimb 10 0
cd14 10 0
single 10 1
joint 10 0
neuromast 10 0
subdivision 10 0
bronchiole 10 0
principal 9 0
signal 9 0
digestive 9 2
heart 9 3
mhc 9 0
macula 9 0
basophil 9 0
endocrine 9 0
stratum 9 0
helper 9 0
female 9 16
plasmacytoid 9 0
follicular 9 0
fibrocyte 9 0
vasculature 9 0
central 9 0
condensation 9 0
fat 9 0
membranous 9 0
granule 9 0
serous 9 1
langerhans 9 0
spleen 9 0
affinity 9 3
purkinje 9 0
lineage 9 0
cd27 9 0
cd16 9 0
ureter 9 0
venous 8 0
x 8 1
root 8 0
bulb 8 0
prostatic 8 0
epidermal 8 0
langerin 8 0
preadipocyte 8 0
microfold 8 0
exocrine 8 0
multi 8 5
proximal 8 1
zone 8 0
domain 8 0
effector 8 0
pancreas 8 0
mononuclear 8 0
tyrosine 8 0
mast 8 0
epsilon 8 0
astrocyte 8 0
basophilic 8 1
arcuate 8 0
reproductive 8 3
family 8 0
removed 8 0
stimulating 8 0
adipocyte 8 0
intercalated 8 0
bronchus 8 0
ligament 8 0
trunk 8 0
terminal 8 1
switched 8 0
cd103 8 0
hippocampal 8 0
transcription 8 0
upper 8 0
b220 8 0
pulp 8 0
trophoblast 8 0
parietal 8 0
regular 8 4
fraction 8 0
metanephric 7 0
chondrocyte 7 0
endoderm 7 0
pulmonary 7 0
anal 7 0
stellate 7 0
spore 7 0
esophagus 7 0
pro 7 0
capsule 7 0
cranial 7 0
short 7 2
adventitia 7 0
synovial 7 0
ovarian 7 0
right 7 5
urethra 7 0
conventional 7 0
cortical 7 0
glya 7 0
choroid 7 0
neutrophil 7 0
growth 7 16
thoracic 7 0
appendix 7 0
crypt 7 0
luminal 7 0
sweat 7 0
stratified 7 1
unswitched 7 0
hepatic 7 0
peritubular 7 0
liver 7 0
papillary 7 1
nasal 7 0
trachea 7 0
fluid 7 4
dermis 7 0
head 7 0
cd1a 7 0
cochlea 7 0
tube 7 0
support 7 0
cerebral 7 0
6 6 0
7 6 0
schwann 6 0
terminally 6 0
urothelium 6 0
gut 6 0
matter 6 0
vgamma1.1 6 0
erythrocyte 6 0
abdomen 6 0
chief 6 0
leg 6 0
lamina 6 0
somatic 6 0
urothelial 6 0
early 6 0
fetal 6 0
lacrimal 6 0
tree 6 0
sinus 6 0
alveolus 6 0
nuclear 6 0
human 6 0
peritoneum 6 0
otic 6 0
horn 6 0
villus 6 0
vgamma2 6 0
long 6 2
papilla 6 0
dense 6 1
thyroid 6 0
76 6 0
placental 6 0
chamber 6 0
retina 6 0
ventral 6 5
matrix 6 0
red 6 12
satellite 6 0
plasmablast 6 0
endochondral 6 0
taste 6 12
gray 6 0
supporting 6 0
lived 6 0
differentiated 6 4
pleura 6 0
phosphatase 6 0
vdelta6.3 6 0
mesonephric 6 0
lower 6 0
prestalk 6 0
ly 6 0
promyelocyte 6 0
dorsal 6 5
forebrain 6 0
phagocyte 6 0
multinucleate 6 1
urinary 6 0
vascular 6 0
pelvis 6 0
atrial 6 0
plexus 6 0
tympanic 6 0
cd11c 6 0
8 5 0
cerebellum 5 0
straight 5 2
tip 5 0
gr1 5 0
sphincter 5 0
native 5 0
multipotent 5 1
cns 5 0
extraembryonic 5 0
canal 5 0
aorta 5 0
adenohypophysis 5 0
efferent 5 0
initial 5 0
paneth 5 0
esophageal 5 0
osteoblast 5 0
acinar 5 1
uterine 5 0
stage 5 0
suppressor 5 0
basket 5 0
sensitive 5 5
convoluted 5 0
keratinized 5 0
patch 5 0
adhesion 5 0
organic 5 0
iga 5 0
ige 5 0
igm 5 0
tongue 5 0
iii 5 0
migratory 5 0
cerebellar 5 0
cytotoxic 5 0
duodenum 5 0
acid 5 2
reticulocyte 5 0
shape 5 15
white 5 1
carotid 5 0
abdominal 5 2
interventricular 5 0
propria 5 0
cervix 5 0
neuroblast 5 0
pericyte 5 0
simple 5 1
sac 5 0
arterial 5 0
proteoglycan 5 0
ciliary 5 0
interstitium 5 0
peripheral 5 1
nucleated 5 1
granulocyte 5 0
primitive 5 0
cd25 5 0
cd24 5 0
mesoderm 5 0
peyer's 5 0
lymphatic 5 0
organism 5 3
seminal 5 0
leukocyte 5 0
afferent 5 0
barrier 5 0
interrenal 5 0
nonkeratinized 4 0
size 4 17
pigmented 4 1
ileum 4 0
saccule 4 0
spiral 4 0
p 4 2
interlobular 4 0
marginal 4 0
subcutaneous 4 0
plasmatocyte 4 0
secretory 4 0
subfamily 4 0
tunica 4 0
cluster 4 0
ccr4 4 0
sinusoid 4 0
endo 4 0
formation 4 0
salivary 4 0
absorptive 4 0
group 4 0
pars 4 0
keratinocyte 4 0
distalis 4 0
iris 4 0
metamyelocyte 4 0
bile 4 0
myeloblast 4 0
septal 4 0
interlobulary 4 0
myocardial 4 0
thick 4 0
division 4 0
myelocyte 4 0
gyrus 4 0
sebaceous 4 0
breast 4 0
uninucleate 4 0
bronchial 4 0
gonad 4 0
neuroendocrine 4 0
igd 4 0
binding 4 0
rectum 4 0
valve 4 0
internal 4 1
sperm 4 0
from 4 9
dentate 4 0
mesangial 4 0
oviduct 4 0
visual 4 22
decreased 4 102
neck 4 0
neurosecretory 4 0
neutrophilic 4 0
cd8alpha 4 0
lobular 4 0
platelet 4 0
border 4 0
acoustic 4 0
utricle 4 0
hippocampus 4 0
increased 4 105
eccrine 4 0
coronary 4 0
tonsil 4 0
femur 4 0
ly49ci 4 0
ecto 4 0
gall 4 0
conidium 4 0
giant 4 0
eosinophilic 4 1
tracheobronchial 4 0
endopterygota 4 0
related 4 0
pyramidal 4 1
enteric 4 0
cadherin 4 0
amniotic 4 0
oral 4 0
vertebra 4 0
cuboidal 4 0
interatrial 4 0
duodenal 4 0
pp 4 0
thin 4 0
gastrointestinal 4 0
cd41 4 0
cd69 4 0
cd56 4 0
cd94 4 0
dark 4 15
sinoatrial 4 0
nucleate 4 1
jejunum 4 0
cytoplasm 4 0
hemocyte 4 0
foreskin 4 0
cd7 4 0
mucosal 3 0
conjunctiva 3 0
cellular 3 9
object 3 3
epididymis 3 0
e 3 2
xenopus 3 0
k 3 0
l 3 1
m 3 2
n 3 0
component 3 0
v 3 4
ventricular 3 0
pan 3 0
cxcr3 3 0
oligodendrocyte 3 0
gamete 3 0
odontoblast 3 0
oocyte 3 0
proerythroblast 3 0
epicardial 3 0
irregular 3 7
neuronal 3 0
endometrium 3 0
mechanoreceptor 3 0
stylopod 3 0
lining 3 0
corneum 3 0
radial 3 1
notochordal 3 0
seminiferous 3 0
light 3 27
major 3 0
electrically 3 0
aortic 3 0
dental 3 0
articular 3 0
pituitary 3 0
inflammatory 3 1
pneumocyte 3 0
strial 3 0
paired 3 0
oligopotent 3 1
brown 3 12
lieberkuhn 3 0
amnion 3 0
kinase 3 0
sieve 3 0
vesicle 3 0
vagina 3 0
mucus 3 0
interferon 3 0
hypothalamus 3 0
band 3 0
resident 3 0
mesodermal 3 0
pillar 3 0
necrosis 3 0
cochlear 3 0
superfamily 3 0
iib 3 0
ear 3 0
thermoreceptor 3 0
obliquely 3 1
germinal 3 0
diptera 3 0
fungal 3 0
fate 3 0
spermatocyte 3 0
ectoderm 3 0
nephrocyte 3 0
gingival 3 0
mucous 3 0
odontoclast 3 0
polar 3 1
crista 3 0
vomeronasal 3 0
complement 3 0
atrium 3 0
annulus 3 0
paraganglion 3 0
omentum 3 0
penis 3 0
substantia 3 0
tumor 3 0
foam 3 0
developing 3 0
tracheal 3 0
mantle 3 0
polychromatophilic 3 0
substance 3 11
restricted 3 0
auditory 3 20
pulposus 3 0
continuant 3 4
interplexiform 3 0
prepuce 3 0
kappa 3 0
perirenal 3 0
scavenger 3 0
megaspore 3 0
venule 3 0
gabaergic 3 0
glioblast 3 0
lymphoblast 3 0
fin 3 0
complex 3 1
genus 3 0
plant 3 5
striatum 3 0
digit 3 0
pinealocyte 3 0
lymphangioblast 3 0
iv 3 0
macroconidium 3 0
crystal 3 1
camera 3 0
luteal 3 0
pupillae 3 0
nf 3 0
box 3 0
melanogaster 3 0
microglial 3 0
arthroconidium 3 0
testis 3 0
cd42 3 0
malpighian 3 0
aminopeptidase 3 0
medullary 3 0
vegetative 3 0
yolk 3 0
osteoclast 3 0
brainstem 3 0
arthropoda 3 0
mycetozoa 3 0
cd2 3 0
endocardial 3 0
neocortex 2 0
vacuolar 2 0
9 2 0
g 2 2
h 2 4
j 2 0
leydig 2 0
s 2 0
thy 2 0
peroxidase 2 0
echinococcus 2 0
regional 2 0
folliculostellate 2 0
takifugu 2 0
projection 2 0
mammalia 2 0
immortal 2 1
pyloric 2 0
block 2 0
bronchioalveolar 2 0
pongo 2 0
multinuclear 2 0
lactotransferrin 2 0
chorionic 2 0
sphenodon 2 0
brachiocephalic 2 0
inhibitory 2 0
villous 2 0
ampulla 2 0
xylem 2 0
tertiary 2 0
drosophila 2 0
wall 2 0
vertebrate 2 0
multinucleated 2 0
stato 2 0
monodon 2 0
reniform 2 1
nasopharynx 2 0
tingible 2 0
ccr6 2 0
phloem 2 0
mesangium 2 0
late 2 1
nucleotidase 2 0
testudines 2 0
medial 2 4
integumentary 2 0
center 2 0
spinosum 2 0
nigra 2 0
peritoneal 2 0
pedal 2 0
anucleate 2 1
macaca 2 0
fenestrated 2 1
transversely 2 1
myofibroblast 2 0
morula 2 0
rattus 2 0
chromosome 2 0
clear 2 0
myeloperoxidase 2 0
granulosum 2 0
ly49d 2 0
ammon's 2 0
ly49h 2 0
meatus 2 0
trigone 2 0
selectin 2 0
active 2 4
adult 2 0
term 2 5
nodal 2 0
pineal 2 0
paraaortic 2 0
cysteine 2 0
corpus 2 0
concave 2 2
areolar 2 0
aromatic 2 2
vitro 2 0
circumventricular 2 0
homo 2 0
dentine 2 0
muscular 2 0
caenorhabditis 2 0
jaculus 2 0
magnocellular 2 0
uterus 2 0
stalk 2 0
semicircular 2 1
sense 2 0
archosauria 2 0
fucosyltransferase 2 0
sirpa 2 0
main 2 0
fibrosus 2 0
circulating 2 0
oxygen 2 4
bearing 2 0
null 2 0
meso 2 0
danio 2 0
physical 2 5
gorilla 2 0
immune 2 3
processed 2 0
socket 2 0
recombination 2 0
vgamma5 2 0
nasolacrimal 2 0
17 2 0
macropus 2 0
middle 2 0
transverse 2 1
cathepsin 2 0
face 2 0
sca1 2 0
buccal 2 0
oryzias 2 0
raphe 2 0
densa 2 0
mass 2 15
neuroglioblast 2 0
gingiva 2 0
inferior 2 0
cells 2 0
80 2 0
binucleate 2 1
glutamatergic 2 0
endometrial 2 0
cerebrospinal 2 0
nuclei 2 0
alobate 2 1
prebcr 2 0
caecum 2 0
span 2 6
myotube 2 0
noradrenergic 2 0
p100 2 0
oxyphil 2 0
signaling 2 0
periodontium 2 0
subgenus 2 0
egg 2 0
decidua 2 0
plasmactyoid 2 0
macroglial 2 0
cd209 2 0
androgen 2 0
ray 2 0
tetraodon 2 0
phalangeal 2 0
cultured 2 0
intrahepatic 2 0
slam 2 0
fast 2 0
multicellular 2 1
pseudostratified 2 0
pericardium 2 0
adp 2 0
trabecular 2 1
ribosyl 2 0
plexiform 2 0
rich 2 0
oncogene 2 0
glycosylated 2 0
thrombomodulin 2 0
endocervix 2 0
excretory 2 2
ectodermal 2 0
presenting 2 0
carcinoembryonic 2 0
activating 2 0
alveolar 2 0
alc 2 0
domains 2 0
unit 2 13
golgi 2 0
rod 2 0
ror 2 0
specific 2 1
odontogenic 2 0
jaw 2 0
containing 2 0
slow 2 0
lobed 2 1
tracheid 2 0
releasing 2 0
ccaat 2 0
arm 2 0
alternatively 2 0
visceromotor 2 0
granular 2 1
mouse 2 0
mother 2 0
dura 2 0
rialpha 2 0
paracrine 2 0
gastrin 2 0
sensing 2 0
m130 2 0
sigmoid 2 1
guard 2 0
cushion 2 0
orthochromatic 2 0
cyclic 2 1
lobule 2 0
cardioblast 2 0
glycophorin 2 0
pronephric 2 0
paraganglial 2 0
myelinating 2 0
polymodal 2 0
juxtaglomerular 2 0
somatomotor 2 0
mater 2 0
blastoconidium 2 0
d1 2 0
sex 2 4
appendage 2 0
circulatory 2 2
hindbrain 2 0
f4 2 0
foregut 2 0
canaliculus 2 0
eyeball 2 0
prominin 2 0
nocireceptor 2 0
nk1.1 2 0
myxine 2 0
gata 2 0
pectoralis 2 0
cornea 2 0
transferrin 2 0
ib 2 0
ductal 2 0
mitral 2 0
bm2 2 0
bm3 2 0
plate 2 0
ligand 2 0
ornithorhynchus 2 0
cajal 2 0
optic 2 0
adventitial 2 0
knee 2 0
eyelid 2 0
meshwork 2 0
haploid 2 1
amoeboid 2 0
coat 2 0
disc 2 0
bos 2 0
chordata 2 0
mixed 2 2
storage 2 0
slamf1 2 0
hemoglobin 2 0
scolopidial 2 0
extraglomerular 2 0
integumental 2 0
enhancer 2 0
corneal 2 2
cd28 2 0
cd22 2 0
sus 2 0
vertebral 2 0
cd1c 2 0
keratinizing 2 0
bud 2 0
elastic 2 1
reticular 2 0
cd48 2 0
cd44 2 0
ploidy 2 1
gallus 2 0
anolis 2 0
life 2 6
cd71 2 0
hemopoietic 2 0
histocompatibility 2 0
monodelphis 2 0
mortal 2 0
parenchyma 2 0
accessory 2 0
retrotrapezoid 2 0
cd161 2 0
nkg2 2 0
tubular 2 1
antibody 2 0
autonomic 2 2
range 2 0
metazoa 2 0
enamel 2 0
pelvic 2 0
connecting 2 0
diploid 2 1
gastrula 2 0
cyclase 2 0
subclavian 2 0
tendon 2 0
cd115 2 0
proto 2 0
branched 2 1
cap 2 0
scalp 2 0
erinaceus 2 0
cd3 2 0
cd5 2 0
cd9 2 0
nonskeletal 1 0
heterochromatin 1 0
coelurosauria 1 0
glires 1 0
ecdysozoa 1 0
tylotrich 1 0
glycocalyx 1 0
holocrine 1 0
competent 1 0
glr 1 0
mineralocorticoid 1 0
0 1 0
nigroviridis 1 0
cardiomyocyte 1 0
gastropoda 1 0
osteoglossomorpha 1 0
myxiniformes 1 0
flight 1 0
independent 1 0
percomorphaceae 1 0
vasculosus 1 0
alkali 1 2
metallopeptidase 1 0
spanning 1 0
garland 1 0
f 1 2
urokinase 1 0
sebum 1 0
lactosylceramide 1 0
blue 1 7
y 1 1
cyanophore 1 0
cingulata 1 0
extramedullary 1 0
excitatory 1 0
anchoring 1 0
fundus 1 0
ncam 1 0
claudius 1 0
pylorus 1 0
leucoblast 1 0
pax 1 0
neurectodermal 1 0
vaginal 1 0
suina 1 0
metanephros 1 0
lymphomyeloid 1 0
fated 1 0
oryziinae 1 0
hexapoda 1 0
juxtamedullary 1 0
preameloblast 1 0
disci 1 0
medium 1 1
enterocrine 1 0
hyphal 1 0
multiple 1 1
pyrophosphatase 1 0
teleostei 1 0
tylopoda 1 0
sauropsida 1 0
vasoactive 1 0
odontoid 1 0
pioneer 1 0
glomerulus 1 0
actinopterygii 1 0
erinaceidae 1 0
pes 1 0
oxytocin 1 0
neuroplacodal 1 0
morphology 1 2
slowly 1 0
suidae 1 0
laevis 1 0
conduit 1 0
prespore 1 0
cypriniformes 1 0
aciculata 1 0
estradiol 1 0
dilator 1 0
reticulocytes 1 0
phe 1 0
didelphidae 1 0
fibrillary 1 1
bovinae 1 0
peptic 1 0
tr1 1 0
hemangioblast 1 0
cervidae 1 0
stiftchenzellen 1 0
sapiens 1 0
tanycyte 1 0
function 1 50
eurypterygia 1 0
pit 1 0
riftia 1 0
motilin 1 0
xenoturbella 1 0
mitogenic 1 0
parenchymal 1 0
chemoreceptor 1 0
gestational 1 2
mauthner 1 0
flt3 1 0
caecilia 1 0
perineuronal 1 0
basic 1 0
acidic 1 1
globose 1 0
specialized 1 0
fruit 1 0
occurrent 1 5
guidepost 1 0
convex 1 4
jelly 1 0
skull 1 0
paranasal 1 0
extracellular 1 0
glucocorticoid 1 0
actinopteri 1 0
euteleosteomorpha 1 0
haplorrhini 1 0
periglomerular 1 0
presomitic 1 0
hatching 1 0
saliva 1 0
chelicerata 1 0
csf 1 0
drainage 1 0
dopaminergic 1 0
norepinephrine 1 0
apparatus 1 0
pterygota 1 0
ependymoglial 1 0
realizable 1 0
rufus 1 0
theca 1 0
somatotropin 1 0
leu 1 0
amnioserosal 1 0
gnathostomata 1 0
coelemic 1 0
dipodinae 1 0
phasianidae 1 0
postmacula 1 0
branchiomeric 1 0
idioblast 1 0
myometrium 1 0
ccr1 1 0
parasympathetic 1 0
amphibia 1 0
somatotroph 1 0
granzyme 1 0
embryo 1 0
notochord 1 0
ameloblast 1 0
trachebronchial 1 0
polychromatic 1 0
taurus 1 0
percomorpharia 1 0
cardiocyte 1 0
paraganglia 1 0
radiata 1 0
ye1 1 0
iguanidae 1 0
heteroneura 1 0
intrinsic 1 0
ectocervix 1 0
periderm 1 0
acidophilic 1 1
oncocyte 1 0
curved 1 8
microspore 1 0
resistant 1 1
ooblast 1 0
epiblast 1 0
adrenocorticotropic 1 0
xenacoelomorpha 1 0
pipidae 1 0
cd45ro 1 0
cumulus 1 0
cd45ra 1 0
zoospore 1 0
surfactant 1 0
pain 1 2
palatal 1 0
siboglinidae 1 0
generic 1 1
flatworm 1 0
murinae 1 0
gravity 1 0
time 1 8
amniocyte 1 0
xanthoblast 1 0
melanophage 1 0
dicondylia 1 0
hydrogen 1 0
tips 1 0
polychrotinae 1 0
carbon 1 0
specifically 1 0
steroid 1 0
ditrysia 1 0
warmth 1 0
vasopressin 1 0
coelacanthimorpha 1 0
euploid 1 1
bright 1 2
mandibulata 1 0
lugaro 1 0
equatorial 1 0
caniformia 1 0
endospore 1 0
hyperotreti 1 0
centro 1 0
corticotroph 1 0
rodentia 1 0
batoidea 1 0
myelin 1 0
pressoreceptor 1 0
microsporocyte 1 0
maxillopoda 1 0
paraxial 1 0
fungi 1 0
muller 1 0
precementoblast 1 0
nitrergic 1 0
camelidae 1 0
metabolising 1 0
fut4 1 0
fmet 1 0
hip 1 0
saccus 1 0
zona 1 0
mammalian 1 0
enucleated 1 0
neurecto 1 0
imaginal 1 0
proximale 1 0
fixing 1 0
intra 1 0
cd45r 1 0
strigiformes 1 0
blastocyst 1 0
cambial 1 0
colony 1 0
progesterone 1 0
general 1 0
attachment 1 1
induced 1 0
otomorpha 1 0
sertoli 1 0
keratocyte 1 0
hla 1 0
corti 1 0
process 1 15
ponginae 1 0
troglodytes 1 0
oblongata 1 0
trophectodermal 1 0
developmental 1 0
hominoidea 1 0
conducting 1 0
conjunctival 1 0
qualitative 1 2
mucin 1 0
cementocyte 1 0
dilatator 1 0
soft 1 1
rhabditoidea 1 0
milk 1 0
subsidiary 1 0
disseminated 1 0
nuocyte 1 0
pseudounipolar 1 0
polytene 1 0
spermatid 1 0
physeteridae 1 0
trans 1 0
contractile 1 2
histamine 1 0
subgroup 1 0
heterocyst 1 0
hydroxy 1 0
bottle 1 0
echinoidea 1 0
transparent 1 1
chordamesoderm 1 0
integral 1 0
eurydendroid 1 0
glutinosa 1 0
testosterone 1 0
lobate 1 1
marco 1 0
pituicyte 1 0
monodontidae 1 0
blast 1 0
tetrapoda 1 0
podocyte 1 0
splenocyte 1 0
totipotent 1 1
dim 1 1
oenocyte 1 0
blastoderm 1 0
hensen 1 0
acceleration 1 7
chondroblast 1 0
dopamanergic 1 0
tartrate 1 0
anhimidae 1 0
mysticeti 1 0
anthozoa 1 0
extrinsic 1 0
parvocellular 1 0
winged 1 0
tc17 1 0
prolactin 1 0
dn1 1 0
polygonal 1 0
dn3 1 0
dn2 1 0
ovalentaria 1 0
dn4 1 0
material 1 0
osteoid 1 0
pharyngeal 1 0
iron 1 0
anatinus 1 0
gonocyte 1 0
amphiesmenoptera 1 0
sabellida 1 0
cylindrical 1 1
intervertebralis 1 0
superficial 1 1
rhodopsin 1 0
klrb1 1 0
dna 1 0
proximo 1 0
motoneuron 1 0
luteinizing 1 0
prokaryotic 1 0
cyclophyllidea 1 0
eumetazoa 1 0
corpuscle 1 0
cystoblast 1 0
acting 1 0
monoblast 1 0
hepatocyte 1 0
echinodermata 1 0
anguilliformes 1 0
scolopale 1 0
banded 1 1
phocidae 1 0
bythitoidei 1 0
nurse 1 0
pavement 1 0
melanin 1 0
oogonial 1 0
telencephalon 1 0
muridae 1 0
scaffold 1 0
syncytial 1 0
gelatinase 1 0
stria 1 0
perineurium 1 0
unimodal 1 0
forkhead 1 0
receptive 1 0
heterogeneous 1 0
endorphin 1 0
eucestoda 1 0
spermatogonium 1 0
mammotroph 1 0
dra 1 0
unilaminar 1 0
muraenidae 1 0
balaenopteridae 1 0
meninx 1 0
sustentacular 1 0
peridontal 1 0
polypeptide 1 0
ectonucleotide 1 0
cytotrophoblast 1 0
batrachia 1 0
echinozoa 1 0
trichome 1 0
tarsiidae 1 0
definitive 1 0
chimaeriformes 1 0
erythroblasts 1 0
kolmer 1 0
coronet 1 0
acalyptratae 1 0
epitheliocyte 1 0
calvarial 1 0
apoptosis 1 0
alouatta 1 0
fusimotor 1 0
hyalocyte 1 0
mer 1 0
vacuole 1 0
enucleate 1 0
sarcopterygii 1 0
deviation 1 5
segmented 1 1
episquamata 1 0
cementum 1 0
ascidiacea 1 0
keratin 1 0
lubricant 1 0
craniata 1 0
sauria 1 0
contribution 1 0
chemosensory 1 0
dx5 1 0
based 1 0
telencephalic 1 0
caeciliidae 1 0
primordial 1 0
module 1 0
hypocretin 1 0
animal 1 0
processing 1 0
mesenteric 1 0
22 1 0
transporting 1 0
functional 1 3
insectivora 1 0
oospore 1 0
microconidium 1 0
insulin 1 0
1a 1 0
1b 1 0
1c 1 0
1l 1 0
free 1 0
undifferentiated 1 1
cardiovascular 1 0
triggering 1 0
littoral 1 0
open 1 1
erythrophore 1 0
cercopithecinae 1 0
canidae 1 0
unipotent 1 1
48 1 0
commissural 1 0
rohon 1 0
vascularis 1 0
nonglandular 1 0
cephalochordata 1 0
beard 1 0
myoid 1 0
histaminergic 1 0
muroidea 1 0
ileal 1 0
lymphocytic 1 0
adnexa 1 0
premigratory 1 0
prototheria 1 0
granulosa 1 0
girdle 1 0
merocrine 1 0
subcapsular 1 0
didelphinae 1 0
chromophobe 1 0
75 1 0
cholangiocyte 1 0
osteoglossiformes 1 0
6c2 1 0
diprotodontia 1 0
6a 1 0
endosteum 1 0
6e 1 0
6g 1 0
perineural 1 0
dipnoi 1 0
spiny 1 1
eleutherozoa 1 0
norvegicus 1 0
adaxial 1 1
micropylar 1 0
presumptive 1 0
cnidaria 1 0
ascospore 1 0
defensive 1 2
bodily 1 0
dependent 1 4
centripetally 1 0
lysozyme 1 0
hemolymphoid 1 0
intervertebral 1 0
glucagon 1 0
activator 1 0
cecum 1 0
paraventricular 1 0
iia 1 0
macrosialin 1 0
ependymal 1 0
neognathae 1 0
acanthomorphata 1 0
elopocephala 1 0
enkephalin 1 0
ec1 1 0
ec2 1 0
interfollicle 1 0
neoptera 1 0
innate 1 0
sciurognathi 1 0
interdental 1 0
degenerate 1 2
teleostomi 1 0
interneuromast 1 0
runt 1 0
psto 1 0
obtectomera 1 0
pole 1 0
axis 1 0
space 1 0
ecl 1 0
gonadtroph 1 0
femoral 1 0
epicardium 1 0
tether 1 0
adapting 1 0
polyphenol 1 0
pygmaeus 1 0
secretin 1 0
appendicular 1 0
death 1 0
2b4 1 0
chromadorea 1 0
ornithorhynchidae 1 0
aggregate 1 0
ocular 1 2
subepithelial 1 0
array 1 0
biconcave 1 1
phasianinae 1 0
cartilaginous 1 1
macular 1 0
cementoblast 1 0
annelida 1 0
sialic 1 0
integument 1 0
lophotrochozoa 1 0
dipodidae 1 0
feyrter 1 0
galanergic 1 0
thecogen 1 0
egf 1 0
leading 1 0
cyclorrhapha 1 0
ion 1 0
cd200 1 0
decidual 1 0
mueller 1 0
microcirculatory 1 0
otophysa 1 0
electroreceptor 1 0
colonic 1 0
adrianichthyoidei 1 0
insects 1 0
petromyzontidae 1 0
xanthophore 1 0
hemichordata 1 0
heteroatomic 1 0
myb 1 0
uric 1 0
gallbladder 1 0
phyllodocida 1 0
pore 1 0
sphenodontidae 1 0
nereididae 1 0
dn2b 1 0
dn2a 1 0
corona 1 0
alimentary 1 0
cetacea 1 0
periarticular 1 0
osteochondroclast 1 0
parathyoid 1 0
cd217 1 0
somatostatin 1 0
gabanergic 1 0
nasopharyngeal 1 0
antrum 1 0
polyploid 1 1
schizophora 1 0
fusion 1 0
tracheoblast 1 0
carnivora 1 0
atheriniformes 1 0
loose 1 1
bilateria 1 0
basophillic 1 0
neoteleostei 1 0
companion 1 0
emp24 1 0
spongiotrophoblast 1 0
stretch 1 0
pstab 1 0
meningeal 1 0
laurasiatheria 1 0
tachyglossidae 1 0
insecta 1 0
tetraodontiformes 1 0
nitrogen 1 0
clupeocephala 1 0
myoendocrine 1 0
preodontoblast 1 0
haemolymphatic 1 0
ureteral 1 0
agm 1 0
colubroidea 1 0
alanyl 1 0
carbohydrate 1 3
number 1 9
ophidiimorpharia 1 0
drosophilinae 1 0
petromyzontiformes 1 0
kenyon 1 0
paniscus 1 0
chalcogen 1 0
serpentes 1 0
atypical 1 0
mesentery 1 0
peptidergic 1 0
programmed 1 0
trichogen 1 0
alouattinae 1 0
tetradontoidea 1 0
lipocalin 1 0
myocardium 1 0
islet 1 0
chondrichthyes 1 0
talpidae 1 0
elegans 1 0
mycetozoan 1 0
dinosauria 1 0
toxicofera 1 0
muscomorpha 1 0
viscus 1 0
gonadotropin 1 0
endosteal 1 0
antipodal 1 0
biogenic 1 0
lumen 1 0
mineralized 1 1
modified 1 1
mammosomatotroph 1 0
cytokine 1 0
opisthokonta 1 0
amniota 1 0
touch 1 2
peridermal 1 0
larval 1 1
tetraodontidae 1 0
amino 1 0
tetraspanin 1 0
odontocyte 1 0
organisms 1 0
syndecan 1 0
euteleostomi 1 0
coupled 1 0
amine 1 0
basale 1 0
supportive 1 0
tarsiiformes 1 0
cartwheel 1 0
articulation 1 0
lepidoptera 1 0
brachycera 1 0
orycteropodidae 1 0
agduhr 1 0
mannose 1 0
fibrocartilage 1 0
cx3c 1 0
neopterygii 1 0
osteoglossocephala 1 0
tormogen 1 0
tetraodontoidei 1 0
sclerenchyma 1 0
colubridae 1 0
elasmobranchii 1 0
zygospore 1 0
viscera 1 0
phenols 1 0
c1q 1 0
potency 1 1
midgut 1 0
multilocularis 1 0
endoglin 1 0
epinephrin 1 0
corpuscule 1 0
arginase 1 0
professional 1 0
ampullaris 1 0
myxininae 1 0
histology 1 0
photopic 1 0
endocardium 1 0
granulocytopoietic 1 0
parafollicular 1 0
canalipalpata 1 0
iota 1 0
cyprinoidea 1 0
jejunal 1 0
blastconidium 1 0
enterochromaffin 1 0
prickle 1 0
cationic 1 0
flask 1 0
statoacoustic 1 0
systemic 1 0
bifurcata 1 0
euarchontoglires 1 0
elopomorpha 1 0
melanoblast 1 0
femural 1 0
synergid 1 0
collagen 1 0
lacking 1 1
chiroptera 1 0
beige 1 1
hypothalamic 1 0
tracheary 1 0
iridophore 1 0
holocephali 1 0
chemotactic 1 0
physeter 1 0
organismal 1 4
epinephrine 1 0
duplicate 1 0
foveolar 1 0
crocodylia 1 0
xenopodinae 1 0
ecdysteroid 1 0
submucosal 1 0
microvillous 1 0
chorion 1 0
apud 1 0
tonsillar 1 0
mammal 1 0
rhabditida 1 0
neuroepithelial 1 0
unidentata 1 0
green 1 7
resting 1 0
glossata 1 0
experimentally 1 0
intralobular 1 0
mouth 1 0
periperhal 1 0
meristematic 1 0
chromophil 1 0
perivascular 1 0
multilaminar 1 0
latipes 1 0
mesothelium 1 0
cypriniphysae 1 0
neuroglioform 1 0
cercopithecidae 1 0
xenoturbellida 1 0
luteum 1 0
cyprinidae 1 0
limiting 1 0
shps 1 0
serotonergic 1 0
serosal 1 0
cavitated 1 0
glycinergic 1 0
leptomeningeal 1 0
pericardial 1 0
pancrustacea 1 0
cutaneous 1 0
simiiformes 1 0
elicited 1 0
eutheria 1 0
crustacea 1 0
autopod 1 0
sophophora 1 0
concavity 1 1
immaterial 1 0
bergmann 1 0
lamellocyte 1 0
glycogen 1 0
musculus 1 0
great 1 0
adrianichthyidae 1 0
lysosome 1 0
stuff 1 0
section 1 0
eggshell 1 0
heterokaryon 1 0
erinaceinae 1 0
afrotheria 1 0
hepatoblast 1 0
homininae 1 0
trematoda 1 0
periodontal 1 0
anura 1 0
syncytiotrophoblast 1 0
broncial 1 0
ostariophysi 1 0
coelomocyte 1 0
visible 1 0
deuterostomia 1 0
ghrelin 1 0
filtration 1 0
transfer 1 2
osteoglossocephalai 1 0
ephydroidea 1 0
acute 1 2
pacemaker 1 0
transmembrane 1 0
closable 1 0
epithem 1 0
premacula 1 0
generative 1 0
leucophore 1 0
prechondroblast 1 0
along 1 0
structural 1 0
cytotoxicity 1 0
enzyme 1 12
photosynthetic 1 0
bovidae 1 0
proteinase 1 0
ruminantia 1 0
prohemocyte 1 0
hyperoartia 1 0
neuroepidermoblast 1 0
epithelioid 1 0
theropoda 1 0
eukaryota 1 0
punctatus 1 0
anseriformes 1 0
pluripotent 1 1
b7 1 0
humidity 1 2
euacanthomorphacea 1 0
intima 1 0
ab 1 0
vermiform 1 0
midbrain 1 0
arthopoda 1 0
pyrenocyte 1 0
chemical 1 2
mollusca 1 0
epidermoblast 1 0
neuroepithelium 1 0
nongranular 1 0
procrystal 1 0
nodular 1 1
feliformia 1 0
be2 1 0
mesonephros 1 0
boreoeutheria 1 0
be1 1 0
bcr 1 0
seromucus 1 0
europaeus 1 0
tooth 1 0
neolepidoptera 1 0
founder 1 0
oval 1 0
mulatta 1 0
co 1 0
atrichoblast 1 0
dasypodidae 1 0
food 1 0
bombesin 1 0
plasminogen 1 0
gymnophiona 1 0
fly 1 0
rerio 1 0
neprilysin 1 0
cholinergic 1 0
adrenergic 1 0
hypertrophic 1 2
transducer 1 0
kupffer 1 0
monoceros 1 0
sialoadhesin 1 0
apical 1 1
bursa 1 0
saurischia 1 0
ec 1 0
neutrophillic 1 0
stroma 1 0
nucleotidylexotransferase 1 0
crystallin 1 0
platyrrhini 1 0
tears 1 0
fos 1 0
cyanoblast 1 0
diencephalic 1 0
domed 1 1
didelphimorphia 1 0
ctenosquamata 1 0
clara 1 0
lymphoma 1 0
hyaline 1 0
sporangiospore 1 0
myogenic 1 0
starch 1 0
perforin 1 0
equidae 1 0
endodermal 1 0
hominidae 1 0
nephrogenic 1 0
inactive 1 2
tbx21 1 0
ig 1 10
mucilage 1 0
theria 1 0
chordamesodermal 1 0
maturity 1 2
metal 1 0
caudata 1 0
platynereis 1 0
platyhelminthes 1 0
nemertea 1 0
monotremata 1 0
spheroplast 1 0
diverticulum 1 0
bm1 1 0
bm4 1 0
domestica 1 0
bm5 1 0
orthochromatophilic 1 0
polyatomic 1 0
craniocervical 1 0
cetartiodactyla 1 0
iguania 1 0
copepoda 1 0
rubripes 1 0
canis 1 0
costimulator 1 0
perijunctional 1 0
conidiophore 1 0
skeletogenic 1 0
galactosyltransferase 1 0
camelus 1 0
off 1 0
leukemia 1 0
megasporocyte 1 0
actinomycete 1 0
edge 1 1
asexual 1 0
elopocephalai 1 0
primates 1 0
calcitonin 1 0
acoelomorpha 1 0
tunicata 1 0
permanently 1 0
plus 1 1
myrosin 1 0
lepidosauria 1 0
felidae 1 0
p3 1 0
scleral 1 0
seam 1 0
cercopithecoidea 1 0
beta7 1 0
proboscidea 1 0
germinativum 1 0
invertebrate 1 0
arachnida 1 0
ophidiiformes 1 0
hexacorallia 1 0
myometrial 1 0
panarthropoda 1 0
pdgf 1 0
choroidal 1 0
ph 1 0
amacrine 1 0
nkga2 1 0
merkel 1 0
r1 1 0
r2 1 0
r3 1 0
r4 1 0
r5 1 0
r6 1 0
pu 1 0
r7 1 0
r8 1 0
acidophil 1 0
eukaryotic 1 0
curvature 1 5
zygote 1 0
lambda 1 0
serotonin 1 0
cuticle 1 0
pylroric 1 0
branchiostomidae 1 0
glomerulosa 1 0
carolinensis 1 0
viridiplantae 1 0
drosophilina 1 0
boettcher 1 0
drosophilini 1 0
unipolar 1 0
thyrotroph 1 0
endopolyploid 1 1
polychaeta 1 0
placenta 1 0
pleural 1 0
quarternary 1 0
t1 1 0
t2 1 0
t3 1 0
minus 1 2
11a 1 0
monopoietic 1 0
branchiomotor 1 0
insulating 1 0
copper 1 0
cd1d 1 0
metatheria 1 0
sclera 1 0
macropodidae 1 0
angioblastic 1 0
cyclostomata 1 0
ionocyte 1 0
cd19 1 0
muraeninae 1 0
hydroxides 1 0
glutamyl 1 0
inducible 1 0
tg 1 0
porifera 1 0
mononucleate 1 1
phosphodiesterase 1 0
preosteoblast 1 0
beloniformes 1 0
hilus 1 0
formyl 1 0
fusiform 1 1
granulated 1 0
cd43 1 0
deiter's 1 0
horizontal 1 1
biliary 1 0
hypodermal 1 0
migrating 1 0
substrate 1 0
ribonuclease 1 0
uv 1 0
crocodylidae 1 0
thromboblast 1 0
collenchymal 1 0
odontoceti 1 0
meynert 1 0
pharyngotympanic 1 0
adepithelial 1 0
chlamydospore 1 0
cd33 1 0
atelidae 1 0
sphenodontia 1 0
cold 1 2
gag 1 0
multipolar 1 0
ceriantharia 1 0
echinocyte 1 0
zeta 1 0
normal 1 5
types 1 0
airway 1 0
osteocyte 1 0
cd59 1 0
arcade 1 0
apocrine 1 0
pipoidea 1 0
meristemoid 1 0
basidiospore 1 0
papilionoidea 1 0
motile 1 0
potent 1 0
dikaryon 1 0
iridoblast 1 0
respiration 1 0
pupil 1 0
lagomorpha 1 0
sirp 1 0
perissodactyla 1 0
collar 1 0
peloderinae 1 0
invariant 1 4
thrombocyte 1 0
cd86 1 0
axial 1 1
quiescent 1 0
cd83 1 0
branchiostoma 1 0
echidna 1 0
cd80 1 0
juvenile 1 1
trichoblast 1 0
sexual 1 0
scotopic 1 0
sympathetic 1 0
protoplast 1 0
osteoprogenitor 1 0
corneocyte 1 0
feature 1 1
retzius 1 0
promonocyte 1 0
eomesodermin 1 0
catarrhini 1 0
palpata 1 0
atherinomorphae 1 0
malassez 1 0
eremoneura 1 0
xenarthra 1 0
metallophillic 1 0
galectin 1 0
longirostres 1 0
tufted 1 0
amnioserosa 1 0
galliformes 1 0
passage 1 0
tubulidentata 1 0
taeniidae 1 0
dipnotetrapodomorpha 1 0
discoid 1 1
chlorenchyma 1 0
aves 1 0
diencephalon 1 0
squamata 1 0
nonsynovial 1 0
wharton's 1 0
myxinidae 1 0
hypodermis 1 0
tc2 1 0
tc1 1 0
rhabditidae 1 0
drosophilidae 1 0
core 1 0
limbus 1 0
cd117 1 0
leukosialin 1 0
pecora 1 0
cd141 1 0
cholecystokin 1 0
gip 1 0
alarm 1 0
meningothelial 1 0
nose 1 0
cestoda 1 0
drosophiliti 1 0
histoblast 1 0
giraffidae 1 0
scrofa 1 0
cd1 1 0
blastemal 1 0
response 1 12
responsive 1 1
value 0 435
relative 0 160
absolute 0 146
sensitivity 0 87
shaped 0 38
reflex 0 35
concentration 0 27
temperature 0 27
fertility 0 27
composition 0 26
orientation 0 26
acuity 0 24
rate 0 23
angle 0 22
threshold 0 22
color 0 18
activity 0 18
intensity 0 16
variability 0 16
quantity 0 14
pattern 0 13
density 0 12
volume 0 12
odor 0 12
ability 0 12
radiation 0 12
mating 0 11
yellow 0 10
fertile 0 10
saturated 0 10
percentage 0 10
desaturated 0 10
length 0 10
frequency 0 10
toward 0 10
polarity 0 9
age 0 9
mislocalised 0 9
sterile 0 9
water 0 9
thickness 0 9
parts 0 9
duration 0 9
speed 0 9
semi 0 9
energy 0 8
viscosity 0 8
elasticity 0 8
yield 0 8
susceptibility 0 8
neoplastic 0 8
weight 0 8
consistency 0 8
width 0 8
compatability 0 8
rotated 0 8
pressure 0 8
photosensitivity 0 8
permeability 0 8
height 0 8
consumption 0 8
efficiency 0 8
resistance 0 8
force 0 8
drug 0 8
receptivity 0 7
flux 0 7
distance 0 7
disease 0 7
amplitude 0 7
solid 0 6
locomotor 0 6
behavioral 0 6
tone 0 6
splayed 0 6
latency 0 6
elevation 0 6
strength 0 6
alternation 0 6
porosity 0 6
momentum 0 6
strain 0 6
stiffness 0 6
opacity 0 6
position 0 6
orange 0 6
temporal 0 6
impulse 0 6
ratio 0 6
diameter 0 6
phase 0 6
work 0 6
power 0 6
occurence 0 5
area 0 5
acidity 0 5
flow 0 5
pink 0 5
symmetry 0 5
closure 0 5
magenta 0 5
direction 0 5
triangular 0 5
purple 0 5
grey 0 5
cyan 0 5
violet 0 5
incidence 0 5
potential 0 5
litter 0 5
occurrence 0 5
side 0 5
split 0 5
behavioural 0 5
urine 0 5
rhythym 0 5
sound 0 5
sleep 0 4
pilosity 0 4
angular 0 4
saturation 0 4
extra 0 4
righting 0 4
handedness 0 4
mobility 0 4
fecundity 0 4
sterility 0 4
cytoplasmic 0 4
arousal 0 4
adhesivity 0 4
stress 0 4
processual 0 4
laterally 0 4
velocity 0 4
soil 0 4
charge 0 4
intercross 0 4
backcross 0 4
neurobehavioral 0 4
f1 0 4
f2 0 4
deciduous 0 4
tactile 0 4
spatial 0 4
wavelength 0 4
present 0 4
regulation 0 4
texture 0 4
numbers 0 4
coordination 0 4
variant 0 4
learning 0 4
depth 0 4
liquid 0 4
conductivity 0 4
towards 0 4
configuration 0 4
spontaneous 0 3
phosphorylation 0 3
u 0 3
herniated 0 3
branchiness 0 3
physiological 0 3
tendency 0 3
period 0 3
yeast 0 3
functionality 0 3
protruding 0 3
posteriorly 0 3
accumulation 0 3
trisomy 0 3
aplastic 0 3
incompatible 0 3
broken 0 3
coiling 0 3
radiopacity 0 3
solubility 0 3
medially 0 3
pigmentation 0 3
brightness 0 3
pseudohermaphrodite 0 3
far 0 3
pale 0 3
invasive 0 3
wetness 0 3
circumference 0 3
fragility 0 3
fatigability 0 3
flattened 0 3
electric 0 3
extent 0 3
avidity 0 3
mild 0 3
dose 0 3
turgor 0 3
viability 0 3
ventrally 0 3
tonicity 0 3
contact 0 3
articulated 0 3
osmolarity 0 3
delayed 0 3
action 0 3
disposition 0 3
fluorescence 0 3
brood 0 3
perimeter 0 3
heat 0 3
magnitude 0 3
virulence 0 3
insensitive 0 3
moderate 0 3
motility 0 3
cyclicity 0 3
partially 0 3
irradiation 0 3
osmolality 0 3
misaligned 0 3
compatible 0 3
contractility 0 3
magnetism 0 3
distribution 0 3
flexibility 0 3
fewer 0 3
startle 0 3
waxiness 0 3
colored 0 3
dislocated 0 2
sporophytic 0 2
placement 0 2
poorly 0 2
edematous 0 2
pinna 0 2
piloerection 0 2
hyperresponsive 0 2
glucose 0 2
salt 0 2
threshability 0 2
severe 0 2
persistence 0 2
lethal 0 2
discrimination 0 2
anteroventral 0 2
vocalization 0 2
anteriorly 0 2
well 0 2
progressive 0 2
anterodorsal 0 2
gametophyte 0 2
pupillary 0 2
ovate 0 2
linear 0 2
movement 0 2
hyporesponsive 0 2
hybrid 0 2
ictal 0 2
catalytic 0 2
defecation 0 2
genetics 0 2
metabolite 0 2
unnecessary 0 2
erect 0 2
flinch 0 2
absorption 0 2
relaxation 0 2
pubescent 0 2
shattering 0 2
abiotic 0 2
micronutrient 0 2
sloped 0 2
swallowing 0 2
macromolecular 0 2
placing 0 2
urination 0 2
ossified 0 2
tension 0 2
mislocalized 0 2
away 0 2
emitting 0 2
suckling 0 2
hardness 0 2
circling 0 2
damage 0 2
bilateral 0 2
addictive 0 2
nutrient 0 2
rostral 0 2
insecticide 0 2
malignant 0 2
inverted 0 2
flooding 0 2
gait 0 2
paralysed 0 2
electrolyte 0 2
parallel 0 2
lanceolate 0 2
glutinous 0 2
intensivity 0 2
plane 0 2
hypotrophic 0 2
parental 0 2
metabolic 0 2
sessile 0 2
displaced 0 2
arched 0 2
em 0 2
count 0 2
vigorous 0 2
necessity 0 2
deep 0 2
soma 0 2
content 0 2
herbicide 0 2
rhythm 0 2
hue 0 2
macronutrient 0 2
postural 0 2
prepulse 0 2
balance 0 2
posterodorsal 0 2
heterochronic 0 2
lacks 0 2
porous 0 2
vibrissae 0 2
anaerobic 0 2
lordosis 0 2
chronic 0 2
tolerance 0 2
oriented 0 2
arrested 0 2
blinking 0 2
dorsally 0 2
viable 0 2
aerobic 0 2
radially 0 2
regeneration 0 2
magnetic 0 2
caudal 0 2
necessary 0 2
sporophyte 0 2
molar 0 2
adhesive 0 2
flavor 0 2
extends 0 2
vertical 0 2
inhibition 0 2
premature 0 2
drought 0 2
oblique 0 2
hypoplastic 0 2
radioactivity 0 2
intact 0 2
extension 0 2
botany 0 2
proprioreception 0 2
out 0 2
gel 0 2
scatter 0 2
mortem 0 2
healing 0 2
proboscis 0 2
offset 0 2
disomy 0 2
fragile 0 2
repair 0 2
gametophytic 0 2
concealed 0 2
bouts 0 2
obtuse 0 2
temparature 0 2
performance 0 2
episodic 0 1
tricuspidate 0 1
unconcentrated 0 1
ochre 0 1
poor 0 1
absent 0 1
incisiform 0 1
hyperelliptic 0 1
auriculate 0 1
sexually 0 1
neutral 0 1
circular 0 1
orbicular 0 1
perforate 0 1
bronze 0 1
irritable 0 1
exposure 0 1
obovate 0 1
nonpolar 0 1
inefficient 0 1
folded 0 1
insoluble 0 1
areolate 0 1
cancellous 0 1
floury 0 1
recombinant 0 1
unserrated 0 1
platelike 0 1
bulbous 0 1
balanced 0 1
anteromedial 0 1
dorso 0 1
ovariohysterectomized 0 1
trinucleate 0 1
quiet 0 1
aggressive 0 1
curled 0 1
atrophied 0 1
ventrolaterally 0 1
blistered 0 1
tripartite 0 1
blotchy 0 1
odorless 0 1
conspicuousness 0 1
phosphorescence 0 1
truncated 0 1
onset 0 1
accelerated 0 1
scaphoid 0 1
prepupal 0 1
w 0 1
dappled 0 1
tripodal 0 1
trapezoid 0 1
saddle 0 1
good 0 1
undulate 0 1
elongated 0 1
post 0 1
misrouted 0 1
waisted 0 1
anosmia 0 1
looseness 0 1
haplodiploid 0 1
sonic 0 1
constitutively 0 1
involute 0 1
evergreen 0 1
subovoid 0 1
lack 0 1
mucoid 0 1
umbonate 0 1
sparse 0 1
ballooning 0 1
rotional 0 1
activation 0 1
alignment 0 1
radionuclide 0 1
ornamented 0 1
young 0 1
duplicated 0 1
lilac 0 1
bacterial 0 1
knobbled 0 1
hard 0 1
bullet 0 1
radiopaque 0 1
iridescent 0 1
mobile 0 1
autopolyploid 0 1
rhythmic 0 1
versus 0 1
quadrangular 0 1
vermilion 0 1
overlapped 0 1
peramorphic 0 1
refractory 0 1
indifference 0 1
localised 0 1
focus 0 1
peg 0 1
property 0 1
odorous 0 1
albedo 0 1
paleopolyploid 0 1
ligamentous 0 1
amorphous 0 1
mottled 0 1
distributed 0 1
limaciform 0 1
aggregated 0 1
hairy 0 1
castrated 0 1
partial 0 1
matted 0 1
isosceles 0 1
cms 0 1
interdigitated 0 1
malformed 0 1
multipartite 0 1
albino 0 1
directional 0 1
rosy 0 1
colorless 0 1
robust 0 1
flourescence 0 1
filled 0 1
allopolyploidy 0 1
inconsistent 0 1
sharp 0 1
neotenous 0 1
slit 0 1
discolored 0 1
anchor 0 1
arrow 0 1
calcified 0 1
degeneration 0 1
absorbed 0 1
spur 0 1
pin 0 1
clavate 0 1
defective 0 1
spoon 0 1
hydrocephalic 0 1
motley 0 1
cribriform 0 1
mesiolateral 0 1
intense 0 1
all 0 1
new 0 1
insentive 0 1
relaxational 0 1
undistributed 0 1
indiscriminate 0 1
real 0 1
agenesis 0 1
unresponsive 0 1
meltability 0 1
unidirectional 0 1
uninflated 0 1
repetitive 0 1
shattered 0 1
diastatic 0 1
buoyancy 0 1
oblong 0 1
retracted 0 1
abaxially 0 1
antero 0 1
effective 0 1
anterolateral 0 1
warty 0 1
collagenous 0 1
coating 0 1
blunt 0 1
adjacent 0 1
maximal 0 1
kinked 0 1
distended 0 1
refractile 0 1
hermaphrodite 0 1
crescent 0 1
quantitative 0 1
recurved 0 1
cladodromous 0 1
zoology 0 1
dull 0 1
saccharin 0 1
moderately 0 1
monocystic 0 1
hypoelliptic 0 1
ring 0 1
synchronous 0 1
bicornuate 0 1
pulvinate 0 1
osmotic 0 1
polycystic 0 1
refractivity 0 1
cupulate 0 1
generalized 0 1
cuboid 0 1
multifocal 0 1
hexaploid 0 1
state 0 1
ipsilateral 0 1
actinodromous 0 1
oblanceolate 0 1
dilated 0 1
confluent 0 1
necrotic 0 1
opposite 0 1
schizosaccharomyces 0 1
prepubescent 0 1
asymmetrically 0 1
abnormal 0 1
cup 0 1
complexity 0 1
cut 0 1
arachnose 0 1
dispersed 0 1
collapsed 0 1
two 0 1
anaplastic 0 1
structured 0 1
cavities 0 1
dystrophic 0 1
digitate 0 1
fluctuating 0 1
black 0 1
reflective 0 1
discontinuous 0 1
optical 0 1
obclavate 0 1
inedible 0 1
centered 0 1
hyperplastic 0 1
atretic 0 1
incomplete 0 1
decussate 0 1
fatty 0 1
demyelinated 0 1
unbalanced 0 1
recurrent 0 1
remittent 0 1
polarizability 0 1
cuneate 0 1
insufficient 0 1
unornamented 0 1
overlap 0 1
measure 0 1
trumpet 0 1
luminous 0 1
cane 0 1
compatibility 0 1
uncrowded 0 1
full 0 1
luminance 0 1
osseous 0 1
blind 0 1
disrupted 0 1
flaky 0 1
eroding 0 1
telescopic 0 1
saccular 0 1
pentaploid 0 1
mono 0 1
grooved 0 1
monosomy 0 1
minimal 0 1
thermoinsensitive 0 1
unpigmented 0 1
attenuate 0 1
friability 0 1
immubocompetent 0 1
inflorescence 0 1
enlarged 0 1
senescent 0 1
erose 0 1
borderline 0 1
separating 0 1
botryoidal 0 1
unlocalised 0 1
downward 0 1
funnel 0 1
stratification 0 1
upturned 0 1
phenotypic 0 1
shedability 0 1
anxious 0 1
ruffled 0 1
fan 0 1
decumbent 0 1
serration 0 1
hydrophilic 0 1
broad 0 1
greater 0 1
revolute 0 1
plowshare 0 1
fibrinopurulent 0 1
dumbbell 0 1
hollow 0 1
edibility 0 1
rhizoidal 0 1
monoploid 0 1
unlumenized 0 1
oxidized 0 1
abaxial 0 1
scirrhous 0 1
epinastic 0 1
prolate 0 1
tetraploid 0 1
purity 0 1
neonatal 0 1
localized 0 1
unilateral 0 1
ovariectomized 0 1
sinuous 0 1
cleft 0 1
unknown 0 1
stubby 0 1
anteverted 0 1
ivory 0 1
vaporizability 0 1
aneuploid 0 1
acyclic 0 1
barred 0 1
boro 0 1
efficient 0 1
wet 0 1
sided 0 1
consistent 0 1
immobile 0 1
reclinate 0 1
tholiform 0 1
permanent 0 1
organization 0 1
fasciated 0 1
organized 0 1
decondensed 0 1
broadly 0 1
waxy 0 1
paedomorphic 0 1
offspring 0 1
narcolepsy 0 1
cataleptic 0 1
subrectangular 0 1
vestigial 0 1
marked 0 1
dysplastic 0 1
unstratified 0 1
pathological 0 1
alkaline 0 1
dorsolateral 0 1
shriveled 0 1
obstructed 0 1
square 0 1
keel 0 1
quinine 0 1
amphiphilic 0 1
interlocked 0 1
sugar 0 1
diluted 0 1
hispidulous 0 1
stacked 0 1
proximally 0 1
perseverative 0 1
viscid 0 1
corymb 0 1
hispid 0 1
scute 0 1
circinate 0 1
inconspicuous 0 1
unicellular 0 1
photosensitive 0 1
exserted 0 1
viscous 0 1
biscupidate 0 1
crowded 0 1
heterophilic 0 1
diamond 0 1
conical 0 1
immunodeficient 0 1
sculpted 0 1
front 0 1
maroon 0 1
insusceptible 0 1
notched 0 1
monstrous 0 1
equivalent 0 1
translucent 0 1
constricted 0 1
radioactive 0 1
bad 0 1
biconvex 0 1
aversion 0 1
hourglass 0 1
pato 0 1
tapered 0 1
delaminated 0 1
infiltrative 0 1
capacitance 0 1
subacute 0 1
preference 0 1
fleshy 0 1
netted 0 1
pedunculate 0 1
population 0 1
flexible 0 1
transient 0 1
papillomatous 0 1
pointleted 0 1
tomentose 0 1
predisplaced 0 1
convolute 0 1
bi 0 1
arrhythmic 0 1
deaf 0 1
dead 0 1
torsioned 0 1
pinnate 0 1
coiled 0 1
electronegativity 0 1
adaxially 0 1
decurrent 0 1
segmental 0 1
alternate 0 1
defasciculated 0 1
lethargic 0 1
herbaceous 0 1
focally 0 1
inflexible 0 1
spongy 0 1
posteromedial 0 1
tolerant 0 1
obconical 0 1
teardrop 0 1
down 0 1
bracket 0 1
radius 0 1
nitrated 0 1
subtriangular 0 1
lateralized 0 1
fasciculation 0 1
soluble 0 1
abrased 0 1
strap 0 1
subterminal 0 1
punctiform 0 1
profound 0 1
trilobed 0 1
electromagnetic 0 1
impermeable 0 1
concavo 0 1
metaplastic 0 1
hexagonal 0 1
perpendicular 0 1
coalescing 0 1
parity 0 1
back 0 1
posterioralized 0 1
flavourless 0 1
random 0 1
proportionality 0 1
lemon 0 1
rugose 0 1
subdermal 0 1
mosaic 0 1
exposed 0 1
ventralized 0 1
glistening 0 1
sutured 0 1
amphetamine 0 1
deposition 0 1
unfused 0 1
grand 0 1
striate 0 1
ubiquinated 0 1
insomnia 0 1
arous 0 1
keyhole 0 1
fused 0 1
gate 0 1
intolerant 0 1
dorsalized 0 1
hl 0 1
gaseus 0 1
advanced 0 1
retuse 0 1
ultrasonic 0 1
fluorescent 0 1
impaired 0 1
symmetrical 0 1
mosaicism 0 1
prism 0 1
emmision 0 1
electrical 0 1
caudate 0 1
spheroid 0 1
altered 0 1
congested 0 1
detached 0 1
miscibility 0 1
hemorrhagic 0 1
contrast 0 1
biological 0 1
neoplasm 0 1
brittle 0 1
bilobed 0 1
alive 0 1
positional 0 1
anvil 0 1
condensed 0 1
inflated 0 1
pombe 0 1
flavourful 0 1
cicatricial 0 1
inserted 0 1
greasy 0 1
fibrinoid 0 1
anterioralized 0 1
dwarf 0 1
setose 0 1
wilty 0 1
prototrophic 0 1
scalene 0 1
forward 0 1
bent 0 1
prostrate 0 1
multiparous 0 1
uniparental 0 1
slender 0 1
laminar 0 1
overlapping 0 1
cauline 0 1
keratinous 0 1
scrobiculate 0 1
snowman 0 1
primiparous 0 1
foveate 0 1
reflectivity 0 1
blurry 0 1
blade 0 1
inelastic 0 1
sufficiency 0 1
concentrated 0 1
continuous 0 1
sufficient 0 1
patchy 0 1
triploid 0 1
dephosphorylated 0 1
perfoliate 0 1
furrowed 0 1
auxotrophic 0 1
asymmetrical 0 1
lance 0 1
abduction 0 1
level 0 1
wholeness 0 1
dry 0 1
towards1 0 1
proliferative 0 1
undamaged 0 1
volumetric 0 1
attached 0 1
focused 0 1
quadripartite 0 1
adolescent 0 1
anterodistal 0 1
glabrous 0 1
bifurcated 0 1
pedicellate 0 1
lumenized 0 1
unstructured 0 1
transformed 0 1
rhomboid 0 1
spindle 0 1
subcylindrical 0 1
raised 0 1
adenomatous 0 1
subcircular 0 1
emarginate 0 1
hydropic 0 1
equilateral 0 1
oblate 0 1
diagonal 0 1
punctate 0 1
actinomorphic 0 1
invaginated 0 1
dystonicity 0 1
autogenous 0 1
zygomorphic 0 1
firm 0 1
indurated 0 1
bang 0 1
pupal 0 1
apoptotic 0 1
dissolved 0 1
craspedodromous 0 1
recent 0 1
aliform 0 1
peracute 0 1
dysfunctional 0 1
divergent 0 1
old 0 1
frozen 0 1
unmodified 0 1
unbranched 0 1
decayed 0 1
pointed 0 1
atonicity 0 1
unique 0 1
disassembled 0 1
maternal 0 1
prominent 0 1
permeable 0 1
cuspidate 0 1
autofluorescence 0 1
extended 0 1
pieces 0 1
chromatic 0 1
specificity 0 1
spatulate 0 1
imperforate 0 1
star 0 1
acuminate 0 1
renewal 0 1
sunken 0 1
boomerang 0 1
dissociated 0 1
extensive 0 1
tightly 0 1
closed 0 1
uncoordinated 0 1
disoriented 0 1
progenetic 0 1
amylose 0 1
compressed 0 1
coordinated 0 1
ligneous 0 1
posterodistal 0 1
vacuolated 0 1
hydrophobic 0 1
up 0 1
distensible 0 1
extreme 0 1
wrinkled 0 1
phototoxic 0 1
homophilic 0 1
shortened 0 1
degree 0 1
disheveled 0 1
intrasonic 0 1
phosphorylated 0 1
procumbent 0 1
metamphetamine 0 1
abut 0 1
enhanced 0 1
fimbriated 0 1
squircle 0 1
transmural 0 1
nutritional 0 1
carpel 0 1
rough 0 1
marbled 0 1
absolutedistance 0 1
saccharomyces 0 1
antrorse 0 1
ambidextrous 0 1
bitter 0 1
chinsurah 0 1
multifid 0 1
flush 0 1
gas 0 1
missing 0 1
disorganized 0 1
morbidity 0 1
serrated 0 1
watery 0 1
bilaterally 0 1
slight 0 1
metastatic 0 1
separated 0 1
hydrophobicity 0 1
variegated 0 1
relational 0 1
chronological 0 1
mediolateral 0 1
fasciculated 0 1
photoinsensitive 0 1
brochidodromous 0 1
biomaterial 0 1
parallelogram 0 1
whole 0 1
none 0 1
beyond 0 1
deformed 0 1
caseous 0 1
spotted 0 1
anteromedially 0 1
deeply 0 1
aligned 0 1
sharpness 0 1
presence 0 1
hydrophilicity 0 1
surrounding 0 1
posterolateral 0 1
pleomorphic 0 1
distichous 0 1
suppurative 0 1
reduced 0 1
ornamentation 0 1
susceptible 0 1
superelliptic 0 1
polyphasic 0 1
spectrum 0 1
thermosensitive 0 1
gender 0 1
villiform 0 1
uncoiled 0 1
drooping 0 1
flat 0 1
cerevisiae 0 1
rectangular 0 1
cellularity 0 1
aromaticity 0 1
posteroventral 0 1
reticulodromous 0 1
loud 0 1
introverted 0 1
subulate 0 1
ridged 0 1
trophic 0 1
multicuspidate 0 1
abstract 0 1
leaf 0 1
retrorse 0 1
tangled 0 1
spatiotemporal 0 1
damaged 0 1
located 0 1
self 0 1
edible 0 1
cystic 0 1
nulliparous 0 1
bizarre 0 1
undivided 0 1
dentated 0 1
ciliatedness 0 1
sepal 0 1
tight 0 1
temporally 0 1
scalloped 0 1
parallelodromous 0 1
scarred 0 1
conspicuous 0 1
adduction 0 1
hypermorphic 0 1
filamentous 0 1
spade 0 1
postdisplaced 0 1
insertion 0 1
rotational 0 1
elliptic 0 1
concrete 0 1
sporadic 0 1
everted 0 1
spherical 0 1
gigantic 0 1
triradiate 0 1
friable 0 1
numerical 0 1
asynchronous 0 1
whorled 0 1
lathlike 0 1
discriminate 0 1
continual 0 1
scaly 0 1
opaque 0 1
falciform 0 1
limited 0 1
bipartite 0 1
monophasic 0 1
fearful 0 1
passive 0 1
abortive 0 1
alcochol 0 1
assay 0 1
isometrical 0 1
swollen 0 1
variable 0 1
hyponastic 0 1
wild 0 1
dimorphic 0 1
paternal 0 1
