abnormality 1033 0
phalanx 899 0
finger 597 0
toe 545 0
abnormal 416 0
proximal 410 8
distal 397 10
epiphysis 385 0
hypoplasia 317 0
middle 298 2
aplasia 288 0
2nd 256 0
5th 255 0
3rd 250 0
4th 247 0
epiphyses 229 0
phalanges 217 0
absent 199 0
muscle 181 124
shaped 180 0
hand 161 0
increased 150 4
duplication 145 0
decreased 143 4
short 140 7
bones 126 0
sclerosis 126 0
bone 123 33
cell 118 1672
small 113 24
thumb 110 0
congenital 109 0
broad 104 0
upper 103 8
visual 100 4
hallux 100 0
obsolete 99 106
neoplasm 97 0
triangular 97 0
retinal 93 13
skin 93 28
atrophy 93 0
limb 90 42
morphology 89 1
irregular 88 3
ossification 87 0
renal 87 38
joint 87 10
reduced 87 0
metacarpal 83 0
metabolism 83 0
pulmonary 82 7
anterior 81 25
lower 81 6
vertebral 81 2
enlarged 78 0
eeg 77 0
recurrent 76 0
peripheral 73 5
hypoplastic 72 0
generalized 71 0
artery 71 35
progressive 70 0
partial 70 0
central 69 9
radial 68 3
long 68 6
activity 67 0
symphalangism 65 0
cerebral 65 7
defect 65 0
defects 65 0
elevated 64 0
posterior 64 12
humeral 64 0
nasal 63 7
patchy 62 0
cone 62 15
level 62 0
hair 62 24
system 60 44
fiber 59 15
metatarsal 59 0
facial 59 0
femoral 58 1
limbs 58 0
stenosis 58 0
weakness 57 0
ventricular 56 3
involving 56 0
serum 56 0
acuity 56 0
macular 55 1
calcification 55 0
urinary 55 6
contracture 54 0
right 54 7
chronic 54 0
stippling 54 0
absence 54 0
complete 53 0
curved 53 1
impaired 52 0
toes 52 0
impairment 52 0
aortic 52 3
agenesis 52 0
bilateral 51 0
corneal 50 2
focal 50 0
carcinoma 50 0
osteolytic 49 0
1st 49 0
left 48 11
bracket 48 0
loss 48 0
bullet 48 0
prominent 48 0
tissue 48 68
nerve 48 12
synostosis 47 0
ivory 47 0
deficiency 47 0
fragmentation 46 0
multiple 45 1
respiratory 45 21
disease 45 0
logmar 45 0
cervical 45 0
deviation 45 1
tract 45 31
affecting 45 0
seizures 45 0
dysplasia 44 0
degeneration 44 0
large 44 16
bodies 43 0
cortical 43 7
ear 43 3
cataract 43 0
primary 42 16
atresia 42 0
delayed 40 0
cleft 40 0
induced 40 1
anemia 40 0
cerebellar 40 5
dystrophy 39 0
metaphysis 39 0
head 39 7
premature 39 0
infections 39 0
valve 39 4
interphalangeal 39 0
teeth 39 0
b 38 97
low 38 29
narrow 38 0
thyroid 37 6
acute 37 1
type 37 125
metaphyseal 37 0
spinal 37 20
joints 37 0
hearing 37 0
cyst 37 0
acid 37 5
circulating 36 2
cells 36 2
atrioventricular 36 17
canal 36 5
neck 35 4
onset 35 0
hypertrophy 35 0
musculature 35 0
pseudoepiphysis 35 0
vertebrae 35 0
t 34 124
lip 34 0
syndactyly 34 0
fusion 34 1
number 34 1
ulnar 34 0
protein 34 39
motor 34 16
pigmentation 33 0
severe 33 0
hepatic 33 7
unilateral 33 0
physiology 32 0
electroretinogram 32 0
external 32 11
pituitary 32 3
ventricle 32 13
carpal 32 0
concentration 31 0
intestinal 31 12
platelet 31 4
flexion 31 0
epiphyseal 30 0
metaphyses 30 0
factor 30 17
forearm 30 0
2 29 24
incisor 29 0
eye 29 20
tachycardia 29 0
foot 29 0
septal 29 4
alpha 29 88
gland 28 100
lateral 28 27
count 28 0
mitochondrial 28 0
elbow 28 0
slow 27 2
white 27 5
evoked 27 0
superior 27 0
cord 27 23
muscular 27 2
frontal 27 0
hyperpigmentation 27 0
potentials 27 0
cutaneous 27 1
diffuse 27 0
1 26 58
cranial 26 7
arch 26 0
hormone 26 15
thoracic 26 7
tibial 25 0
eyelashes 25 0
muscles 25 0
nail 25 0
nervous 25 14
ectopic 25 0
optic 25 2
helix 25 0
subcutaneous 24 4
polydactyly 24 0
neonatal 24 0
bifid 24 0
test 24 0
fingers 24 0
tongue 24 5
abdominal 24 5
urine 24 0
atrial 24 6
like 24 19
dislocation 24 0
anomaly 24 0
genitalia 24 0
episodic 24 0
homeostasis 24 0
fetal 23 6
due 23 0
adrenal 23 16
malformation 23 0
oct 23 0
acidosis 23 0
wide 23 0
metacarpals 23 0
humerus 23 0
adenoma 23 0
limited 23 0
blood 22 35
hyperplasia 22 0
palate 22 0
edema 22 0
ribs 22 0
coronary 22 4
thin 22 4
fistula 22 0
failure 22 0
accessory 22 2
tubular 22 2
pigment 22 13
vitamin 22 0
growth 22 7
adapted 22 0
linked 22 0
asymmetry 22 0
pattern 22 0
neuropathy 22 0
3 21 16
stature 21 0
matter 21 6
syndrome 21 0
pain 21 1
feet 21 0
maternal 21 0
hemorrhage 21 0
waves 21 0
septum 21 11
double 21 10
oral 21 4
gastrointestinal 21 4
bladder 21 13
ulna 21 0
lumbar 21 0
rib 21 0
shortening 21 0
aneurysm 21 0
cardiac 20 41
venous 20 8
radius 20 0
mandibular 20 0
contractures 20 0
palmar 20 0
single 20 10
aorta 20 5
permanent 20 0
heart 20 9
beta 20 51
hyperkeratosis 20 0
basal 20 19
movement 20 0
pancreatic 20 16
insufficiency 20 0
response 20 1
bowing 19 0
glycosylation 19 0
phosphatase 19 6
arterial 19 5
leukemia 19 1
light 19 3
iris 19 4
first 19 0
tumor 19 3
delay 19 0
telangiectasia 19 0
high 19 19
5 18 15
antihelix 18 0
discharges 18 0
block 18 2
maxillary 18 0
internal 18 4
fibular 18 0
alkaline 18 0
arteries 18 0
skeletal 18 22
prolonged 18 0
scalp 18 2
nose 18 1
accumulation 18 0
nystagmus 18 0
anomalous 18 0
reflex 18 0
corrected 18 0
palmoplantar 18 0
body 18 15
auditory 18 3
pseudoepiphyses 18 0
fifth 17 0
cartilage 17 15
speech 17 0
field 17 0
hemangioma 17 0
male 17 11
necrosis 17 3
behavior 17 0
emg 17 0
ring 17 0
flash 17 0
amyotrophy 17 0
lesions 17 0
carotid 17 5
non 17 19
origin 17 0
connection 17 0
vascular 17 6
dark 17 4
brain 17 12
aciduria 17 0
lacrimal 17 6
dental 17 3
obstruction 17 0
adipose 17 13
sensory 17 22
face 17 2
crus 17 0
lung 17 15
foveal 17 0
4 16 17
unaided 16 0
flattened 16 0
irregularity 16 0
pressure 16 0
fibrosis 16 0
cystic 16 0
female 16 9
segment 16 14
liver 16 7
inner 16 22
gait 16 0
thickening 16 0
midline 16 0
eyelid 16 2
second 16 0
pinhole 16 0
ganglia 16 0
bleeding 16 0
dysfunction 16 0
diaphysis 16 0
kidney 16 87
skull 16 1
sensorineural 16 0
sinus 16 6
tarsal 16 0
best 16 0
from 16 4
red 16 6
eyebrow 16 0
total 16 0
secondary 16 14
horizontal 16 1
size 15 4
coloboma 15 0
function 15 1
esophageal 15 5
chorioretinal 15 0
density 15 0
pathway 15 0
encephalopathy 15 0
alveolar 15 2
mitral 15 2
slender 15 0
brainstem 15 3
palpebral 15 0
hypotonia 15 0
sclerotic 15 0
hip 15 1
abnormalities 15 0
hypopigmentation 15 0
inheritance 15 0
movements 15 0
inferior 15 2
amplitude 15 0
clinodactyly 15 0
paroxysmal 15 0
dysgenesis 15 0
subluxation 15 0
transient 15 0
antibody 15 2
spontaneous 14 0
n 14 3
sinuses 14 0
sparse 14 0
anal 14 7
laryngeal 14 0
csf 14 1
palsy 14 0
glands 14 0
occipital 14 0
creases 14 0
sharp 14 0
shoulder 14 0
auras 14 0
fused 14 0
diverticulum 14 1
pelvis 14 6
crease 14 0
vaginal 14 1
birth 14 0
multifocal 14 0
wave 14 0
cardiomyopathy 14 0
process 14 1
corpus 14 2
positive 14 174
ratio 14 0
age 14 0
spastic 14 0
axonal 14 0
urethral 14 0
biliary 14 1
epileptiform 14 0
tube 14 7
hemolytic 14 0
diabetes 13 0
dysplastic 13 0
mild 13 0
moderate 13 0
expression 13 0
dense 13 6
exostoses 13 0
sensation 13 0
deformity 13 0
changes 13 0
vestibular 13 17
wall 13 2
medial 13 2
pubic 13 0
infancy 13 0
chain 13 17
fossa 13 0
morphological 13 0
punctate 13 0
choroid 13 7
iliac 13 0
supraventricular 13 0
secretion 13 0
all 13 0
tremor 13 0
fibers 13 0
intermittent 13 0
constriction 13 0
flared 13 0
parietal 13 8
epithelium 12 160
after 12 0
c 12 25
i 12 24
tip 12 5
melanoma 12 0
cutis 12 0
ears 12 0
paralysis 12 0
thick 12 4
base 12 0
forehead 12 0
cortex 12 36
hands 12 0
gallbladder 12 1
shape 12 5
widened 12 0
nevus 12 0
terminal 12 8
polyposis 12 0
fractures 12 0
knee 12 2
ataxia 12 0
autonomic 12 2
cysts 12 0
ridge 12 0
parathyroid 12 11
pit 12 1
vessels 12 0
early 12 6
chin 12 0
pointed 12 0
spike 12 0
spine 12 0
ridges 12 0
ocular 12 1
vermis 12 0
complement 12 3
mouth 12 1
callosum 12 0
exercise 12 0
membrane 12 18
testicular 12 0
complex 12 3
metabolic 12 0
lymphoma 12 1
juvenile 12 1
flat 12 0
fundus 11 1
arteriosus 11 0
dissection 11 0
calcium 11 0
thickened 11 0
calcifications 11 0
ovarian 11 7
philtrum 11 0
conduction 11 0
demyelination 11 0
hepatitis 11 0
retina 11 6
metacarpophalangeal 11 0
sweat 11 7
specific 11 2
tortuosity 11 0
thrombosis 11 0
outlet 11 0
language 11 0
vocal 11 0
lytic 11 0
alopecia 11 0
axial 11 1
osteolysis 11 0
persistent 11 0
diaphyses 11 0
wrist 11 0
ophthalmoplegia 11 0
soft 11 1
thickness 11 0
aggregation 11 0
patent 11 0
hernia 11 0
girdle 11 1
neutrophil 11 7
appearance 11 0
poor 11 0
duct 11 54
infantile 11 0
incisors 11 0
arm 11 2
bowel 11 0
spaces 11 0
sarcoglycan 11 0
ectopia 11 0
fissure 11 0
intestine 11 35
intracranial 10 0
lens 10 10
dystonia 10 0
hamartoma 10 0
memory 10 38
third 10 0
immunodeficiency 10 0
squamous 10 13
pancreas 10 8
encephalocele 10 0
breast 10 4
childhood 10 0
open 10 1
atypical 10 1
complexes 10 0
amino 10 1
incomplete 10 0
fat 10 9
supernumerary 10 0
femur 10 4
giant 10 4
ii 10 32
situs 10 0
t2 10 1
region 10 14
ductus 10 0
vermilion 10 0
myotonia 10 0
arms 10 0
fatty 10 0
umbilical 10 12
arteriovenous 10 0
pineal 10 2
iron 10 1
plantar 10 0
gonadal 10 0
hyperostosis 10 0
temporal 10 0
global 10 0
restrictive 10 0
pheochromocytoma 10 0
tibia 10 0
labia 10 0
grade 10 0
dilatation 10 0
penis 10 3
vasculature 10 9
localized 10 0
hypoglycemia 10 0
disorder 10 0
earlobe 10 0
nodular 10 1
deep 10 0
related 10 4
molar 10 0
excretion 9 0
brachydactyly 9 0
hypertrichosis 9 0
capital 9 0
puberty 9 0
tricuspid 9 0
chest 9 0
fingernail 9 0
outer 9 20
osteomyelitis 9 0
extension 9 0
cavity 9 10
talipes 9 0
notch 9 0
pericardium 9 2
volume 9 0
von 9 0
gonadotropin 9 1
thorax 9 0
abnormally 9 0
corticospinal 9 0
clavicles 9 0
papillary 9 7
sided 9 0
dyskinesia 9 0
perimetry 9 0
vein 9 18
compression 9 0
tooth 9 1
vena 9 0
disc 9 2
underdeveloped 9 0
blindness 9 0
bridge 9 0
turcica 9 0
medullary 9 3
positivity 9 0
nails 9 0
without 9 0
sloping 9 0
infection 9 0
developmental 9 1
patellar 9 0
myopathy 9 0
asymmetric 9 0
functional 9 1
insulin 9 1
transverse 9 2
fatigable 9 0
chamber 9 6
colonic 9 1
diaphyseal 9 0
hypopigmented 9 0
lesion 9 0
intolerance 9 0
trunk 9 8
excessive 9 0
episodes 9 0
cava 9 0
spikes 9 0
retardation 9 0
toenail 9 0
sella 9 0
fourth 9 0
deviated 9 0
enamel 9 2
tendon 9 2
o 8 0
scrotum 8 0
skeleton 8 0
capillary 8 15
uvula 8 0
abscess 8 0
ascending 8 16
defective 8 0
postaxial 8 0
goiter 8 0
night 8 0
creatine 8 0
wasting 8 0
widely 8 0
precocious 8 0
thrombocytopenia 8 0
conjunctival 8 1
stiffness 8 0
postnatal 8 0
nuclear 8 6
deterioration 8 0
conductive 8 0
uterus 8 2
autosomal 8 0
deformed 8 0
sperm 8 4
periosteal 8 0
phalangeal 8 2
periventricular 8 0
mucosa 8 29
osteoarthritis 8 0
great 8 1
eruption 8 0
disability 8 0
adrenocortical 8 0
acidemia 8 0
granule 8 9
fold 8 0
placed 8 0
adenocarcinoma 8 0
ciliary 8 5
hemoglobin 8 2
duodenal 8 4
mandible 8 0
platyspondyly 8 0
epithelial 8 171
congenita 8 0
scotoma 8 0
pelvic 8 2
fibula 8 0
veins 8 0
lack 8 0
dominant 8 0
lactic 8 0
late 8 2
dynein 8 0
median 8 0
stippled 8 0
inflammatory 8 3
hypertension 8 0
osteosclerosis 8 0
costochondral 8 0
immune 8 2
hypospadias 8 0
mesenteric 8 1
hairline 8 0
swelling 8 0
descending 8 12
space 8 1
death 8 1
pneumonia 8 0
sacral 8 0
mobility 8 0
difficulty 8 0
genital 8 0
sacrum 8 0
timing 8 0
axillary 8 0
advanced 8 0
scrotal 8 0
pursuit 8 0
receptor 8 88
phosphate 8 0
inclusion 8 0
smooth 8 57
glucose 7 0
premolar 7 0
plasma 7 11
fallot 7 0
cns 7 5
intellectual 7 0
neuron 7 97
autofluorescent 7 0
neurofibromas 7 0
scarring 7 0
inlet 7 0
areas 7 0
tragus 7 0
narrowing 7 0
length 7 0
semicircular 7 2
hyperextensible 7 0
vagina 7 3
paraganglioma 7 0
diameter 7 0
proteinuria 7 0
suture 7 0
nonprogressive 7 0
voice 7 0
fontanelles 7 0
craniofacial 7 0
sleep 7 0
steatosis 7 0
scaphoid 7 0
sternal 7 0
apraxia 7 0
hyperpigmented 7 0
hemianopia 7 0
stimulating 7 8
granules 7 0
nevi 7 0
fontanelle 7 0
foci 7 0
hypothyroidism 7 0
eyelids 7 0
nephrolithiasis 7 0
overgrowth 7 0
pallor 7 0
lipopigment 7 0
content 7 0
rate 7 0
pyramidal 7 4
maturation 7 0
dorsal 7 6
mixed 7 2
node 7 19
distribution 7 0
development 7 0
truncal 7 0
plexus 7 6
marrow 7 16
cellular 7 3
sulfate 7 0
hyperextensibility 7 0
ulcer 7 0
ulceration 7 0
fallopian 7 0
cupped 7 0
mineral 7 0
megaloblastic 7 0
vitreous 7 0
epimetaphyseal 7 0
hypogonadism 7 0
tetralogy 7 0
kyphosis 7 0
thymus 7 14
degrees 7 0
intervertebral 7 1
sarcoma 7 0
arthritis 7 0
vasculitis 7 0
intrahepatic 7 2
ureteral 7 1
fibroma 7 0
closure 7 0
osteoporosis 7 0
susceptibility 7 0
alkalosis 7 0
spaced 7 0
fibrous 7 0
instability 7 0
gastric 7 10
reflexes 7 0
fluid 7 7
globe 7 0
segmentation 7 0
detachment 7 0
pectoralis 7 2
cornea 7 2
plate 7 2
facies 7 0
sign 7 0
lineage 7 9
mellitus 7 0
shortened 7 0
normal 7 1
thalamic 7 0
glomerular 7 18
legs 6 0
transitional 6 22
myoclonic 6 0
d 6 12
x 6 8
lipoma 6 0
hallucinations 6 0
expanded 6 0
spots 6 0
chloride 6 0
paranasal 6 1
somatosensory 6 0
aplastic 6 0
cordis 6 0
leg 6 6
peduncle 6 0
measured 6 0
palm 6 0
tonic 6 0
bright 6 1
formation 6 4
myelin 6 1
maxilla 6 0
malrotation 6 0
inappropriate 6 0
myoclonus 6 0
laterally 6 0
velocity 6 0
spasticity 6 0
bile 6 4
adult 6 2
valgus 6 0
chondromatosis 6 0
autoimmune 6 0
dna 6 1
retinopathy 6 0
cholesterol 6 0
glaucoma 6 0
folate 6 0
sternum 6 0
stem 6 64
dermatitis 6 0
atherosclerosis 6 0
amyloidosis 6 0
trapezoid 6 0
hypointense 6 0
rigidity 6 0
family 6 8
schwannoma 6 0
transposition 6 0
widening 6 0
delivery 6 0
colon 6 17
fever 6 0
hypermobility 6 0
malignant 6 0
obstructive 6 0
myelination 6 0
disproportionate 6 0
hypertrophic 6 1
profound 6 0
antitragus 6 0
index 6 0
amniotic 6 4
nephrotic 6 0
valves 6 0
placenta 6 1
viral 6 0
cochlea 6 7
deformities 6 0
periodic 6 0
choanal 6 0
involuntary 6 0
rupture 6 0
columella 6 0
blue 6 1
prominence 6 0
neuronal 6 3
erythrocyte 6 6
cilia 6 0
walk 6 0
stridor 6 0
fingernails 6 0
preserved 6 0
macrocephaly 6 0
thoracolumbar 6 0
medially 6 0
time 6 1
layer 6 29
hirsutism 6 0
deficient 6 0
wedging 6 0
stomach 6 15
conical 6 0
uterine 6 5
sacroiliac 6 0
arachnoid 6 0
vision 6 0
myocardial 6 4
scoliosis 6 0
superficial 6 1
action 6 0
trapezium 6 0
coarctation 6 0
radially 6 0
orbital 6 0
extremities 6 0
fucosylation 6 0
free 6 1
junction 6 0
coordination 6 0
autoamputation 6 0
coccyx 6 0
subcapsular 6 1
dependent 6 1
placental 6 6
iii 6 5
celiac 6 0
wings 6 0
diarrhea 6 0
round 6 0
hydrocephalus 6 0
coagulation 6 0
dementia 6 0
intracellular 6 0
willebrand 6 0
carnitine 6 0
centers 6 0
posteriorly 6 0
erythroderma 6 0
acetabular 6 0
jaw 6 2
collagen 6 1
hyporeflective 6 0
distance 6 0
glycogen 6 1
calcific 6 0
ptosis 6 0
opacification 6 0
craniosynostosis 6 0
tapered 6 0
column 6 10
digits 6 0
lactate 6 0
extraocular 6 0
signs 6 0
rotated 6 0
sutures 6 0
transferrin 6 2
diaphragmatic 6 0
social 6 0
choroidal 6 1
pleural 6 1
sun 6 0
copper 6 1
lymphatic 6 5
degree 6 0
motile 6 1
apnea 6 0
enlargement 6 0
polyneuropathy 6 0
cd4 6 34
clonic 5 0
feeding 5 0
y 5 1
tubulointerstitial 5 0
torsion 5 0
bacterial 5 0
root 5 8
cancer 5 0
coa 5 0
achilles 5 0
lymphangiectasia 5 0
fibrillation 5 0
kyphoscoliosis 5 0
pits 5 0
hypotrichosis 5 0
dilated 5 0
ankle 5 0
diverticula 5 0
diaphragm 5 0
resistant 5 1
chromosome 5 2
ambiguous 5 0
cortisol 5 0
keratoderma 5 0
lymphocyte 5 11
stage 5 5
demyelinating 5 0
interval 5 0
teratoma 5 0
interrupted 5 0
calvarial 5 1
cirrhosis 5 0
interferon 5 3
midface 5 0
leukoencephalopathy 5 0
metopic 5 0
macules 5 0
pigmentary 5 0
stationary 5 0
polymorphic 5 0
common 5 11
subarachnoid 5 0
mri 5 0
meningocele 5 0
nucleus 5 18
mrs 5 0
inversus 5 0
bifida 5 0
hyperhidrosis 5 0
ovary 5 11
foramen 5 0
fetoprotein 5 0
hyperreflexia 5 0
atrium 5 3
granulomatosis 5 0
hypothalamic 5 1
color 5 0
scapular 5 0
pericardial 5 1
hemifacial 5 0
fdg 5 0
heads 5 0
levels 5 0
dermal 5 15
headache 5 0
reduction 5 0
c3 5 0
nares 5 0
pancreatitis 5 0
rami 5 0
metatcarpal 5 0
electrophysiology 5 0
aspiration 5 0
deposition 5 0
hyperparathyroidism 5 0
vessel 5 36
dysostosis 5 0
ability 5 0
proliferation 5 0
renin 5 0
gaze 5 0
potassium 5 0
storage 5 2
laxity 5 0
tumors 5 0
consciousness 5 0
subcortical 5 0
vertical 5 0
paresis 5 0
extrapyramidal 5 0
respiration 5 1
streaks 5 0
self 5 0
ureter 5 9
photoparoxysmal 5 0
truncus 5 0
yellow 5 0
endplates 5 0
leydig 5 2
erythema 5 0
minora 5 0
longitudinal 5 0
lipid 5 0
dimple 5 0
erythroid 5 11
lipomas 5 0
radioulnar 5 0
linear 5 0
neuromuscular 5 0
toenails 5 0
hyperventilation 5 0
weight 5 0
ends 5 0
macrocytic 5 0
ventricles 5 0
prostate 5 14
uveitis 5 0
periorbital 5 0
cramps 5 0
major 5 3
stapes 5 0
tall 5 0
exposed 5 0
scapulae 5 0
material 5 1
pharyngeal 5 1
hyperbilirubinemia 5 0
sequestration 5 0
tracts 5 0
supraorbital 5 0
cochlear 5 3
gamma 5 23
spina 5 0
gliosis 5 0
iga 5 5
calcaneus 5 0
resistance 5 0
nipples 5 0
macula 5 9
hyperconvex 5 0
span 5 2
dicarboxylic 5 0
pericentral 5 0
metatarsophalangeal 5 0
cupping 5 0
saccades 5 0
transmission 5 0
ankles 5 0
carcinoid 5 0
shoulders 5 0
ectodermal 5 2
reversal 5 0
follicular 5 9
neoplasia 5 0
margin 5 0
pregnancy 5 0
calf 5 0
tracheal 5 3
beaking 5 0
olfactory 5 20
hyperactive 5 0
ankylosis 5 0
spinocerebellar 5 0
limitation 5 0
sialylation 5 0
pterygium 5 0
rest 5 0
wrinkling 5 0
hyperaldosteronism 5 0
shunt 5 0
mater 5 2
camptodactyly 5 0
set 5 0
sex 5 2
difficulties 5 0
lissencephaly 5 0
dermatoglyphic 5 0
nodule 5 0
fatigue 5 0
spleen 5 9
cycle 5 0
angle 5 0
interpedicular 5 0
rhabdomyolysis 5 0
mesothelioma 5 0
epiglottis 5 0
frequency 5 0
oligodactyly 5 0
leukocyte 5 5
polymicrogyria 5 0
undetectable 5 0
effusion 5 0
prenatal 5 0
conjunctiva 4 3
squared 4 0
ileus 4 0
e 4 3
h 4 2
prothrombin 4 0
corticomedullary 4 0
perforation 4 0
hard 4 0
refractory 4 0
pupillary 4 0
hyperphenylalaninemia 4 0
catecholamine 4 0
calvaria 4 0
depigmentation 4 0
pulverulent 4 0
condyle 4 0
epidermal 4 8
prolapse 4 0
thyrotoxicosis 4 0
triphalangeal 4 0
dopamine 4 0
lunate 4 0
thumbs 4 0
rhinitis 4 0
vomiting 4 0
interstitial 4 20
rudimentary 4 0
hepatocellular 4 0
anus 4 0
patella 4 0
neuroectodermal 4 0
atrophic 4 0
dysregulation 4 0
arrhythmia 4 0
branchial 4 0
displaced 4 0
club 4 0
hypotension 4 0
static 4 0
lymphocytopenia 4 0
sodium 4 0
bite 4 0
prolactin 4 1
luteinizing 4 1
embryonal 4 0
acral 4 0
colitis 4 0
lungs 4 0
hemidiaphragm 4 0
abduction 4 0
spurred 4 0
deposits 4 0
differentiation 4 0
paraplegia 4 0
sebaceous 4 4
keratosis 4 0
hypertonia 4 0
10 4 0
neovascularization 4 0
butterfly 4 0
benign 4 0
hydroxyglutaric 4 0
cardiovascular 4 1
glomerulonephritis 4 0
rapid 4 0
bronchiolitis 4 0
striations 4 0
hyporeflexia 4 0
retroesophageal 4 0
genitourinary 4 0
expressive 4 0
spasms 4 0
opacities 4 0
insertion 4 0
cartilaginous 4 1
imperfecta 4 0
microtia 4 0
ventral 4 6
leading 4 1
glenoid 4 0
uric 4 1
creatinine 4 0
pinna 4 0
endocrine 4 9
purine 4 0
lethal 4 0
palatine 4 0
holoprosencephaly 4 0
anosmia 4 0
cholestasis 4 0
ejection 4 0
apex 4 0
protruding 4 0
deficit 4 0
vibration 4 0
new 4 0
repetitive 4 0
media 4 0
hypokalemic 4 0
manifest 4 0
fasciculations 4 0
patches 4 0
allergy 4 0
disturbance 4 0
follicle 4 13
foam 4 3
hyperplastic 4 0
granular 4 2
lymphadenopathy 4 0
pectus 4 0
dehydrogenase 4 0
redundant 4 0
angioma 4 0
exudate 4 0
pyruvate 4 0
dumbbell 4 0
aminoaciduria 4 0
membranous 4 9
bronchitis 4 0
trachea 4 7
nephritis 4 0
candidiasis 4 0
enzyme 4 1
c2 4 0
au 4 0
flammeus 4 0
sudden 4 0
larynx 4 0
dysharmonic 4 0
image 4 0
naris 4 0
personality 4 0
thenar 4 0
class 4 13
rash 4 0
otitis 4 0
photoreceptor 4 20
nephrogenic 4 1
fractured 4 0
portal 4 0
caudate 4 0
cheeks 4 0
myelodysplasia 4 0
oxidase 4 0
glycoprotein 4 25
noncompaction 4 0
undergrowth 4 0
azoospermia 4 0
cation 4 0
autofluorescence 4 0
connective 4 15
glioma 4 0
reticular 4 2
pulp 4 8
location 4 0
depressed 4 0
inability 4 0
sexual 4 1
leukodystrophy 4 0
eminence 4 0
dorsum 4 0
exudative 4 0
intrauterine 4 0
microcephaly 4 0
cerebellum 4 5
committed 4 0
coxa 4 0
combined 4 0
gastritis 4 0
marginal 4 4
anteriorly 4 0
ejaculation 4 0
hypoventilation 4 0
inspiratory 4 0
pet 4 0
folds 4 0
lait 4 0
depletion 4 0
tics 4 0
splayed 4 0
secretory 4 4
hypersensitivity 4 0
jaundice 4 0
syncope 4 0
pilonidal 4 0
erosions 4 0
regurgitation 4 0
intrinsic 4 1
exaggerated 4 0
basement 4 0
osseous 4 0
quadriceps 4 0
equinovarus 4 0
deltoid 4 0
gallstones 4 0
potential 4 0
sounds 4 0
fissures 4 0
killer 4 34
coronal 4 0
mirror 4 0
intraocular 4 0
testosterone 4 1
segmental 4 0
mesomelic 4 0
thrive 4 0
hypometabolism 4 0
mastoid 4 0
periodontitis 4 0
ichthyosiform 4 0
displacement 4 0
caesarian 4 0
rectal 4 0
nerves 4 0
kinetic 4 0
receptive 4 1
fine 4 0
extensor 4 0
osteoporotic 4 0
processes 4 0
ketoacidosis 4 0
nephrocalcinosis 4 0
hemiatrophy 4 0
excess 4 0
presentation 4 0
meningitis 4 0
during 4 0
eustachian 4 0
concealed 4 0
androgen 4 2
lacrimation 4 0
styloid 4 0
accelerated 4 0
hamate 4 0
duplicated 4 0
breech 4 0
gingival 4 3
supranuclear 4 0
spot 4 0
sinusitis 4 0
cage 4 0
alae 4 0
cafe 4 0
metatarsals 4 0
xiphoid 4 0
paraparesis 4 0
polycystic 4 0
males 4 0
thinning 4 0
acth 4 0
cataracts 4 0
systemic 4 1
releasing 4 2
auricular 4 0
symmetric 4 0
dermatoglyphics 4 0
bony 4 0
vestibule 4 0
hyperintense 4 0
stress 4 0
blistering 4 0
spurs 4 0
cavernous 4 0
germ 4 16
punctum 4 0
intimal 4 0
phosphokinase 4 0
lymphoblastic 4 0
sacrosciatic 4 0
tapering 4 0
lymphoid 4 24
digit 4 3
stroma 4 1
regulatory 4 16
nodules 4 0
orthostatic 4 0
stroke 4 0
postural 4 0
output 4 0
areflexia 4 0
morbus 4 0
surface 4 23
microdontia 4 0
amyloid 4 0
split 4 0
arteriolar 4 0
telangiectases 4 0
cross 4 0
onycholysis 4 0
delta 4 13
curvature 4 1
majora 4 0
primitive 4 5
cd25 4 5
motility 4 0
pellucidum 4 0
multimers 4 0
testis 4 3
helices 4 0
airway 4 1
aganglionosis 4 0
natural 4 32
sensitivity 4 0
subungual 4 0
fraction 4 8
testes 4 0
growing 4 0
obesity 4 0
subclavian 4 2
clonus 4 0
reticulate 4 0
responsive 4 1
fovea 4 0
melanocytic 3 0
dislocated 3 0
ascites 3 0
energy 3 0
rounded 3 0
poorly 3 0
rheumatoid 3 0
salt 3 0
multinodular 3 0
l 3 3
v 3 3
pharynx 3 0
nephroblastomatosis 3 0
flaring 3 0
ferritin 3 0
projection 3 2
sphincter 3 5
roof 3 0
lamellar 3 0
mottled 3 0
tarsals 3 0
neuropathic 3 0
granulocytic 3 0
desmin 3 0
2.0 3 0
dysferlin 3 0
cor 3 0
arthrogryposis 3 0
gout 3 0
temporomandibular 3 0
pneumothorax 3 0
direction 3 0
cry 3 0
rows 3 0
cystadenoma 3 0
hemiparesis 3 0
myelinated 3 0
merosin 3 0
dystrophin 3 0
two 3 0
lipodystrophy 3 0
thigh 3 0
somatic 3 6
submucous 3 0
ossified 3 0
pseudohermaphroditism 3 0
lysine 3 0
systolic 3 0
megacolon 3 0
borderline 3 0
nigra 3 2
crumpled 3 0
junctional 3 0
hyperammonemia 3 0
multicentric 3 0
eyebrows 3 0
tomography 3 0
malabsorption 3 0
mildly 3 0
zone 3 8
pyrimidine 3 0
hematuria 3 0
notched 3 0
criss 3 0
meatus 3 2
chromosomal 3 0
profile 3 0
ectropion 3 0
biventricular 3 0
synovial 3 7
multiplex 3 0
pterygia 3 0
polyp 3 0
meningioma 3 0
dim 3 1
signal 3 9
brown 3 3
proportionate 3 0
back 3 0
hemisphere 3 0
endplate 3 0
talus 3 0
olecranon 3 0
polyarticular 3 0
microcytic 3 0
dysphagia 3 0
3.0 3 0
status 3 0
bands 3 0
unilambdoid 3 0
intravascular 3 0
streak 3 0
ovaries 3 0
hypersegmentation 3 0
myelomonocytic 3 0
intensity 3 0
premaxilla 3 0
occiput 3 0
photosensitivity 3 0
height 3 0
lymphocytes 3 0
endometriosis 3 0
aseptic 3 0
25 3 0
agnosia 3 0
partition 3 0
30 3 0
heterotopia 3 0
stiff 3 0
lymphedema 3 0
associated 3 15
hyposmia 3 0
abortion 3 0
raphe 3 2
lymphocytic 3 1
dystroglycan 3 0
immature 3 44
subaortic 3 0
cortices 3 0
venosus 3 0
rickets 3 0
aged 3 0
pneumonitis 3 0
fertility 3 0
coarse 3 0
obliteration 3 0
polyps 3 0
offset 3 0
flexor 3 0
nuchal 3 0
intermamillary 3 0
intracerebral 3 0
tensor 3 0
urticaria 3 0
mesangial 3 4
branch 3 12
dehydration 3 0
hordeolum 3 0
pseudarthrosis 3 0
reproductive 3 8
monochromacy 3 0
infertility 3 0
ekg 3 0
cryptorchidism 3 0
ristocetin 3 0
elongated 3 0
membranes 3 0
females 3 0
shaft 3 0
hemihypertrophy 3 0
enteroviral 3 0
islet 3 1
sagittal 3 0
perception 3 0
diverticulosis 3 0
saturation 3 0
bridging 3 0
amelia 3 0
acoustic 3 4
hypoparathyroidism 3 0
emerin 3 0
progression 3 0
around 3 0
peromelia 3 0
stimulation 3 0
macrodactyly 3 0
chiari 3 0
bulging 3 0
medulla 3 43
glomerulosclerosis 3 0
jejunal 3 1
midnasal 3 0
gray 3 6
eccrine 3 4
xanthine 3 0
atretic 3 0
imaging 3 0
acroosteolysis 3 0
green 3 1
pneumatization 3 0
ischemic 3 0
glabella 3 0
window 3 0
euthyroid 3 0
calpain 3 0
arteriosclerosis 3 0
tinnitus 3 0
erythematous 3 0
ventriculomegaly 3 0
portion 3 0
acromelia 3 0
arrest 3 0
section 3 1
marked 3 0
filtration 3 1
proximally 3 0
cofactor 3 0
leukoplakia 3 0
hemivertebrae 3 0
occlusion 3 0
intermediate 3 10
crystals 3 0
pseudobulbar 3 0
appendage 3 2
magna 3 0
ambiguus 3 0
opacity 3 0
naive 3 10
expenditure 3 0
enuresis 3 0
digital 3 0
necrotizing 3 0
histiocytosis 3 0
nasolabial 3 0
form 3 11
very 3 0
hz 3 0
plates 3 0
lingual 3 0
iv 3 3
strabismus 3 0
bossing 3 0
l5 3 0
cerebrum 3 0
solitary 3 0
macrodontia 3 0
tolerance 3 0
carpometacarpal 3 0
hemangioblastoma 3 0
os 3 0
radiation 3 0
regeneration 3 0
tubulopathy 3 0
mesoaxial 3 0
plagiocephaly 3 0
t3 3 1
t4 3 0
st 3 0
rhizomelic 3 0
varus 3 0
neutropenia 3 0
vi 3 0
cold 3 1
gap 3 0
pupil 3 1
leiomyosarcoma 3 0
breakage 3 0
dimples 3 0
agranulocytosis 3 0
intraretinal 3 0
citrulline 3 0
occlusive 3 0
flicker 3 0
numerous 3 0
mucosal 3 3
pigmented 3 4
epididymis 3 3
lips 3 0
labial 3 0
drusen 3 0
persistence 3 0
facet 3 0
capitate 3 0
phocomelia 3 0
albinism 3 0
young 3 0
reabsorption 3 0
odontoid 3 1
carboxylase 3 0
pes 3 1
ossicles 3 0
melanosomes 3 0
conjunctivitis 3 0
histidine 3 0
preauricular 3 0
abdomen 3 6
epiblepharon 3 0
extra 3 0
elevation 3 0
compensatory 3 0
epidermoid 3 0
scapuloperoneal 3 0
moderately 3 0
nipple 3 0
hyperlipidemia 3 0
synechiae 3 0
myxoma 3 0
incontinence 3 0
adrenocorticotropin 3 0
nephropathy 3 0
nocturnal 3 0
neuroblastoma 3 0
wrists 3 0
peritoneal 3 2
bulbar 3 0
magnesium 3 0
thrombophlebitis 3 0
anteverted 3 0
organs 3 0
cryptotia 3 0
fragility 3 0
humphrey 3 0
square 3 0
paracentral 3 0
infarction 3 0
intralobar 3 0
myeloid 3 19
mean 3 0
globus 3 0
hoarse 3 0
willibrand 3 0
infra 3 0
disseminated 3 1
lymph 3 16
macroorchidism 3 0
migraine 3 0
dyspnea 3 0
arthralgia 3 0
hole 3 0
fetalis 3 0
constipation 3 0
kinase 3 3
atlantoaxial 3 0
hydrops 3 0
phenomenon 3 0
paradoxical 3 0
perifoveal 3 0
return 3 0
lagophthalmos 3 0
patellae 3 0
horn 3 6
position 3 0
rhomboid 3 0
compound 3 12
regulation 3 0
hypothalamus 3 3
b12 3 0
clavicle 3 0
hypophosphatemia 3 0
psychotic 3 0
rugation 3 0
temperature 3 0
diplegia 3 0
titubation 3 0
angulated 3 0
adjusting 3 0
unicoronal 3 0
arteritis 3 0
commissure 3 0
preaxial 3 0
igm 3 5
cerebrospinal 3 2
distress 3 0
nuclei 3 2
saccadic 3 0
ridged 3 0
cylindruria 3 0
lenticonus 3 0
subependymal 3 0
clubbing 3 0
biceps 3 0
dentate 3 4
falx 3 0
tshr 3 0
pseudoarthrosis 3 0
subretinal 3 0
pons 3 0
exstrophy 3 0
cerebri 3 0
bulbous 3 0
amenorrhea 3 0
shallow 3 0
post 3 0
congestive 3 0
activation 3 0
trabecular 3 2
production 3 0
aganglionic 3 0
degenerative 3 0
hyperautofluorescence 3 0
segments 3 0
polar 3 3
synthesis 3 0
calcaneovalgus 3 0
acne 3 0
hypomyelination 3 0
vulvar 3 0
border 3 4
rod 3 2
0.1 3 0
0.2 3 0
0.3 3 0
0.4 3 0
0.5 3 0
0.6 3 0
0.7 3 0
0.8 3 0
0.9 3 0
lumbosacral 3 0
dislocations 3 0
cavities 3 0
substantia 3 3
curly 3 0
microphthalmos 3 0
fragmented 3 0
atp 3 0
choreoathetosis 3 0
acids 3 0
hypo 3 0
hygroma 3 0
resting 3 1
anomalies 3 0
arthropathy 3 0
restricted 3 3
genu 3 0
greater 3 0
totalis 3 0
tetraparesis 3 0
hypoglycemic 3 0
pedicle 3 0
plaque 3 0
crisis 3 0
ketoglutarate 3 0
insensitivity 3 0
depression 3 0
constricted 3 0
whorls 3 0
synaptic 3 0
tracheobronchial 3 4
switched 3 8
urachus 3 0
oval 3 1
dentinogenesis 3 0
extrahepatic 3 0
anxiety 3 0
compulsive 3 0
symmetrical 3 0
gluteal 3 0
bicarbonate 3 0
rhabdomyosarcoma 3 0
inflammation 3 0
clearance 3 0
parotid 3 0
bundle 3 16
myoglobinuria 3 0
malar 3 0
1.0 3 0
1.1 3 0
1.2 3 0
1.3 3 0
mental 3 0
freckling 3 0
vitreoretinopathy 3 0
cavus 3 0
mannosylation 3 0
asthma 3 0
febrile 3 0
imperforate 3 0
gonadoblastoma 3 0
sideroblastic 3 0
hemiplegia 3 0
enhanced 3 0
myopia 3 0
occulta 3 0
triceps 3 0
magnum 3 0
immunoglobulin 3 13
acetylcholine 3 0
papule 3 0
tetraplegia 3 0
papilloma 3 0
aldolase 3 0
following 3 0
range 3 2
spinous 3 0
weak 3 0
erythrocytes 3 0
entrapment 3 0
site 3 0
sita 3 0
pallidus 3 0
hemangiomatosis 3 0
tag 3 0
adduction 3 0
fragile 3 0
everted 3 0
insipidus 3 0
motion 3 0
mitochondria 3 0
cd8 3 56
rachitic 2 0
oligodendroglia 2 0
8 2 5
varix 2 0
dysmotility 2 0
corners 2 0
j 2 2
k 2 3
straight 2 5
s 2 2
paralytic 2 0
violent 2 0
undulate 2 0
melanocytes 2 0
onto 2 0
soles 2 0
erosion 2 0
elasticity 2 0
hypometric 2 0
microtubular 2 0
behavioral 2 0
anticipation 2 0
pili 2 0
dyschromatopsia 2 0
straddling 2 0
flow 2 0
xanthomatosis 2 0
mutation 2 0
cords 2 0
mydriasis 2 0
microscopic 2 0
heterochromia 2 0
purpura 2 0
allergic 2 0
2.5 2 0
inhibitors 2 0
minor 2 0
findings 2 0
angiokeratoma 2 0
villous 2 2
carboxylic 2 0
pitched 2 0
vacuoles 2 0
pericarditis 2 0
maximal 2 0
esophagus 2 7
fullness 2 0
osmotic 2 0
extrasystoles 2 0
pneumothoraces 2 0
responsiveness 2 0
postauricular 2 0
dystrophic 2 0
intraabdominal 2 0
chevron 2 0
lid 2 0
basilar 2 0
separation 2 0
dwarfism 2 0
exocrine 2 8
fixed 2 0
reentry 2 0
full 2 0
painful 2 0
pair 2 0
hypercalcemia 2 0
dysmetria 2 0
polysaccharide 2 0
pyelonephritis 2 0
conjugate 2 0
suppression 2 0
periportal 2 0
drowsiness 2 0
myelomeningocele 2 0
serpiginous 2 0
anhidrosis 2 0
meconium 2 0
hydrocele 2 0
overriding 2 0
frenulum 2 0
kidneys 2 0
sertoli 2 1
hypoproteinemia 2 0
angiomatosis 2 0
humeroradial 2 0
pseudo 2 0
shock 2 0
macrophage 2 50
pulmonic 2 0
tuberosities 2 0
hamartomatous 2 0
chaotic 2 0
term 2 2
congruous 2 0
osteoma 2 0
underdevelopment 2 0
propagation 2 0
vertigo 2 0
angiotensin 2 0
mucopolysaccharide 2 0
utero 2 0
whorl 2 0
ovoid 2 0
aqueduct 2 0
isomerism 2 0
fundal 2 0
hypercorticolism 2 0
fingerprint 2 0
flattening 2 0
sense 2 2
inorganic 2 0
lobe 2 0
3.5 2 0
hypoxemia 2 0
glabellar 2 0
periosteum 2 0
bridged 2 0
tented 2 0
neurologic 2 0
continuous 2 0
spotty 2 0
dry 2 0
hypothenar 2 0
hypermyelination 2 0
ischia 2 0
cheilitis 2 0
rhabdomyoma 2 0
dysmyelination 2 0
dexamethasone 2 0
structure 2 23
circulation 2 0
branching 2 0
synthetase 2 0
tarsometatarsal 2 0
esterase 2 0
band 2 3
11 2 0
sensorimotor 2 0
shuffling 2 0
isoform 2 12
20 2 0
mid 2 0
destruction 2 0
cloacal 2 0
gyrata 2 0
laminin 2 0
40 2 0
talar 2 0
perstans 2 0
echogenic 2 0
50 2 0
wrinkled 2 0
bronchial 2 4
nausea 2 0
discrete 2 0
ileal 2 1
congenitally 2 0
mass 2 2
urgency 2 0
organic 2 5
hyperechogenic 2 0
penile 2 0
humor 2 0
neurofibromatosis 2 0
corticotropin 2 0
neuralgia 2 0
vas 2 0
pendular 2 0
carinatum 2 0
variability 2 0
choline 2 0
glycosaminoglycan 2 0
droplets 2 0
ossifying 2 0
dispersion 2 0
fingertip 2 0
jejunoileal 2 0
exotropia 2 0
prostaglandin 2 0
sequence 2 0
appendicular 2 1
odontoideum 2 0
perianal 2 0
biconcave 2 1
retroperitoneal 2 0
walking 2 0
valvular 2 0
variable 2 0
peroneal 2 0
electrooculogram 2 0
scapula 2 0
adolescence 2 0
dentition 2 0
rhythms 2 0
fungal 2 3
slurred 2 0
erythematosus 2 0
angiosarcoma 2 0
fulminant 2 0
leukocytes 2 0
loops 2 0
canine 2 0
nonketotic 2 0
discrimination 2 0
meningeal 2 1
lobular 2 4
synthase 2 0
dissociation 2 0
thoracoabdominal 2 0
undermodelled 2 0
localization 2 0
pulsatile 2 0
indeterminate 2 0
myopathic 2 0
valga 2 0
splenic 2 10
humoral 2 0
malocclusion 2 0
pseudohypertrophy 2 0
inertia 2 0
tetany 2 0
monodactyly 2 0
hyperphalangy 2 0
transfusion 2 0
disorders 2 0
dyssynergia 2 0
cytokine 2 1
breasts 2 0
cisterna 2 0
lethargy 2 0
angles 2 0
cupid's 2 0
hypokalemia 2 0
urogenital 2 0
dermatological 2 0
transport 2 0
autism 2 0
humeroulnar 2 0
odontogenic 2 2
neurodegeneration 2 0
trapezoidal 2 0
ipsilateral 2 0
aphasia 2 0
depigmented 2 0
angiography 2 0
anaplastic 2 0
genetic 2 0
woolly 2 0
fluctuating 2 0
monocyte 2 25
metencephalon 2 0
aphalangy 2 0
chondrocalcinosis 2 0
features 2 0
malleus 2 0
myelopathy 2 0
flutter 2 0
midclavicular 2 0
denervation 2 0
saccular 2 0
lupus 2 0
anterioposterior 2 0
condensation 2 9
leiomyoma 2 0
flexural 2 0
doubly 2 0
shafts 2 0
hyperkalemic 2 0
junctions 2 0
cholestatic 2 0
web 2 0
cervix 2 5
erectile 2 0
grid 2 0
tapetoretinal 2 0
stomatitis 2 0
inguinal 2 0
inversion 2 0
along 2 1
oligodontia 2 0
a2 2 0
attention 2 0
aldosterone 2 0
ganglioside 2 0
b3 2 0
morphologic 2 0
thromboxane 2 0
c1 2 0
scalloping 2 0
av 2 0
formed 2 0
unerupted 2 0
akinesia 2 0
urate 2 0
condyles 2 0
psychomotor 2 0
scapulohumeral 2 0
scars 2 0
supination 2 0
burst 2 0
lymphocytosis 2 0
neurodevelopmental 2 0
mosaic 2 0
chewing 2 0
decade 2 0
zonular 2 0
intramuscular 2 0
relationships 2 0
zinc 2 0
verrucous 2 0
ductal 2 2
leptin 2 0
ix 2 0
brittle 2 0
purkinje 2 9
cephalocele 2 0
valosin 2 0
oxidation 2 0
off 2 1
atopic 2 0
overlapping 2 0
mutism 2 0
aspartate 2 0
toxic 2 0
asymmetrical 2 0
disk 2 0
furrow 2 0
fasting 2 0
hyperglycemia 2 0
subpulmonary 2 0
rarefaction 2 0
hypermetropia 2 0
communicating 2 0
pr 2 0
spondylolisthesis 2 0
emission 2 0
fascicular 2 0
interdigital 2 0
s1 2 0
qt 2 0
apneic 2 0
caudal 2 0
cognitive 2 0
cavernosum 2 0
miosis 2 0
chromatid 2 0
spatulate 2 0
sclera 2 1
connected 2 0
mastocytosis 2 0
sulfite 2 0
biting 2 0
ophthalmoparesis 2 0
awareness 2 0
uv 2 1
lamin 2 0
mutilation 2 0
vu 2 0
life 2 2
schwalbe 2 0
seborrheic 2 0
microsaccadic 2 0
salivation 2 0
cystoid 2 0
deaminase 2 0
coma 2 0
surrounded 2 0
columns 2 0
osteoclast 2 3
onion 2 0
drug 2 0
healing 2 0
capsular 2 0
esotropia 2 0
epileptic 2 0
anatomical 2 12
branched 2 2
glutaric 2 0
line 2 38
tympanii 2 0
clefting 2 0
tympanic 2 6
foreskin 2 4
hyperinsulinemia 2 0
assay 2 0
thyroiditis 2 0
inversa 2 0
slowed 2 0
excavatum 2 0
trauma 2 0
macronodular 2 0
externally 2 0
wing 2 0
splenomegaly 2 0
independent 2 1
plateaux 2 0
clitoral 2 0
webbed 2 0
flecks 2 0
oculomotor 2 0
encephalitis 2 0
bicuspid 2 0
area 2 0
calcaneal 2 0
underfolded 2 0
regional 2 2
hyperglycinemia 2 0
medium 2 1
pear 2 0
ethmoidal 2 0
infiltrates 2 0
groin 2 0
methylmalonic 2 0
myotonic 2 0
favorable 2 0
dermoid 2 0
glomerulus 2 1
peg 2 0
pyloric 2 2
myxoid 2 0
bulb 2 8
balding 2 0
ilium 2 0
prematurely 2 0
chorionic 2 2
peer 2 0
requiring 2 0
epididymal 2 0
phagocytes 2 0
colorectal 2 0
pathologic 2 0
gestational 2 1
umbilicus 2 0
convex 2 1
stricture 2 0
mobitz 2 0
paraspinal 2 0
hypochromic 2 0
pretibial 2 0
translucency 2 0
cuboid 2 0
interpediculate 2 0
myotilin 2 0
hypersomnia 2 0
nasopharynx 2 2
precursors 2 0
cytochrome 2 0
automated 2 0
miniature 2 0
enchondromatosis 2 0
spongiform 2 0
propionyl 2 0
impingement 2 0
olivopontocerebellar 2 0
adrenocorticotropic 2 1
minimal 2 0
pth 2 0
palatal 2 1
ionizing 2 0
freckles 2 0
lipoprotein 2 0
happy 2 0
tips 2 1
phenotypic 2 0
gustatory 2 0
laxa 2 0
unossified 2 0
glutamine 2 0
salivary 2 4
bradycardia 2 0
elliptocytosis 2 0
torticollis 2 0
vitelliform 2 0
postprandial 2 0
scheuermann 2 0
neuritis 2 0
misalignment 2 0
gross 2 0
malaligned 2 0
pigmentosa 2 0
perioral 2 0
alternative 2 0
crowded 2 0
darwin 2 0
irregularly 2 0
active 2 2
zygomatic 2 0
libido 2 0
metachromasia 2 0
emotional 2 0
nodal 2 2
astigmatism 2 0
choledochus 2 0
hypogammaglobulinemia 2 0
urethra 2 7
normocytic 2 0
concave 2 2
methionine 2 0
relatively 2 0
confusion 2 0
tactile 2 0
globulin 2 0
cilium 2 0
endocarditis 2 0
variants 2 0
spatial 2 0
predominance 2 0
sensitive 2 5
antigen 2 12
heavy 2 0
altered 2 0
glioblastoma 2 0
modalities 2 0
vitreoretinal 2 0
within 2 0
serine 2 0
bidirectional 2 0
hyperactivity 2 0
fistulas 2 0
pleocytosis 2 0
schisis 2 0
hypertensive 2 0
true 2 0
present 2 0
laughter 2 0
metatarsus 2 0
confetti 2 0
transaminases 2 0
atonic 2 0
synovitis 2 0
nasolacrimal 2 2
tendineae 2 0
obsessive 2 0
palpitations 2 0
hyperlordosis 2 0
cheekbone 2 0
pubertal 2 0
collecting 2 16
positron 2 0
impacted 2 0
adhesion 2 5
aniridia 2 0
qrs 2 0
stagnation 2 0
pruritus 2 0
epistaxis 2 0
arnold 2 0
reactive 2 0
laboratory 2 0
uvea 2 0
surfaces 2 0
reflux 2 0
dilation 2 0
lattice 2 0
myeloproliferative 2 0
hyperchloremic 2 0
ige 2 5
igg 2 18
binding 2 4
hemoglobinuria 2 0
draining 2 0
crest 2 18
rectum 2 4
narrowness 2 0
regions 2 0
immunity 2 0
proprioception 2 0
astrocytoma 2 0
megacystis 2 0
caused 2 0
comma 2 0
macule 2 0
myalgia 2 0
dehydrocholesterol 2 0
vitiligo 2 0
liposarcoma 2 0
repair 2 0
frequent 2 0
cellulitis 2 0
quantity 2 0
stromal 2 10
sweating 2 0
paternal 2 0
carpals 2 0
orifice 2 0
percussion 2 0
adenosine 2 0
percentile 2 0
placement 2 0
inclusions 2 0
trabeculae 2 0
jerky 2 0
thromboembolism 2 0
aggressive 2 0
kommerell 2 0
hypothermia 2 0
jerk 2 0
meninges 2 0
adp 2 2
aortopulmonary 2 0
claudication 2 0
contiguous 2 0
preexcitation 2 0
megakaryocyte 2 10
nitrogen 2 1
normochromic 2 0
ulcers 2 0
bitemporal 2 0
madelung 2 0
subarterial 2 0
craving 2 0
hypodensities 2 0
varicose 2 0
ichthyosis 2 0
teleangiectasia 2 0
endosteal 2 1
calcified 2 0
clavicular 2 0
t12 2 0
eczema 2 0
interossei 2 0
frontotemporal 2 0
orotic 2 0
chondritis 2 0
diminished 2 0
heteronymous 2 0
endothelium 2 14
oncocytoma 2 0
hematoma 2 0
quadriplegia 2 0
taste 2 6
lobes 2 0
epicanthus 2 0
containing 2 2
rings 2 0
unconjugated 2 0
visceral 2 16
ducts 2 0
ligament 2 8
menstrual 2 0
periauricular 2 0
bowed 2 0
premaxillary 2 0
glomus 2 0
phytanic 2 0
interosseus 2 0
epinephrine 2 1
dura 2 2
horner 2 0
keratoconjunctivitis 2 0
mood 2 0
affective 2 0
negative 2 86
crying 2 0
concentric 2 0
phenylalanine 2 0
fructose 2 0
compensated 2 0
homonymous 2 0
vestibulo 2 0
severely 2 0
gene 2 0
bronchopulmonary 2 0
hypopituitarism 2 0
penoscrotal 2 0
clivus 2 0
hepatomegaly 2 0
parkinsonism 2 0
pleura 2 6
frontalis 2 0
pectoral 2 0
fontanel 2 0
hypohidrosis 2 0
polyuria 2 0
homovanillic 2 0
perifollicular 2 0
increase 2 0
recessive 2 0
trichilemmoma 2 0
pyelectasis 2 0
subacute 2 0
pyrophosphate 2 0
lichenification 2 0
symptoms 2 0
ketosis 2 0
polysyndactyly 2 0
frontoparietal 2 0
resorption 2 0
bed 2 0
myokymia 2 0
striatum 2 3
subvalvular 2 0
perineal 2 0
breathing 2 0
hyaline 2 1
gonadotropins 2 0
serous 2 9
hemolysis 2 0
corner 2 0
hypocalcemic 2 0
bactericidal 2 0
trabeculation 2 0
ilia 2 0
aura 2 0
chordae 2 0
sutural 2 0
glomerulopathy 2 0
knees 2 0
vertebra 2 4
falls 2 0
meshwork 2 2
medulloblastoma 2 0
keratitis 2 0
forceps 2 0
hypochloremic 2 0
leiomyomatosis 2 0
bow 2 0
highly 2 0
perilobar 2 0
subperiosteal 2 0
retinitis 2 0
diastasis 2 0
injury 2 0
extremity 2 0
alcohol 2 0
graying 2 0
morning 2 0
hodgkin 2 0
tachypnea 2 0
stones 2 0
imprinting 2 0
vertex 2 0
anophthalmia 2 0
pairs 2 0
minicore 2 0
fragments 2 0
constrictive 2 0
deferens 2 0
galactose 2 0
intrapulmonary 2 0
malformations 2 0
thalamus 2 0
germinoma 2 0
voltage 2 0
hips 2 0
migration 2 0
micronodular 2 0
onychogryposis 2 0
curvilinear 2 0
penetrance 2 0
interna 2 0
methyltetrahydrofolate 2 0
situ 2 0
trophic 2 0
sinoatrial 2 4
twelfth 2 0
obliterans 2 0
thumbnail 2 0
tibialis 2 0
stereotypical 2 0
dysarthria 2 0
bipartite 2 0
fasciitis 2 0
endocardial 2 3
encased 1 0
half 1 0
rosary 1 0
disproportion 1 0
imperfect 1 0
stomatocytosis 1 0
eversion 1 0
thymoma 1 0
trochanters 1 0
endolymphatic 1 0
avascularization 1 0
hydratase 1 0
pica 1 0
periungual 1 0
scleroderma 1 0
hypertropy 1 0
spreading 1 0
hyperprostaglandinuria 1 0
avoidance 1 0
myelogram 1 0
glucocerebrosidase 1 0
synovia 1 0
autoimmunity 1 0
6 1 6
7 1 6
9 1 2
osteochondroma 1 0
supravalvular 1 0
ileum 1 4
visceromegaly 1 0
nodding 1 0
galactosidase 1 0
slowing 1 0
saccule 1 4
enteropathy 1 0
myoclonia 1 0
hypolipoproteinemia 1 0
deuteranopia 1 0
asymptomatic 1 0
f 1 1
eating 1 0
latissimus 1 0
hypervolemia 1 0
u 1 0
flavoprotein 1 0
acetylcarnitine 1 0
aprosencephaly 1 0
macroglobulinemia 1 0
surgery 1 0
pseudopapilledema 1 0
extramedullary 1 1
postductal 1 0
crescentic 1 0
nonverbal 1 0
esthesioneuroblastoma 1 0
mnemonic 1 0
hypocellularity 1 0
angiolipomas 1 0
hypercitraturia 1 0
hyperlysinemia 1 0
walker 1 0
microcysts 1 0
immotile 1 0
thrombin 1 0
neural 1 24
hypoammonemia 1 0
dexter 1 0
waldenstrom 1 0
bilobate 1 0
diplopia 1 0
dihydroxyvitamin 1 0
levator 1 0
ventilator 1 0
koehler 1 0
chalazion 1 0
nonepidermolytic 1 0
serratus 1 0
sarcoplasmic 1 0
methylcobalamin 1 0
iridescent 1 0
cheek 1 0
dioxygenase 1 0
aldehyde 1 0
prolinuria 1 0
infarcts 1 0
ependymoblastoma 1 0
sarcosine 1 0
dysuria 1 0
polycoria 1 0
cobalamin 1 0
punding 1 0
aneurysmal 1 0
torsade 1 0
carious 1 0
granulocytes 1 0
angular 1 0
sydney 1 0
brushfield 1 0
cloverleaf 1 0
hyperoxaluria 1 0
varum 1 0
top 1 0
microcornea 1 0
calcaneovarus 1 0
question 1 0
occupational 1 0
drugs 1 0
dilator 1 1
microphakia 1 0
bouchard's 1 0
orotidine 1 0
willis 1 0
dissecans 1 0
sacks 1 0
epididymitis 1 0
hyperalphalipoproteinemia 1 0
hyperesthesia 1 0
cheyne 1 0
cow 1 0
abilities 1 0
cardiogenic 1 0
stellate 1 7
gastroparesis 1 0
paravenous 1 0
lax 1 0
pituicytoma 1 0
less 1 0
fatiguable 1 0
hydroxydicarboxylic 1 0
granulopoesis 1 0
supramitral 1 0
descemet 1 0
urocanic 1 0
attenuation 1 0
exterior 1 0
tryptophanuria 1 0
oromotor 1 0
lymphangiectasis 1 0
amyotrophic 1 0
wound 1 0
crh 1 0
stapedial 1 0
autophagic 1 0
hyperthyroxinemia 1 0
lipomatous 1 0
pirc 1 0
glucocorticoid 1 1
avium 1 0
bruxism 1 0
incisional 1 0
opening 1 0
submandibular 1 0
sideroblasts 1 0
anisocoria 1 0
hyperchloridura 1 0
spoken 1 0
abducted 1 0
dopaminergic 1 1
spokes 1 0
maintenance 1 0
cluster 1 4
leukemias 1 0
symphysis 1 0
bicornuate 1 0
multinucleated 1 2
lentigo 1 0
frenula 1 0
element 1 24
intracardiac 1 0
gastroesophageal 1 0
pace 1 0
lewy 1 0
dissecting 1 0
preeclampsia 1 0
tonsils 1 0
beaded 1 0
245 1 0
dolichocephaly 1 0
cup 1 0
acrobrachycephaly 1 0
acantholysis 1 0
constitutional 1 0
killing 1 0
ringed 1 0
downbeat 1 0
hypotriglyceridemia 1 0
sacralization 1 0
attack 1 0
ungual 1 0
thyroxin 1 0
atrophodermia 1 0
schizencephaly 1 0
hypoactive 1 0
aureus 1 0
microglossia 1 0
galactorrhea 1 0
contour 1 0
claw 1 0
filling 1 0
pads 1 0
trismus 1 0
optical 1 0
margins 1 0
chondrocytes 1 0
hyperbetaalaninemia 1 0
pneumoniae 1 0
streaking 1 0
smell 1 0
neurocytoma 1 0
meningoencephalocele 1 0
uncontrolled 1 0
wolff 1 0
bias 1 0
acquired 1 0
stability 1 0
fluorescein 1 0
glass 1 0
tension 1 0
chess 1 0
athetoid 1 0
precordial 1 0
develop 1 0
neurogenic 1 0
hemophagocytosis 1 0
anarthria 1 0
clumsiness 1 0
luminance 1 0
motivation 1 0
hypofunction 1 0
trichromacy 1 0
conotruncal 1 0
coccygeal 1 0
mononeuropathy 1 0
opposing 1 0
center 1 2
onychomycosis 1 0
discordant 1 0
dysmetric 1 0
albumin 1 0
arrhinencephaly 1 0
polycythemia 1 0
reciprocating 1 0
incus 1 0
meningococcal 1 0
three 1 0
vermillion 1 0
diabetic 1 0
hyperchromic 1 0
steroid 1 1
cyanosis 1 0
tracheoesophageal 1 0
intrapartum 1 0
laryngomalacia 1 0
achromatopsia 1 0
atransferrinemia 1 0
acetylglucosamine 1 0
symptomatic 1 0
multicystic 1 0
dysfibrinogenemia 1 0
ventilation 1 0
glycosphingolipid 1 0
solar 1 0
chylous 1 0
lop 1 0
dome 1 0
anti 1 0
onychauxis 1 0
pretesticular 1 0
bifocal 1 0
candida 1 0
doll 1 0
megalencephaly 1 0
downturned 1 0
abasia 1 0
adermatoglyphia 1 0
agoraphobia 1 0
triquetral 1 0
macrofollicular 1 0
hanging 1 0
projectile 1 0
phosphoethanolaminuria 1 0
melanonychia 1 0
cytology 1 0
asternia 1 0
papp 1 0
narcolepsy 1 0
renovascular 1 0
antinuclear 1 0
lester's 1 0
goitre 1 0
osteochondrosis 1 0
dermatan 1 0
retinoschisis 1 0
absences 1 0
drinking 1 0
philtral 1 0
puncta 1 0
intra 1 1
leukocyturia 1 0
divalent 1 0
osmiophilic 1 0
tubercle 1 0
trichodysplasia 1 0
overjet 1 0
prpp 1 0
keratoglobus 1 0
stokes 1 0
concentrating 1 0
progesterone 1 1
part 1 21
eclabion 1 0
stereotypic 1 0
notches 1 0
slitlike 1 0
hyperuricemia 1 0
propionicacidemia 1 0
photosensitive 1 0
psychic 1 0
xiii 1 0
hyperopic 1 0
ultrasound 1 0
hypoproteinemic 1 0
piebaldism 1 0
build 1 0
oblongata 1 1
interaction 1 0
antenatal 1 0
rituals 1 0
superoxide 1 0
porokeratosis 1 0
widow's 1 0
catecholamines 1 0
coherence 1 0
dysmenorrhea 1 0
blepharitis 1 0
n95 1 0
disorganization 1 0
rightward 1 0
calcaneonavicular 1 0
impulsive 1 0
alloimmune 1 0
nonceruloplasmin 1 0
articular 1 3
mesiodens 1 0
peritonitis 1 0
milk 1 1
antihelical 1 0
adulthood 1 0
easy 1 0
terminals 1 0
hydroxyacyl 1 0
relative 1 0
areata 1 0
alobar 1 0
dysgammaglobulinemia 1 0
ceruminal 1 0
antithrombin 1 0
protozoan 1 0
atelectasis 1 0
foveoschisis 1 0
pustulosis 1 0
splanchnic 1 0
cytomegaly 1 0
sleepiness 1 0
amnesia 1 0
retrograde 1 0
dacrystic 1 0
inflexible 1 0
rimmed 1 0
hypocalcification 1 0
opposable 1 0
subconjunctival 1 0
freckle 1 0
fibromatosis 1 0
cysteine 1 2
hidrotic 1 0
burkholderia 1 0
acceleration 1 1
unicuspid 1 0
osteopoikilosis 1 0
spondyloepiphyseal 1 0
bird 1 0
thiamine 1 0
valgum 1 0
disintegration 1 0
angioplasty 1 0
dyslexia 1 0
chromosomes 1 0
hypocalciuria 1 0
canaliculi 1 0
phonophobia 1 0
agonist 1 0
aromatic 1 2
urticarial 1 0
enthesitis 1 0
dermatographic 1 0
pawn 1 0
lipogranulomatosis 1 0
bicoronal 1 0
bronchogenic 1 0
hypouricemia 1 0
perimembranous 1 0
septate 1 0
myxedema 1 0
lentiglobus 1 0
continuation 1 0
glycolysis 1 0
trichiasis 1 0
uni 1 0
synkinesia 1 0
achromatic 1 0
osteoid 1 1
urothione 1 0
guttata 1 0
hyperirritability 1 0
equinus 1 0
bilambdoid 1 0
pollakisuria 1 0
chylolymphatic 1 0
spermatozoa 1 0
venules 1 0
jamais 1 0
fear 1 0
frayed 1 0
takotsubo 1 0
epidermolytic 1 0
cystine 1 0
plethora 1 0
sacrococcygeal 1 0
anion 1 0
periostosis 1 0
hemorrhagic 1 0
mitten 1 0
decorticate 1 0
amputation 1 0
semantic 1 0
ablepharon 1 0
xanthinuria 1 0
verrucae 1 0
tibiae 1 0
dot 1 0
vesicle 1 3
overhanging 1 0
cicatricial 1 0
ureterovesical 1 0
map 1 0
tryptophan 1 0
ectopy 1 0
partum 1 0
methylglutaric 1 0
cigarette 1 0
nutans 1 0
melanin 1 1
forward 1 0
recti 1 0
cubitus 1 0
use 1 0
recognition 1 0
epicanthal 1 0
nostrils 1 0
promyelocytic 1 0
gerbode 1 0
arrangement 1 0
spicule 1 0
trigeminal 1 0
oxygen 1 2
rectoperineal 1 0
chaddock 1 0
picking 1 0
stahl 1 0
cepacia 1 0
null 1 2
adhesions 1 0
background 1 0
sialopeptides 1 0
glutathione 1 0
hashimoto 1 0
echolalia 1 0
hematopoiesis 1 0
dihydroxycholecalciferol 1 0
blaschko 1 0
palms 1 0
hypertelorism 1 0
spindle 1 0
tufts 1 0
blurred 1 0
mania 1 0
ethmoid 1 0
oropharyngeal 1 0
rapidly 1 0
asphyxia 1 0
dialeptic 1 0
hypotrophy 1 0
digenic 1 0
parkinson 1 0
beaked 1 0
dysmyelinating 1 0
xanthelasma 1 0
activated 1 11
ventouse 1 0
recombination 1 2
sized 1 0
paraglioma 1 0
97th 1 0
polyotia 1 0
palmitoyltransferase 1 0
micropenis 1 0
patch 1 5
retrognathia 1 0
toxemia 1 0
dysgerminoma 1 0
midperipheral 1 0
molybdenum 1 0
dysfunctional 1 0
erythroblastopenia 1 0
minimally 1 0
platelets 1 0
cardiorespiratory 1 0
exostosis 1 0
components 1 0
24 1 0
microblepharia 1 0
oculogyric 1 0
cuts 1 0
overtubulated 1 0
cusp 1 0
liposaccharide 1 0
hypertonic 1 0
sunken 1 0
glycoside 1 0
gordon 1 0
corneolenticular 1 0
stensen 1 0
eclampsia 1 0
intercrural 1 0
wool 1 0
46 1 0
berry 1 0
commissural 1 1
numbers 1 0
rhegmatogenous 1 0
expressing 1 0
aberrant 1 0
enhancement 1 0
neurons 1 0
dente 1 0
wrinkles 1 0
glial 1 15
loop 1 13
antineutrophil 1 0
myocarditis 1 0
photophobia 1 0
hematochezia 1 0
comodogenic 1 0
scar 1 0
adnexa 1 1
tyrosine 1 8
anticardiolipin 1 0
hypergalactosemia 1 0
neuroma 1 0
galactosylation 1 0
marbled 1 0
mast 1 8
hypervalinemia 1 0
isomerase 1 0
asplenia 1 0
experiential 1 0
tenosynovitis 1 0
sleepy 1 0
clusters 1 0
hypotelorism 1 0
orthopnea 1 0
mask 1 0
circumungual 1 0
vesicoureteral 1 0
pedicles 1 0
metastatic 1 0
epilepticus 1 0
epiretinal 1 0
palatinus 1 0
cholangitis 1 0
carnosinuria 1 0
keratan 1 0
hyperprolinemia 1 0
libman 1 0
axoneme 1 0
hamartomata 1 0
microlithiasis 1 0
mark 1 0
neuroendocrine 1 4
callus 1 0
metamorphopsia 1 0
lenticular 1 0
suspensory 1 0
axes 1 0
whole 1 0
hypoplastia 1 0
schmorl's 1 0
quadriparesis 1 0
tracheobronchomalacia 1 0
microfollicular 1 0
nonmotile 1 0
corticotropic 1 0
hypodysplasia 1 0
acholic 1 0
speckled 1 0
vascularity 1 0
talon 1 0
ethylmalonic 1 0
word 1 0
dimers 1 0
axenfeld 1 0
oligohydramnios 1 0
crohn's 1 0
hyperproteinemia 1 0
lisch 1 0
impotence 1 0
cramp 1 0
preputium 1 0
conjugated 1 0
multifactorial 1 0
outflow 1 0
transradiancy 1 0
imbalance 1 0
nigricans 1 0
keratoses 1 0
axis 1 1
anisometropia 1 0
granuloma 1 0
reticulated 1 0
pachygyria 1 0
irritability 1 0
cascade 1 0
paget's 1 0
paranoia 1 0
marcus 1 0
bethlem 1 0
mineralization 1 0
hyperkinetic 1 0
sporadic 1 0
nuchae 1 0
fanconi 1 0
hirano 1 0
leukotriene 1 0
senile 1 0
frontomalar 1 0
cyanotic 1 0
urea 1 0
subepithelial 1 1
hyperpituitarism 1 0
overactivity 1 0
hypermagnesemia 1 0
arteriopathy 1 0
interleukin 1 11
integument 1 1
ornithinuria 1 0
operculum 1 0
hyperthreoninemia 1 0
maculae 1 0
projections 1 0
ovale 1 0
markedly 1 0
thimble 1 0
invagination 1 0
interictal 1 0
pierre 1 0
gyral 1 0
refraction 1 0
maxillozygomatic 1 0
camptocormia 1 0
vii 1 0
sudomotor 1 0
ragged 1 0
vincristine 1 0
malposition 1 0
overfolded 1 0
bronze 1 0
heinz 1 0
forelock 1 0
sickled 1 0
metabolically 1 0
protracted 1 0
spleens 1 0
infiltrations 1 0
folded 1 0
monocarboxylic 1 0
adenomas 1 0
notching 1 0
overbite 1 0
phimosis 1 0
matrix 1 6
lability 1 0
emphysema 1 0
hypersarcosinemia 1 0
desquamation 1 0
epibulbar 1 0
stump 1 0
lymphocele 1 0
centrally 1 0
noncommunicating 1 0
macrocytosis 1 0
nasogastric 1 0
duodenum 1 5
eustachii 1 0
hyperglycinuria 1 0
dehydrogenation 1 0
brachycephaly 1 0
hypnic 1 0
molluscoid 1 0
corticosterone 1 0
sweet 1 0
oligomenorrhea 1 0
chorioretinopathy 1 0
screening 1 0
morbilliform 1 0
jerking 1 0
wormian 1 0
lobation 1 0
repetition 1 0
teratogenic 1 0
arginine 1 0
prostatitis 1 0
aminolevulinic 1 0
herpetiform 1 0
leucine 1 0
anotia 1 0
monovalent 1 0
areola 1 0
synotia 1 0
hypermetric 1 0
tests 1 0
loose 1 1
keratodermia 1 0
anejaculation 1 0
anorexia 1 0
gelastic 1 0
hemisacrum 1 0
tortuous 1 0
lactose 1 0
porencephaly 1 0
sinopulmonary 1 0
finely 1 0
paucity 1 0
acetylglucosaminyltransferase 1 0
internum 1 0
lines 1 0
dermopathy 1 0
abetalipoproteinemia 1 0
intramyocellular 1 0
radiolucency 1 0
special 1 0
suppresible 1 0
buphthalmos 1 0
vasovagal 1 0
release 1 0
amegakaryocytic 1 0
hyperautofluorescent 1 0
halitosis 1 0
hypoxanthine 1 0
glycine 1 0
irido 1 0
spinalarachnoid 1 0
p2y12 1 0
panuveitis 1 0
splitting 1 0
pustule 1 0
hyperorality 1 0
malleolus 1 0
writer's 1 0
malnutrition 1 0
panniculitis 1 0
seventh 1 0
graves 1 0
crossed 1 0
nbt 1 0
tone 1 0
gonadotropic 1 0
infarctions 1 0
angioid 1 0
hypobetalipoproteinemia 1 0
neurofibrosarcoma 1 0
prosopagnosia 1 0
versive 1 0
snowflake 1 0
premyoclonus 1 0
basalioma 1 0
cyclopia 1 0
macrovesicular 1 0
epigastric 1 0
patterning 1 0
hematological 1 0
estriol 1 0
slit 1 0
microalbuminuria 1 0
hyoplasia 1 0
iridis 1 0
psychosis 1 0
hypokinesia 1 0
mongolian 1 0
clumps 1 0
leishmaniasis 1 0
warfarin 1 0
proline 1 0
intervals 1 0
pseudotumors 1 0
anodontia 1 0
uremic 1 0
hypermelanotic 1 0
articulation 1 1
diastema 1 0
nonarteritic 1 0
dyserythropoietic 1 0
running 1 0
regenerative 1 0
reversible 1 0
ureterocele 1 0
anaphylactic 1 0
hydroxybutyric 1 0
hyponasal 1 0
kienboeck 1 0
stepped 1 0
utricle 1 4
hippocampus 1 4
rates 1 0
onychodystrophy 1 0
racemose 1 0
paresthesia 1 0
hypersplenism 1 0
threonine 1 0
gynecomastia 1 0
appetite 1 0
fibulae 1 0
hiatus 1 0
macularis 1 0
amaurosis 1 0
herpesvirus 1 0
scleritis 1 0
coenzyme 1 0
polyphagia 1 0
tragal 1 0
erlenmeyer 1 0
jitter 1 0
triradius 1 0
bilirubin 1 0
deposit 1 0
flask 1 1
recurvatum 1 0
hypodontia 1 0
omphalocele 1 0
occult 1 0
dandy 1 0
stillbirth 1 0
subsarcolemmal 1 0
interpeduncularis 1 0
aspirin 1 0
looping 1 0
gram 1 0
black 1 0
hemeralopia 1 0
hepatoblastoma 1 0
unexplained 1 0
microaneurysm 1 0
igg2 1 0
confrontational 1 0
brachytelomesophalangy 1 0
suck 1 0
lafora 1 0
cranialis 1 0
sweats 1 0
papular 1 0
administration 1 0
erupting 1 0
flank 1 0
heterotopias 1 0
tracheobronchmegaly 1 0
anasarca 1 0
decrease 1 0
leads 1 0
krebs 1 0
pleuropulmonary 1 0
orbits 1 0
hyperhistidinemia 1 0
overfriendliness 1 0
hyperapobetalipoproteinemia 1 0
porphobilinogen 1 0
blind 1 0
gingivitis 1 0
wringing 1 0
nearly 1 0
neuroepithelioma 1 0
enterocolitis 1 0
suprascapular 1 0
eczematoid 1 0
severity 1 0
decarboxylase 1 0
overmodelled 1 0
ischemia 1 0
massively 1 0
asterixis 1 0
desaturation 1 0
spondylolysis 1 0
flaccidity 1 0
melatonin 1 0
granulomatous 1 0
velopharyngeal 1 0
play 1 0
peters 1 0
trimethylaminuria 1 0
perivascular 1 1
p50 1 0
posturing 1 0
serration 1 0
electron 1 0
deformation 1 0
cytokines 1 0
acephalic 1 0
hyperkalemia 1 0
binocular 1 0
oligogenic 1 0
monocular 1 0
hypogonadotrophic 1 0
mycobacterial 1 0
subglottic 1 0
megakaryocytopenia 1 0
hemiballismus 1 0
dystocia 1 0
colic 1 0
mandibulofacial 1 0
hump 1 0
midshaft 1 0
acromelic 1 0
pyridoxine 1 0
poliosis 1 0
prelingual 1 0
nodosa 1 0
calvarium 1 0
concavity 1 1
stereopsis 1 0
motheaten 1 0
vanillylmandelic 1 0
perirenal 1 3
chemosis 1 0
enlargment 1 0
organization 1 0
hallucinatory 1 0
organizing 1 0
cyclic 1 2
fatigability 1 0
secundum 1 0
myositis 1 0
eruptive 1 0
eleventh 1 0
schizophrenia 1 0
eruptiva 1 0
hypercholesterolemia 1 0
lacticaciduria 1 0
blotching 1 0
metachromatic 1 0
inverted 1 0
accesory 1 0
mounding 1 0
hyperbetalipoproteinemia 1 0
habitus 1 0
marker 1 0
osteopathia 1 0
unfavorable 1 0
obtundation 1 0
hemoperitoneum 1 0
electrolyte 1 0
swings 1 0
oppositional 1 0
structural 1 1
hyperchylomicronemia 1 0
microglia 1 0
cavitation 1 0
selective 1 0
sialophorin 1 0
stimulus 1 0
dysraphism 1 0
schistocytosis 1 0
a1 1 0
hypocortisolemia 1 0
epilepsia 1 0
didelphys 1 0
lymphatics 1 0
pyuria 1 0
epithelioid 1 1
b1 1 0
losing 1 0
rand 1 0
aversion 1 0
b2 1 0
marmorata 1 0
b5 1 0
b6 1 0
b8 1 0
trigonocephaly 1 0
aphakia 1 0
nocturna 1 0
regitine 1 0
midbrain 1 1
grod 1 0
c4 1 0
c5 1 0
c6 1 0
c8 1 0
c9 1 0
hemihypotrophy 1 0
tenesmus 1 0
frank 1 0
exudation 1 0
fibres 1 0
humeri 1 0
fissus 1 0
achalasia 1 0
d3 1 0
oxidative 1 0
blurring 1 0
alzheimer 1 0
gowers 1 0
hypermenorrhea 1 0
tombstone 1 0
hypoaldosteronism 1 0
staphylococci 1 0
rounding 1 0
alternate 1 0
cervicomedullary 1 0
e2 1 0
food 1 1
clenching 1 0
cholesteatoma 1 0
monocytopenia 1 0
kernicterus 1 0
chickenpox 1 0
petechiae 1 0
maldevelopment 1 0
de 1 0
calcinosis 1 0
stairs 1 0
retrusion 1 0
dr 1 0
familial 1 0
iodide 1 0
acthr 1 0
clitoromegaly 1 0
poikiloderma 1 0
indocyanine 1 0
g2 1 0
mediastinal 1 0
chondrodysplasia 1 0
restlessness 1 0
proteoglycan 1 5
cephalohematoma 1 0
aglossia 1 0
fibril 1 0
ingrown 1 0
bullous 1 0
piece 1 0
galactosuria 1 0
lipoatrophy 1 0
sequestrum 1 0
pursuits 1 0
bronchiectasis 1 0
supracardiac 1 0
intraaxonal 1 0
microprolactinoma 1 0
rhythm 1 0
accumulations 1 0
binasal 1 0
dupuytren 1 0
tympani 1 0
nonocclusive 1 0
pseudohypoaldosteronism 1 0
contractions 1 0
enchondroma 1 0
synophrys 1 0
ib 1 2
easily 1 0
ig 1 1
orchitis 1 0
burkitt 1 0
abscesses 1 0
rectovaginal 1 0
ft3 1 0
hitchhiker 1 0
maturity 1 1
methemoglobinemia 1 0
heterozygosity 1 0
writhing 1 0
delusions 1 0
contrast 1 0
leukaemia 1 0
fascia 1 0
whitish 1 0
fsh 1 0
affinity 1 9
hyperaminoaciduria 1 0
hypergammaglobulinemia 1 0
perinephritis 1 0
positional 1 0
l1 1 0
l2 1 0
l3 1 0
ventriculo 1 0
banging 1 0
dependence 1 0
flushing 1 0
leukocytosis 1 0
neuroblastic 1 0
overfolding 1 0
paraphimosis 1 0
hyperornithinemia 1 0
somnolence 1 0
atheromatosis 1 0
hyperuricosuria 1 0
termporal 1 0
disposition 1 0
rectocele 1 0
pylori 1 0
lh 1 0
chondral 1 0
tachycardias 1 0
dysphonia 1 0
cuboidal 1 4
edge 1 1
kallikrein 1 0
locked 1 0
nonpolyposis 1 0
mm 1 0
coalescence 1 0
mycobacterium 1 0
calcitonin 1 1
coat 1 2
agyrophilic 1 0
orthokeratosis 1 0
hyperlipoproteinemia 1 0
anhedonia 1 0
anorectal 1 0
alacrima 1 0
superioris 1 0
distention 1 0
wilms 1 0
heat 1 0
acidotic 1 0
lymphangiomyomatosis 1 0
blepharophimosis 1 0
septa 1 0
erysipelas 1 0
forebrain 1 6
septo 1 0
hypokinetic 1 0
superiorly 1 0
brachyturricephaly 1 0
nasofrontal 1 0
moyamoya 1 0
friction 1 0
granulocyte 1 5
contralateral 1 0
avascular 1 0
ph 1 1
merkel 1 1
rocker 1 0
determination 1 0
eunuchoid 1 0
serotonin 1 1
extremely 1 0
acanthocytosis 1 0
parotitis 1 0
s2 1 0
pseudohypoparathyroidism 1 0
s5 1 0
grouped 1 0
old 1 0
frustration 1 0
downslanted 1 0
limbic 1 0
device 1 0
undermodeled 1 0
pyogenic 1 0
rs 1 0
pharyngitis 1 0
belly 1 0
floaters 1 0
hematocrit 1 0
vulva 1 0
ataxic 1 0
albipunctatus 1 0
giardia 1 0
tomacula 1 0
iodine 1 0
embryotoxon 1 0
one 1 0
sublingual 1 0
molarization 1 0
dissociated 1 0
hypocupremia 1 0
naevus 1 0
menometrorrhagia 1 0
vasoconstriction 1 0
acanthosis 1 0
partially 1 0
waddling 1 0
hemiclonic 1 0
furunculosis 1 0
fusiform 1 1
spondyloepimetaphyseal 1 0
subluxations 1 0
foramina 1 0
abolished 1 0
hyperlactemia 1 0
azygous 1 0
usual 1 0
adactyly 1 0
retarded 1 0
rhizomelia 1 0
abulia 1 0
fibromas 1 0
shagreen 1 0
hemihypsarrhythmia 1 0
imprint 1 0
coli 1 0
thromboplastin 1 0
learning 1 0
pure 1 0
osteopetrosis 1 0
macrophages 1 0
retrobulbar 1 0
monocytosis 1 0
nephrosclerosis 1 0
examination 1 0
gas 1 0
tonsillitis 1 0
xanthomas 1 0
partialis 1 0
polymorphous 1 0
arcade 1 1
uraciluria 1 0
xi 1 0
pilomatrixoma 1 0
hypophosphaturia 1 0
xy 1 0
ankyloblepharon 1 0
acetabuli 1 0
therapeutic 1 0
postterior 1 0
myelogenous 1 0
vegetative 1 3
deeply 1 0
amyolid 1 0
presence 1 0
ischium 1 0
ota 1 0
remyelination 1 0
phase 1 0
hypercoagulability 1 0
desquamative 1 0
slanting 1 0
canalicular 1 0
leukonychia 1 0
insight 1 0
menorrhagia 1 0
ectasia 1 0
intrathoracic 1 0
pleuritis 1 0
acrocyanosis 1 0
proptosis 1 0
eicosanoid 1 0
circumcision 1 0
keratocytosis 1 0
lipedema 1 0
capacity 1 0
malignancies 1 0
course 1 0
atresias 1 0
heme 1 0
transformation 1 0
triatriatrum 1 0
sicca 1 0
ubiquitin 1 0
streaky 1 0
progeroid 1 0
histrionic 1 0
nocturia 1 0
tufted 1 1
mutase 1 0
anesthetic 1 0
expiratory 1 0
antiphospholipid 1 0
perisylvian 1 0
xii 1 0
hyperinsulinemic 1 0
climbing 1 0
hanger 1 0
uplifted 1 0
brisk 1 0
branches 1 0
startle 1 0
core 1 1
periostitis 1 0
jejunum 1 4
ground 1 0
isovaleryl 1 0
hypercalciuria 1 0
intussusception 1 0
crosslinking 1 0
ceruloplasmin 1 0
anatomic 1 0
elfin 1 0
scale 1 0
robin 1 0
intramembranous 1 0
fibroelastosis 1 0
isoelectric 1 0
intraventricular 1 0
bacteriuria 1 0
scaly 1 0
obtuse 1 0
agraphesthesia 1 0
cognition 1 0
syngnathia 1 0
anonychia 1 0
halberd 1 0
neurofibroma 1 0
asynergia 1 0
follow 1 0
vestibulocochlear 1 0
craniopharyngioma 1 0
vanishing 1 0
maculopathy 1 0
atheroeruptive 1 0
trichilemmomata 1 0
gm2 1 0
heterochromatin 1 1
sirenomelia 1 0
urethrovaginal 1 0
oculi 1 0
nyctalopia 1 0
extraneuronal 1 0
sister 1 0
upslanted 1 0
pedis 1 0
fatiguability 1 0
anorgasmia 1 0
neutral 1 0
mulberry 1 0
vitreitis 1 0
megacalicosis 1 0
honeycomb 1 0
exposure 1 0
pineoblastoma 1 0
pancreatoblastoma 1 0
budd 1 0
aminoisobutyric 1 0
nonattachment 1 0
wind 1 0
osteomalacia 1 0
enchondral 1 0
fibrinogen 1 0
thymic 1 10
angiofibromas 1 0
hexosaminidase 1 0
edematous 1 0
polyclonal 1 0
unsteady 1 0
menarche 1 0
currents 1 0
ornithine 1 0
insidious 1 0
myeloma 1 0
dural 1 0
tractional 1 0
helicobacter 1 0
sudanophilic 1 0
ulcerative 1 0
trifascicular 1 0
microphallus 1 0
nongranulomatous 1 0
sharpey 1 0
choanae 1 0
angiomyolipoma 1 0
hemobilia 1 0
palpebrae 1 0
hypoglycorrhachia 1 0
lymphadenitis 1 0
tethered 1 0
dysesthesia 1 0
pad 1 0
toddler 1 0
endopolyploidy 1 0
retinoblastoma 1 0
megakaryocytic 1 0
torti 1 0
pylorus 1 1
pyocele 1 0
scimitar 1 0
bull's 1 0
torus 1 0
proteinosis 1 0
telangiectasiae 1 0
anteroposterior 1 0
akinetic 1 0
oligospermia 1 0
thiosulfate 1 0
cystathioninemia 1 0
peripapillary 1 0
cataplexy 1 0
agammaglobulinemia 1 0
symblepharon 1 0
fatal 1 0
pcc 1 0
producing 1 0
nephroblastoma 1 0
dihydropyrimidine 1 0
hypocholesterolemia 1 0
peak 1 0
rhythmic 1 0
neurological 1 0
bronchi 1 0
nadph 1 0
hypermagnesiuria 1 0
pdh 1 0
aphthous 1 0
ewing's 1 0
hypertyrosinemia 1 0
extraadrenal 1 0
channel 1 0
focus 1 0
entire 1 0
ultra 1 0
hemidiaphragms 1 0
precipitated 1 0
incoordination 1 0
rhizo 1 0
ligamentous 1 0
oxoprolinase 1 0
slowly 1 1
upbeat 1 0
tracheomegaly 1 0
assisted 1 0
neuroplasm 1 0
aculeiform 1 0
empyema 1 0
prevalence 1 0
clitoris 1 0
parakeratosis 1 0
afebril 1 0
estradiol 1 1
esophagitis 1 0
endometrium 1 3
diplomyelia 1 0
reticulocytes 1 1
obturatorium 1 0
varicella 1 0
pubarche 1 0
peptic 1 1
discolored 1 0
chorea 1 0
popliteal 1 0
odontoma 1 0
prostatic 1 8
nephronophthisis 1 0
brachiocephalic 1 2
dysautonomia 1 0
heparan 1 0
pia 1 0
penetrating 1 0
wake 1 0
pip 1 0
xerostomia 1 0
myofibrillar 1 0
pulmonale 1 0
glucagonoma 1 0
kininogen 1 0
ovotestis 1 0
swan 1 0
tertiary 1 2
taurine 1 0
affected 1 0
clinical 1 0
unresponsive 1 0
limbed 1 0
hyposegmentation 1 0
fevers 1 0
sepsis 1 0
anteversion 1 0
phacodonesis 1 0
units 1 0
drooling 1 0
anterolateral 1 0
myxomatous 1 0
gemination 1 0
ketonuria 1 0
kinin 1 0
automatic 1 0
kinked 1 0
isosexual 1 0
hyponatremia 1 0
hyperalaninemia 1 0
extending 1 0
norepinephrine 1 1
tetrazolium 1 0
spasmus 1 0
conus 1 0
schlatter 1 0
iiia 1 0
fracture 1 0
duane 1 0
retraction 1 0
lesser 1 0
hyperemesis 1 0
supraauricular 1 0
portions 1 0
mucopolysacchariduria 1 0
absorption 1 0
almond 1 0
collectionism 1 0
protoporphyrin 1 0
circle 1 0
oxidoreductase 1 0
arachnodactyly 1 0
quelprud 1 0
macroprolactinoma 1 0
vaginismus 1 0
scanning 1 0
morphea 1 0
malsegmentation 1 0
dyscalculia 1 0
escape 1 0
retention 1 0
anisopoikilocytosis 1 0
gradient 1 0
sandal 1 0
subluxated 1 0
simplification 1 0
embolism 1 0
epispadias 1 0
drumstick 1 0
rectilinear 1 0
standing 1 0
hyperkeratoses 1 0
retractile 1 0
defiant 1 0
discontinuous 1 0
bilineage 1 0
fibromuscular 1 0
predominantly 1 0
polysplenia 1 0
pubis 1 0
shovel 1 0
cloaca 1 0
intoxication 1 0
heparin 1 0
lamina 1 6
continua 1 0
expressivity 1 0
glyoxalase 1 0
phosphoribosylpyrophosphate 1 0
catalase 1 0
vibratory 1 0
pre 1 16
calcifying 1 0
chromsome 1 0
intraalveolar 1 0
warm 1 0
acidophilic 1 1
hypointensity 1 0
serpentine 1 0
retrocerebellar 1 0
injurious 1 0
reticulocytosis 1 0
hyaloid 1 0
capsule 1 7
effort 1 0
spermatogenesis 1 0
hurthle 1 0
telecanthus 1 0
trident 1 0
eventration 1 0
rotation 1 0
sulfatase 1 0
forgetfulness 1 0
methylmalonyl 1 0
alternating 1 0
curves 1 0
aorto 1 0
typical 1 0
sialylated 1 0
forming 1 0
hypernatremia 1 0
melanosome 1 0
hypernatremic 1 0
papilledema 1 0
dyspareunia 1 0
chorangioma 1 0
babinski 1 0
sciatica 1 0
hyperthyroidism 1 0
fluctuations 1 0
freckled 1 0
mucocutaneous 1 0
zollinger 1 0
overmodification 1 0
glycosuria 1 0
glycolipid 1 0
presenile 1 0
hypomagnesiuria 1 0
phytohemagglutinin 1 0
glycopeptiduria 1 0
subcortex 1 0
otosclerosis 1 0
extraction 1 0
bruising 1 0
mentation 1 0
chilblain 1 0
hypolipidemia 1 0
nfkb1 1 0
mediastinum 1 0
osteopenia 1 0
bronchodysplasia 1 0
dextrocardia 1 0
adductus 1 0
hypoalbuminemia 1 0
seesaw 1 0
ferric 1 0
klebsiella 1 0
frontolimbic 1 0
centromeric 1 0
hyperglutaminemia 1 0
occultum 1 0
lysosomes 1 0
orofacial 1 0
barrel 1 0
dorsoventral 1 0
murmur 1 0
hyposerinemia 1 0
vesicovaginal 1 0
ganglioneuroblastoma 1 0
nonspherocytic 1 0
facility 1 0
episcleritis 1 0
organification 1 0
cardiomegaly 1 0
adductor 1 0
thoracocervical 1 0
fundi 1 0
neurotoxicity 1 0
cerebellopontine 1 0
stools 1 0
eosinophil 1 11
bean 1 0
hydroxycholecalciferol 1 0
hypovolemia 1 0
group 1 4
aneurysms 1 0
tree 1 6
hypergonadotropic 1 0
ebstein's 1 0
reciprocity 1 0
glaucomatous 1 0
anisocytosis 1 0
paramedian 1 0
homocystinuria 1 0
kayser 1 0
fibre 1 0
thrusting 1 0
distortion 1 0
restenosis 1 0
granulovacuolar 1 0
convergence 1 0
rocking 1 0
hyperleucinemia 1 0
hyperacusis 1 0
electrolytes 1 0
point 1 0
hydromyelia 1 0
hla 1 1
alternans 1 0
lysosomal 1 0
hypermethioninemia 1 0
clear 1 2
hemangiomas 1 0
hydroxylase 1 0
urachal 1 0
syringomyelia 1 0
fibroblast 1 45
costal 1 0
suprasellar 1 0
gluten 1 0
mesencephalon 1 0
nonbullous 1 0
hypercapnia 1 0
karyotype 1 0
hyponatriuria 1 0
oxalate 1 0
prime 1 0
excision 1 0
biparietal 1 0
fleshy 1 0
crepitus 1 0
tags 1 0
synechia 1 0
opsoclonus 1 0
gastrostomy 1 0
phonic 1 0
barts 1 0
angulation 1 0
diastomatomyelia 1 0
presacral 1 0
nucleobase 1 0
naviculare 1 0
osteoblastoma 1 0
involvement 1 0
blocking 1 0
tail 1 0
lentis 1 0
transition 1 0
series 1 0
spasm 1 0
adenomatoid 1 0
mesomelia 1 0
portosystemic 1 0
aging 1 0
arches 1 0
hydroxyprolinuria 1 0
thrombocytes 1 0
cryptospridium 1 0
arched 1 0
unsaturated 1 0
leukopenia 1 0
5mm 1 0
trait 1 0
phosphotransferase 1 0
striae 1 0
pathways 1 0
distally 1 0
trilobed 1 0
glucocortocoid 1 0
impulsivity 1 0
carrying 1 0
thighs 1 0
dermatochalasis 1 0
lutheran 1 0
additional 1 0
macrotia 1 0
ankyloglossia 1 0
hemosiderinuria 1 0
extrinsic 1 1
pinealoma 1 0
oroticaciduria 1 0
protrusio 1 0
xanthoma 1 0
contraction 1 0
potter 1 0
sole 1 0
bimanual 1 0
screwdriver 1 0
semilobar 1 0
entropion 1 0
insomnia 1 0
nodes 1 0
regression 1 0
femurs 1 0
antecubital 1 0
amyoplasia 1 0
marcescens 1 0
triplication 1 0
basophils 1 0
dentin 1 0
neisserial 1 0
soon 1 0
hva 1 0
hook 1 0
pansynostosis 1 0
tritanomaly 1 0
hydroxyphenylpyruvic 1 0
maligna 1 0
bulbi 1 0
colpocephaly 1 0
quadrupedal 1 0
sclerocornea 1 0
bell 1 0
hammertoe 1 0
skinfold 1 0
plasmacytosis 1 0
nephroptosis 1 0
impression 1 0
cortically 1 0
arrays 1 0
virilization 1 0
acting 1 1
keratopathy 1 0
externum 1 0
shield 1 0
adducted 1 0
dilatated 1 0
amsler 1 0
abruption 1 0
grimacing 1 0
spondylosis 1 0
leiomyomas 1 0
earlobes 1 0
illness 1 0
peritoneum 1 6
nonopposable 1 0
socially 1 0
mastoiditis 1 0
hypertriglyceridemia 1 0
marks 1 0
agents 1 0
septic 1 0
micrognathia 1 0
porphyrinuria 1 0
diffusum 1 0
radii 1 0
caseating 1 0
heterogeneous 1 1
cough 1 0
radio 1 0
orbicularis 1 0
hematomas 1 0
romberg 1 0
oromandibular 1 0
tubercles 1 0
iritis 1 0
neutrophils 1 0
distichiasis 1 0
sickling 1 0
medulloepithelioma 1 0
gyration 1 0
spherocytosis 1 0
problems 1 0
perifascicular 1 0
groove 1 0
poikilocytosis 1 0
meso 1 2
cervicitis 1 0
apoptosis 1 1
estermann 1 0
anaphylactoid 1 0
crystalluria 1 0
interhemispheric 1 0
pleiocytosis 1 0
adenomatous 1 0
rotary 1 0
anisospondyly 1 0
cementum 1 1
pulling 1 0
descemet's 1 0
hypermyelinated 1 0
hypomineralization 1 0
disturbances 1 0
neurosensory 1 0
shawl 1 0
cryptophthalmos 1 0
villus 1 6
postpubertal 1 0
aryepiglottic 1 0
firm 1 0
allodynia 1 0
convulsive 1 0
tibiofibular 1 0
irides 1 0
hyperkeratotic 1 0
pointes 1 0
based 1 1
globozoospermia 1 0
tiger 1 0
intention 1 0
symptom 1 0
hypophosphatemic 1 0
vomer 1 0
wafer 1 0
insulinoma 1 0
chorioretinitis 1 0
except 1 0
venipuncture 1 0
infectious 1 0
steatorrhea 1 0
iridoretinal 1 0
hyperphosphaturia 1 0
pinnae 1 0
argininuria 1 0
chondroitin 1 0
choroideremia 1 0
leber 1 0
hyperparakeratosis 1 0
disaccharide 1 0
chondroblastoma 1 0
sprengel 1 0
diplegic 1 0
irregularities 1 0
steppage 1 0
blisters 1 0
thyrotropic 1 0
midcervical 1 0
raindrop 1 0
acromesomelia 1 0
hemimegalencephaly 1 0
vulvovaginal 1 0
cessation 1 0
athetosis 1 0
microthorax 1 0
fumarate 1 0
supernormal 1 0
duplex 1 0
vacuolated 1 0
azotemia 1 0
qtc 1 0
imbalanced 1 0
dacrocystitis 1 0
dermatomyositis 1 0
ectrodactyly 1 0
anemic 1 0
fossae 1 0
polyhydramnios 1 0
bursts 1 0
perlecan 1 0
planus 1 0
vital 1 0
rough 1 0
swept 1 0
hypomature 1 0
calyx 1 0
heberden's 1 0
trochanter 1 0
gingiva 1 2
hymen 1 0
periapical 1 0
bulimia 1 0
illusory 1 0
characteristics 1 0
bartholin 1 0
amblyopia 1 0
polymenorrhea 1 0
vermiculata 1 0
dibasicaminoaciduria 1 0
platybasia 1 0
epidural 1 0
granulocytopenia 1 0
blepharospasm 1 0
venoocclusive 1 0
cholelithiasis 1 0
lambdoidal 1 0
uncombable 1 0
centrocecal 1 0
fair 1 0
pruritic 1 0
hypochloriduria 1 0
transillumination 1 0
grammar 1 0
endometrial 1 2
cholestenol 1 0
gunn 1 0
gums 1 0
temples 1 0
aqueductal 1 0
focusing 1 0
natal 1 0
hyperchloremia 1 0
iib 1 3
steep 1 0
myelitis 1 0
isolated 1 0
lamellation 1 0
hyperpnea 1 0
methylglutaconic 1 0
tubers 1 0
tardive 1 0
polyostotic 1 0
chondrosarcoma 1 0
macroglossia 1 0
tracheomalacia 1 0
rootless 1 0
incremental 1 0
ependymoma 1 0
ischiopubic 1 0
crusting 1 0
poking 1 0
runs 1 0
glossitis 1 0
hypersarcosinuria 1 0
winging 1 0
crystalline 1 0
steatocystoma 1 0
hypoperfusion 1 0
epiphysiolysis 1 0
rittler 1 0
hydroxyphenylpyruvate 1 0
sarcoglyan 1 0
hydrometrocolpos 1 0
segregation 1 0
fingerpad 1 0
dagger 1 0
bottom 1 0
herniation 1 0
ilial 1 0
hypopolasia 1 0
covered 1 0
bence 1 0
cholecystitis 1 0
replacement 1 0
rectus 1 0
hypomimic 1 0
axonemal 1 0
polyspikes 1 0
glomerulomegaly 1 0
hemopericardium 1 0
paper 1 0
varicocele 1 0
pursed 1 0
microangiopathic 1 0
pyoderma 1 0
echocardiogram 1 0
deuteranomoly 1 0
germinal 1 3
staphylococcal 1 0
acrokeratosis 1 0
ion 1 1
angiodysplasia 1 0
setting 1 0
lagopthalmos 1 0
thermal 1 0
inactivating 1 0
sulfur 1 0
acetaldehyde 1 0
nephron 1 15
arcuate 1 8
micromelia 1 0
internally 1 0
disharmonious 1 0
choriocapillaris 1 0
ray 1 2
blastoma 1 0
ketotic 1 0
plasmacytoma 1 0
inactivation 1 0
rosenthal 1 0
jerks 1 0
mediosternal 1 0
irritative 1 0
spondylometaphyseal 1 0
olivary 1 0
exfoliative 1 0
manual 1 0
hypocitraturia 1 0
laterality 1 0
multicore 1 0
multidrug 1 0
rolling 1 0
multiforme 1 0
noninfectious 1 0
cerebrosidase 1 0
citrate 1 0
periarticular 1 1
dorsi 1 0
diphosphoglycerate 1 0
sling 1 0
invasion 1 0
talocalcaneal 1 0
cistern 1 0
histiocytoma 1 0
routines 1 0
collateral 1 0
macroscopic 1 0
nasopharyngeal 1 1
preductal 1 0
restless 1 0
longus 1 0
chemodectoma 1 0
hepatosplenomegaly 1 0
fava 1 0
anencephaly 1 0
spikule 1 0
hypomelanotic 1 0
sternocleidomastoid 1 0
helper 1 9
hypsarrhythmia 1 0
awakening 1 0
chylothorax 1 0
rem 1 0
abducens 1 0
renotubular 1 0
hemoptysis 1 0
blepharochalasis 1 0
constructive 1 0
shelf 1 0
lamblia 1 0
parachute 1 0
shell 1 0
calcitriol 1 0
photoexposed 1 0
exchange 1 0
antegonial 1 0
chemodectomas 1 0
molecular 1 11
gastroschisis 1 0
plexiform 1 2
adrenarche 1 0
haemophilus 1 0
concha 1 0
parathormone 1 0
triatriatum 1 0
palmomental 1 0
varices 1 0
immunoreactive 1 0
osteosarcoma 1 0
smaller 1 0
tendency 1 0
laryngotracheomalacia 1 0
bradyopsia 1 0
hardy 1 0
polyspike 1 0
years 1 0
carbohydrate 1 1
variation 1 0
polydipsia 1 0
hypoketotic 1 0
incomprehensible 1 0
chordoma 1 0
pilosebaceous 1 0
follicularis 1 0
astrocytosis 1 0
fishnet 1 0
oddi 1 0
distributed 1 0
mesoblastic 1 0
isothenuria 1 0
diastolic 1 0
psoriasis 1 0
hairs 1 0
mesentery 1 1
silver 1 0
astrocytes 1 0
hyperpepsinogenemia 1 0
taurodontia 1 0
myocardium 1 1
malformed 1 0
dysgraphia 1 0
anoperineal 1 0
astrocytic 1 0
bubble 1 0
milia 1 0
oligosacchariduria 1 0
activating 1 2
struvite 1 0
universalis 1 0
urethrocele 1 0
streptococcus 1 0
univentricular 1 0
uhl's 1 0
scissor 1 0
modifier 1 0
neryous 1 0
vulval 1 0
mode 1 0
distensae 1 0
hypoglycinemia 1 0
t11 1 0
crhr 1 0
antimitochondrial 1 0
ala 1 0
snout 1 0
desmoid 1 0
hyperthermia 1 0
histidinuria 1 0
dysarthic 1 0
visuospatial 1 0
biosynthetic 1 0
mesocardia 1 0
pseudoaneurysm 1 0
touch 1 1
ribbonlike 1 0
fingertips 1 0
hyposthenuria 1 0
unit 1 2
varicosities 1 0
microvesicular 1 0
prognathia 1 0
acetabulae 1 0
pretragal 1 0
chemokine 1 15
hypoperistalsis 1 0
amp 1 0
angiofibroma 1 0
simplex 1 0
transudative 1 0
panhypopituitarism 1 0
flaccid 1 0
row 1 0
fibrosarcoma 1 0
annulus 1 3
unicameral 1 0
perifolliculitis 1 0
phonologic 1 0
glandular 1 24
asthmaticus 1 0
prune 1 0
cystathioninuria 1 0
arcus 1 0
reversed 1 0
profuse 1 0
midgut 1 1
predisposition 1 0
photomyoclonic 1 0
histology 1 1
endocardium 1 1
monostotic 1 0
microcolon 1 0
retrocollis 1 0
polytopic 1 0
primum 1 0
hematemesis 1 0
nonarteriosclerotic 1 0
mound 1 0
odon 1 0
odor 1 0
cryoglobulinemia 1 0
endothelial 1 66
dysphasia 1 0
malic 1 0
diaphoresis 1 0
shear 1 0
lentigines 1 0
hyperkinesis 1 0
hypnopompic 1 0
lipemia 1 0
esterification 1 0
swallowing 1 0
neurofibrillary 1 0
occasional 1 0
bradykinesia 1 0
repeated 1 0
opticokinetic 1 0
perseveration 1 0
nitroblue 1 0
kaposi's 1 0
unbalanced 1 0
monocytic 1 0
barrett 1 0
hypnagogic 1 0
worse 1 0
agitation 1 0
chondrocostal 1 0
nodosum 1 0
thelarche 1 0
xq28 1 0
luxation 1 0
crowding 1 0
neuroepithelial 1 1
lentiginous 1 0
cystitis 1 0
shoe 1 0
nemaline 1 0
splenoportal 1 0
equinovalgus 1 0
faciosynostosis 1 0
dystopic 1 0
vagal 1 0
sclerodactyly 1 0
blunting 1 0
extrapulmonary 1 0
panhypogammaglobulinemia 1 0
whistling 1 0
osteovalgus 1 0
ammonia 1 0
upturned 1 0
prefrontal 1 0
cerulean 1 0
nummular 1 0
generation 1 0
crises 1 0
viii 1 0
acetabulum 1 0
tympanicum 1 0
uninodular 1 0
buttocks 1 0
sonography 1 0
cherry 1 0
damage 1 0
trichorrhexis 1 0
amyelia 1 0
jugular 1 0
valsalva 1 0
hamstring 1 0
choriocarcinoma 1 0
nonossified 1 0
volvulus 1 0
infestation 1 0
fibrocystic 1 0
gonosomal 1 0
nasi 1 0
lysosome 1 1
hyperisoleucinemia 1 0
mature 1 33
simple 1 5
pineocytoma 1 0
hypofibrinogenemia 1 0
menopause 1 0
staphylococcus 1 0
lineages 1 0
bronchomalacia 1 0
cystinuria 1 0
tubule 1 42
hyper 1 0
plaques 1 0
endomysial 1 0
phthisis 1 0
leukocoria 1 0
arden 1 0
transfer 1 1
diurna 1 0
hypoargininemia 1 0
hermaphroditism 1 0
sarcomatoid 1 0
turricephaly 1 0
microaneurysms 1 0
pontocerebellar 1 0
interactions 1 0
anergy 1 0
fleischer 1 0
sac 1 5
protanopia 1 0
upsweep 1 0
dorsiflexor 1 0
opportunistic 1 0
gravidarum 1 0
visually 1 0
adherence 1 0
lymphoproliferative 1 0
sandwich 1 0
ellison 1 0
hyperlysinuria 1 0
rieger 1 0
frequencies 1 0
subdural 1 0
triplomyelia 1 0
leonine 1 0
angina 1 0
juxtaglomerular 1 2
cytoplasmatic 1 0
protanomaly 1 0
acetyl 1 0
centrotemporal 1 0
biconvex 1 0
alexia 1 0
bar 1 0
lymphangioma 1 0
iridodonesis 1 0
eosinophilia 1 0
eosinophilic 1 4
dappling 1 0
oncocytic 1 0
influenzae 1 0
tubuloreticular 1 0
scintillating 1 0
straightening 1 0
postlingual 1 0
corporis 1 0
jones 1 0
iduronate 1 0
stained 1 0
nonexposed 1 0
affect 1 0
facing 1 0
intractable 1 0
reye 1 0
eyes 1 0
sea 1 0
sixth 1 0
hydroxyprolinemia 1 0
salmonella 1 0
acylglycine 1 0
urolithiasis 1 0
handgrip 1 0
procedure 1 0
immunologic 1 0
dysdiadochokinesis 1 0
microspherocytosis 1 0
ultraviolet 1 0
fibrofolliculoma 1 0
hypoglycosylation 1 0
spider 1 0
protuberances 1 0
triiodothyronine 1 0
hindbrain 1 2
myokymic 1 0
extracranial 1 0
apical 1 1
ureteropelvic 1 0
contact 1 0
metrorrhagia 1 0
lateralized 1 0
cogwheel 1 0
pectoris 1 0
neutrophillia 1 0
euryblepharon 1 0
pseudoexfoliation 1 0
little 1 0
phenylpyruvic 1 0
laryngotracheal 1 0
hypocapnia 1 0
deletions 1 0
aterial 1 0
protuberant 1 0
pseudocyst 1 0
glossoptosis 1 0
hypercortisolism 1 0
cystocele 1 0
homocysteine 1 0
striata 1 0
tenderness 1 0
six 1 0
outfoldings 1 0
bound 1 0
extralobar 1 0
thalami 1 0
enteric 1 4
hypomagnesemia 1 0
multimer 1 0
tunnel 1 0
manifestations 1 0
big 1 0
mechanical 1 0
astereognosia 1 0
sick 1 0
retinalis 1 0
aminoglycoside 1 0
mosaicism 1 0
pallidal 1 0
microvilli 1 0
altitudinal 1 0
autistic 1 0
rhabdomylosis 1 0
aspartylglucosaminuria 1 0
pugilistic 1 0
hyperperistalsis 1 0
ishihara 1 0
anteroposteriorly 1 0
chordee 1 0
hypocalcemia 1 0
hyperflexibility 1 0
polymorphonuclear 1 0
midphalangeal 1 0
proportion 1 0
melena 1 0
coralliform 1 0
erythropoesis 1 0
arterioles 1 0
nonnuclear 1 0
angioedema 1 0
deja 1 0
change 1 0
ganglioneuroma 1 0
intercostal 1 0
gnrh 1 0
hepatocytes 1 0
lobulation 1 0
hypoalphalipoproteinemia 1 0
pronation 1 0
anterio 1 0
skewed 1 0
lymphopenia 1 0
singultus 1 0
exertional 1 0
cotton 1 0
traction 1 0
thyroglossal 1 0
microgastria 1 0
macrogyria 1 0
megalocornea 1 0
lobar 1 0
nephrons 1 0
striation 1 0
229e 1 0
directly 1 0
deafness 1 0
furrowed 1 0
iridocyclitis 1 0
mottling 1 0
nephroma 1 0
roots 1 0
hypochloremia 1 0
thrombocytosis 1 0
diaminoaciduria 1 0
sebaceum 1 0
pupillae 1 3
attached 1 0
cholangiocarcinoma 1 0
hemiagenesis 1 0
nonimmune 1 0
scleral 1 1
nonword 1 0
switch 1 0
sclerae 1 0
cavum 1 0
gangrene 1 0
opisthotonus 1 0
nucleated 1 5
stercoral 1 0
coronavirus 1 0
anuria 1 0
medication 1 0
control 1 0
hydropic 1 0
sylvian 1 0
spongiosa 1 0
hereditary 1 0
oppenheim 1 0
arachidonic 1 0
buried 1 0
insensitive 1 0
episode 1 0
polygenic 1 0
hemispheres 1 0
lipofuscin 1 0
chylopericardium 1 0
inadequate 1 0
lenticularis 1 0
bitot 1 0
tissues 1 0
hypersexuality 1 0
dens 1 0
mucinous 1 0
scaphoids 1 0
hydroxyphenylacetic 1 0
vara 1 0
leukomalacia 1 0
generalization 1 0
hydroureter 1 0
daytime 1 0
lobulated 1 0
painless 1 0
discoloration 1 0
extended 1 0
amelogenesis 1 0
myoclonias 1 0
decremental 1 0
alanine 1 0
coombs 1 0
intake 1 0
infracardiac 1 0
oliguria 1 0
keratoconus 1 0
serratia 1 0
texture 1 0
pneumococcal 1 0
hypomethioninemia 1 0
priapism 1 0
diploe 1 0
mortality 1 0
juxtaductal 1 0
bun 1 0
fugax 1 0
pyropoikilocytosis 1 0
conspicuously 1 0
microretrognathia 1 0
hypoautofluorescent 1 0
hemothorax 1 0
adenosylcobalamin 1 0
hydranencephaly 1 0
cd43 1 1
variant 1 0
unusual 1 0
striated 1 11
demeanor 1 0
reticulocytopenia 1 0
monilial 1 0
intranuclear 1 0
trimester 1 0
gluconeogenesis 1 0
mitochondrion 1 0
horseshoe 1 0
hyperoxemia 1 0
tuba 1 0
horns 1 0
higher 1 0
clotting 1 0
pancytopenia 1 0
vivid 1 0
atlanto 1 0
initiation 1 0
herpes 1 0
missing 1 0
doughy 1 0
bronchomegaly 1 0
shyness 1 0
flapping 1 0
aspergillus 1 0
ubiquinone 1 0
cachexia 1 0
demineralization 1 0
tetraamelia 1 0
180 1 0
consumption 1 0
cd57 1 0
apathy 1 0
apocrine 1 1
oxycephaly 1 0
anhidrotic 1 0
bipolar 1 15
parenchyma 1 2
tegumentary 1 0
leaflet 1 0
dysmorphic 1 0
hydronephrosis 1 0
bicarbonaturia 1 0
isoleucine 1 0
hyphema 1 0
adrenogenital 1 0
children 1 0
meckel 1 0
myelofibrosis 1 0
hemimacroglossia 1 0
hyperthreoninuria 1 0
contractility 1 0
amyelination 1 0
midfrontal 1 0
sedimentation 1 0
intact 1 0
keratocystic 1 0
anagen 1 0
membranoproliferative 1 0
disinhibition 1 0
paronychia 1 0
celosomia 1 0
seasonal 1 0
hypohidrotic 1 0
lacunar 1 0
wean 1 0
osgood 1 0
leak 1 0
hyperalbuminemia 1 0
adnexal 1 0
lacunae 1 0
annular 1 0
tangles 1 0
calcifediol 1 0
twisted 1 0
pseudocoarctation 1 0
hesitancy 1 0
bifidum 1 0
angiopathy 1 0
albuminuria 1 0
cementoma 1 0
emotion 1 0
responses 1 0
seminoma 1 0
cranium 1 0
keloids 1 0
grayish 1 0
oligosaccharides 1 0
butyryl 1 0
hyperhomocystinemia 1 0
discoid 1 1
cardiological 1 0
diencephalon 1 1
galactoside 1 0
hyperphosphatemia 1 0
megaureter 1 0
proboscis 1 0
receptors 1 0
individual 1 0
behaviors 1 0
isometric 1 0
enanthema 1 0
towards 1 0
thromboembolic 1 0
biphenotypic 1 0
dichromacy 1 0
hematocele 1 0
fibroadenoma 1 0
eosinophils 1 0
glucosephosphate 1 0
crimped 1 0
floating 1 0
cat 1 0
studies 1 0
mediated 1 0
orientation 1 0
hypernatriuria 1 0
falciform 1 0
hyperfibrinogenemia 1 0
cd3 1 2
valine 1 0
secreting 0 78
dendritic 0 75
progenitor 0 56
sensu 0 54
organ 0 40
myocyte 0 39
thymocyte 0 35
cd38 0 31
molecule 0 27
goblet 0 24
product 0 22
cleavage 0 22
proteolytic 0 22
nematoda 0 21
nk 0 20
enteroendocrine 0 19
recta 0 18
mesenchymal 0 18
derived 0 18
vasa 0 18
cd34 0 18
cd11b 0 18
hematopoietic 0 17
ganglion 0 17
proper 0 17
entity 0 16
mesenchyme 0 16
protostomia 0 16
precursor 0 15
member 0 15
interneuron 0 15
myoepithelial 0 15
lactiferous 0 14
melanocyte 0 14
integrin 0 14
internodal 0 14
kit 0 14
vertebrata 0 13
henle 0 13
mammary 0 13
epidermis 0 12
embryonic 0 12
classical 0 12
subunit 0 12
mus 0 12
microvascular 0 12
intraepithelial 0 12
arteriole 0 11
viscerocranial 0 11
lectin 0 11
chromaffin 0 11
quality 0 11
columnar 0 11
peptide 0 11
ciliated 0 11
acinus 0 11
accumulating 0 10
brush 0 10
myoblast 0 10
sheath 0 10
enterocyte 0 10
mesothelial 0 10
erythroblast 0 10
labyrinth 0 10
fc 0 10
hindlimb 0 10
cd14 0 10
neuromast 0 10
subdivision 0 10
bronchiole 0 10
principal 0 9
digestive 0 9
mhc 0 9
basophil 0 9
stratum 0 9
plasmacytoid 0 9
fibrocyte 0 9
langerhans 0 9
cd27 0 9
cd16 0 9
langerin 0 8
preadipocyte 0 8
microfold 0 8
multi 0 8
domain 0 8
effector 0 8
mononuclear 0 8
epsilon 0 8
astrocyte 0 8
basophilic 0 8
removed 0 8
adipocyte 0 8
intercalated 0 8
bronchus 0 8
cd103 0 8
hippocampal 0 8
transcription 0 8
b220 0 8
trophoblast 0 8
regular 0 8
metanephric 0 7
chondrocyte 0 7
endoderm 0 7
spore 0 7
pro 0 7
adventitia 0 7
conventional 0 7
glya 0 7
appendix 0 7
crypt 0 7
luminal 0 7
stratified 0 7
unswitched 0 7
peritubular 0 7
dermis 0 7
cd1a 0 7
support 0 7
schwann 0 6
terminally 0 6
urothelium 0 6
gut 0 6
vgamma1.1 0 6
chief 0 6
urothelial 0 6
alveolus 0 6
human 0 6
otic 0 6
vgamma2 0 6
papilla 0 6
76 0 6
satellite 0 6
plasmablast 0 6
endochondral 0 6
supporting 0 6
lived 0 6
differentiated 0 6
vdelta6.3 0 6
mesonephric 0 6
prestalk 0 6
ly 0 6
promyelocyte 0 6
phagocyte 0 6
multinucleate 0 6
cd11c 0 6
gr1 0 5
native 0 5
multipotent 0 5
extraembryonic 0 5
adenohypophysis 0 5
efferent 0 5
initial 0 5
paneth 0 5
osteoblast 0 5
acinar 0 5
suppressor 0 5
basket 0 5
convoluted 0 5
keratinized 0 5
migratory 0 5
cytotoxic 0 5
reticulocyte 0 5
interventricular 0 5
propria 0 5
neuroblast 0 5
pericyte 0 5
interstitium 0 5
cd24 0 5
mesoderm 0 5
peyer's 0 5
organism 0 5
seminal 0 5
afferent 0 5
barrier 0 5
interrenal 0 5
nonkeratinized 0 4
spiral 0 4
p 0 4
interlobular 0 4
plasmatocyte 0 4
subfamily 0 4
tunica 0 4
ccr4 0 4
sinusoid 0 4
endo 0 4
absorptive 0 4
pars 0 4
keratinocyte 0 4
distalis 0 4
metamyelocyte 0 4
myeloblast 0 4
interlobulary 0 4
division 0 4
myelocyte 0 4
gyrus 0 4
uninucleate 0 4
gonad 0 4
igd 0 4
oviduct 0 4
neurosecretory 0 4
neutrophilic 0 4
cd8alpha 0 4
tonsil 0 4
ly49ci 0 4
ecto 0 4
gall 0 4
conidium 0 4
endopterygota 0 4
cadherin 0 4
interatrial 0 4
pp 0 4
cd41 0 4
cd69 0 4
cd56 0 4
cd94 0 4
nucleate 0 4
cytoplasm 0 4
hemocyte 0 4
cd7 0 4
object 0 3
xenopus 0 3
m 0 3
component 0 3
pan 0 3
cxcr3 0 3
oligodendrocyte 0 3
gamete 0 3
odontoblast 0 3
oocyte 0 3
proerythroblast 0 3
epicardial 0 3
mechanoreceptor 0 3
stylopod 0 3
lining 0 3
corneum 0 3
notochordal 0 3
seminiferous 0 3
electrically 0 3
pneumocyte 0 3
strial 0 3
paired 0 3
oligopotent 0 3
lieberkuhn 0 3
amnion 0 3
sieve 0 3
mucus 0 3
resident 0 3
mesodermal 0 3
pillar 0 3
superfamily 0 3
thermoreceptor 0 3
obliquely 0 3
diptera 0 3
fate 0 3
spermatocyte 0 3
ectoderm 0 3
nephrocyte 0 3
mucous 0 3
odontoclast 0 3
crista 0 3
vomeronasal 0 3
paraganglion 0 3
omentum 0 3
developing 0 3
mantle 0 3
polychromatophilic 0 3
substance 0 3
pulposus 0 3
continuant 0 3
interplexiform 0 3
prepuce 0 3
kappa 0 3
scavenger 0 3
megaspore 0 3
venule 0 3
gabaergic 0 3
glioblast 0 3
lymphoblast 0 3
fin 0 3
genus 0 3
plant 0 3
pinealocyte 0 3
lymphangioblast 0 3
macroconidium 0 3
crystal 0 3
camera 0 3
luteal 0 3
nf 0 3
box 0 3
melanogaster 0 3
microglial 0 3
arthroconidium 0 3
cd42 0 3
malpighian 0 3
aminopeptidase 0 3
yolk 0 3
arthropoda 0 3
mycetozoa 0 3
cd2 0 3
neocortex 0 2
vacuolar 0 2
g 0 2
thy 0 2
peroxidase 0 2
echinococcus 0 2
folliculostellate 0 2
takifugu 0 2
mammalia 0 2
immortal 0 2
bronchioalveolar 0 2
pongo 0 2
multinuclear 0 2
lactotransferrin 0 2
sphenodon 0 2
inhibitory 0 2
ampulla 0 2
xylem 0 2
drosophila 0 2
vertebrate 0 2
stato 0 2
monodon 0 2
reniform 0 2
tingible 0 2
ccr6 0 2
phloem 0 2
mesangium 0 2
nucleotidase 0 2
testudines 0 2
integumentary 0 2
spinosum 0 2
pedal 0 2
anucleate 0 2
macaca 0 2
fenestrated 0 2
transversely 0 2
myofibroblast 0 2
morula 0 2
rattus 0 2
myeloperoxidase 0 2
granulosum 0 2
ly49d 0 2
ammon's 0 2
ly49h 0 2
trigone 0 2
selectin 0 2
paraaortic 0 2
areolar 0 2
vitro 0 2
circumventricular 0 2
homo 0 2
dentine 0 2
caenorhabditis 0 2
jaculus 0 2
magnocellular 0 2
stalk 0 2
archosauria 0 2
fucosyltransferase 0 2
sirpa 0 2
main 0 2
fibrosus 0 2
bearing 0 2
danio 0 2
physical 0 2
gorilla 0 2
processed 0 2
socket 0 2
vgamma5 0 2
17 0 2
macropus 0 2
cathepsin 0 2
sca1 0 2
buccal 0 2
oryzias 0 2
densa 0 2
neuroglioblast 0 2
80 0 2
binucleate 0 2
glutamatergic 0 2
alobate 0 2
prebcr 0 2
caecum 0 2
myotube 0 2
noradrenergic 0 2
p100 0 2
oxyphil 0 2
signaling 0 2
periodontium 0 2
subgenus 0 2
egg 0 2
decidua 0 2
plasmactyoid 0 2
macroglial 0 2
cd209 0 2
tetraodon 0 2
cultured 0 2
slam 0 2
fast 0 2
multicellular 0 2
pseudostratified 0 2
ribosyl 0 2
rich 0 2
oncogene 0 2
glycosylated 0 2
thrombomodulin 0 2
endocervix 0 2
excretory 0 2
presenting 0 2
carcinoembryonic 0 2
alc 0 2
domains 0 2
golgi 0 2
ror 0 2
lobed 0 2
tracheid 0 2
ccaat 0 2
alternatively 0 2
visceromotor 0 2
mouse 0 2
mother 0 2
rialpha 0 2
paracrine 0 2
gastrin 0 2
sensing 0 2
m130 0 2
sigmoid 0 2
guard 0 2
cushion 0 2
orthochromatic 0 2
lobule 0 2
cardioblast 0 2
glycophorin 0 2
pronephric 0 2
paraganglial 0 2
myelinating 0 2
polymodal 0 2
somatomotor 0 2
blastoconidium 0 2
d1 0 2
circulatory 0 2
f4 0 2
foregut 0 2
canaliculus 0 2
eyeball 0 2
prominin 0 2
nocireceptor 0 2
nk1.1 0 2
myxine 0 2
gata 0 2
bm2 0 2
bm3 0 2
ligand 0 2
ornithorhynchus 0 2
cajal 0 2
adventitial 0 2
haploid 0 2
amoeboid 0 2
bos 0 2
chordata 0 2
slamf1 0 2
scolopidial 0 2
extraglomerular 0 2
integumental 0 2
enhancer 0 2
cd28 0 2
cd22 0 2
sus 0 2
cd1c 0 2
keratinizing 0 2
bud 0 2
elastic 0 2
cd48 0 2
cd44 0 2
ploidy 0 2
gallus 0 2
anolis 0 2
cd71 0 2
hemopoietic 0 2
histocompatibility 0 2
monodelphis 0 2
mortal 0 2
retrotrapezoid 0 2
cd161 0 2
nkg2 0 2
metazoa 0 2
connecting 0 2
diploid 0 2
gastrula 0 2
cyclase 0 2
cd115 0 2
proto 0 2
cap 0 2
erinaceus 0 2
cd5 0 2
cd9 0 2
nonskeletal 0 1
coelurosauria 0 1
glires 0 1
ecdysozoa 0 1
tylotrich 0 1
glycocalyx 0 1
holocrine 0 1
competent 0 1
glr 0 1
mineralocorticoid 0 1
0 0 1
nigroviridis 0 1
cardiomyocyte 0 1
gastropoda 0 1
osteoglossomorpha 0 1
myxiniformes 0 1
flight 0 1
percomorphaceae 0 1
vasculosus 0 1
alkali 0 1
metallopeptidase 0 1
spanning 0 1
garland 0 1
urokinase 0 1
sebum 0 1
lactosylceramide 0 1
cyanophore 0 1
cingulata 0 1
excitatory 0 1
anchoring 0 1
ncam 0 1
claudius 0 1
leucoblast 0 1
pax 0 1
neurectodermal 0 1
suina 0 1
metanephros 0 1
lymphomyeloid 0 1
fated 0 1
oryziinae 0 1
hexapoda 0 1
juxtamedullary 0 1
preameloblast 0 1
disci 0 1
enterocrine 0 1
hyphal 0 1
pyrophosphatase 0 1
teleostei 0 1
tylopoda 0 1
sauropsida 0 1
vasoactive 0 1
pioneer 0 1
actinopterygii 0 1
erinaceidae 0 1
oxytocin 0 1
neuroplacodal 0 1
suidae 0 1
laevis 0 1
conduit 0 1
prespore 0 1
cypriniformes 0 1
aciculata 0 1
phe 0 1
didelphidae 0 1
fibrillary 0 1
bovinae 0 1
tr1 0 1
hemangioblast 0 1
cervidae 0 1
stiftchenzellen 0 1
sapiens 0 1
tanycyte 0 1
eurypterygia 0 1
riftia 0 1
motilin 0 1
xenoturbella 0 1
mitogenic 0 1
parenchymal 0 1
chemoreceptor 0 1
mauthner 0 1
flt3 0 1
caecilia 0 1
perineuronal 0 1
basic 0 1
acidic 0 1
globose 0 1
specialized 0 1
fruit 0 1
occurrent 0 1
guidepost 0 1
jelly 0 1
extracellular 0 1
actinopteri 0 1
euteleosteomorpha 0 1
haplorrhini 0 1
periglomerular 0 1
presomitic 0 1
hatching 0 1
saliva 0 1
chelicerata 0 1
drainage 0 1
apparatus 0 1
pterygota 0 1
ependymoglial 0 1
realizable 0 1
rufus 0 1
theca 0 1
somatotropin 0 1
leu 0 1
amnioserosal 0 1
gnathostomata 0 1
coelemic 0 1
dipodinae 0 1
phasianidae 0 1
postmacula 0 1
branchiomeric 0 1
idioblast 0 1
myometrium 0 1
ccr1 0 1
parasympathetic 0 1
amphibia 0 1
somatotroph 0 1
granzyme 0 1
embryo 0 1
notochord 0 1
ameloblast 0 1
trachebronchial 0 1
polychromatic 0 1
taurus 0 1
percomorpharia 0 1
cardiocyte 0 1
paraganglia 0 1
radiata 0 1
ye1 0 1
iguanidae 0 1
heteroneura 0 1
ectocervix 0 1
periderm 0 1
oncocyte 0 1
microspore 0 1
ooblast 0 1
epiblast 0 1
xenacoelomorpha 0 1
pipidae 0 1
cd45ro 0 1
cumulus 0 1
cd45ra 0 1
zoospore 0 1
surfactant 0 1
siboglinidae 0 1
generic 0 1
flatworm 0 1
murinae 0 1
gravity 0 1
amniocyte 0 1
xanthoblast 0 1
melanophage 0 1
dicondylia 0 1
hydrogen 0 1
polychrotinae 0 1
carbon 0 1
specifically 0 1
ditrysia 0 1
warmth 0 1
vasopressin 0 1
coelacanthimorpha 0 1
euploid 0 1
mandibulata 0 1
lugaro 0 1
equatorial 0 1
caniformia 0 1
endospore 0 1
hyperotreti 0 1
centro 0 1
corticotroph 0 1
rodentia 0 1
batoidea 0 1
pressoreceptor 0 1
microsporocyte 0 1
maxillopoda 0 1
paraxial 0 1
fungi 0 1
muller 0 1
precementoblast 0 1
nitrergic 0 1
camelidae 0 1
metabolising 0 1
fut4 0 1
fmet 0 1
saccus 0 1
zona 0 1
mammalian 0 1
enucleated 0 1
neurecto 0 1
imaginal 0 1
proximale 0 1
fixing 0 1
cd45r 0 1
strigiformes 0 1
blastocyst 0 1
cambial 0 1
colony 0 1
general 0 1
attachment 0 1
otomorpha 0 1
keratocyte 0 1
corti 0 1
ponginae 0 1
troglodytes 0 1
trophectodermal 0 1
hominoidea 0 1
conducting 0 1
qualitative 0 1
mucin 0 1
cementocyte 0 1
dilatator 0 1
rhabditoidea 0 1
subsidiary 0 1
nuocyte 0 1
pseudounipolar 0 1
polytene 0 1
spermatid 0 1
physeteridae 0 1
trans 0 1
contractile 0 1
histamine 0 1
subgroup 0 1
heterocyst 0 1
hydroxy 0 1
bottle 0 1
echinoidea 0 1
transparent 0 1
chordamesoderm 0 1
integral 0 1
eurydendroid 0 1
glutinosa 0 1
lobate 0 1
marco 0 1
pituicyte 0 1
monodontidae 0 1
blast 0 1
tetrapoda 0 1
podocyte 0 1
splenocyte 0 1
totipotent 0 1
oenocyte 0 1
blastoderm 0 1
hensen 0 1
chondroblast 0 1
dopamanergic 0 1
tartrate 0 1
anhimidae 0 1
mysticeti 0 1
anthozoa 0 1
parvocellular 0 1
winged 0 1
tc17 0 1
dn1 0 1
polygonal 0 1
dn3 0 1
dn2 0 1
ovalentaria 0 1
dn4 0 1
anatinus 0 1
gonocyte 0 1
amphiesmenoptera 0 1
sabellida 0 1
cylindrical 0 1
intervertebralis 0 1
rhodopsin 0 1
klrb1 0 1
proximo 0 1
motoneuron 0 1
prokaryotic 0 1
cyclophyllidea 0 1
eumetazoa 0 1
corpuscle 0 1
cystoblast 0 1
monoblast 0 1
hepatocyte 0 1
echinodermata 0 1
anguilliformes 0 1
scolopale 0 1
banded 0 1
phocidae 0 1
bythitoidei 0 1
nurse 0 1
pavement 0 1
oogonial 0 1
telencephalon 0 1
muridae 0 1
scaffold 0 1
syncytial 0 1
gelatinase 0 1
stria 0 1
perineurium 0 1
unimodal 0 1
forkhead 0 1
endorphin 0 1
eucestoda 0 1
spermatogonium 0 1
mammotroph 0 1
dra 0 1
unilaminar 0 1
muraenidae 0 1
balaenopteridae 0 1
meninx 0 1
sustentacular 0 1
peridontal 0 1
polypeptide 0 1
ectonucleotide 0 1
cytotrophoblast 0 1
batrachia 0 1
echinozoa 0 1
trichome 0 1
tarsiidae 0 1
definitive 0 1
chimaeriformes 0 1
erythroblasts 0 1
kolmer 0 1
coronet 0 1
acalyptratae 0 1
epitheliocyte 0 1
alouatta 0 1
fusimotor 0 1
hyalocyte 0 1
mer 0 1
vacuole 0 1
enucleate 0 1
sarcopterygii 0 1
segmented 0 1
episquamata 0 1
ascidiacea 0 1
keratin 0 1
lubricant 0 1
craniata 0 1
sauria 0 1
contribution 0 1
chemosensory 0 1
dx5 0 1
telencephalic 0 1
caeciliidae 0 1
primordial 0 1
module 0 1
hypocretin 0 1
animal 0 1
processing 0 1
22 0 1
transporting 0 1
insectivora 0 1
oospore 0 1
microconidium 0 1
1a 0 1
1b 0 1
1c 0 1
1l 0 1
undifferentiated 0 1
triggering 0 1
littoral 0 1
erythrophore 0 1
cercopithecinae 0 1
canidae 0 1
unipotent 0 1
48 0 1
rohon 0 1
vascularis 0 1
nonglandular 0 1
cephalochordata 0 1
beard 0 1
myoid 0 1
histaminergic 0 1
muroidea 0 1
premigratory 0 1
prototheria 0 1
granulosa 0 1
merocrine 0 1
didelphinae 0 1
chromophobe 0 1
75 0 1
cholangiocyte 0 1
osteoglossiformes 0 1
6c2 0 1
diprotodontia 0 1
6a 0 1
endosteum 0 1
6e 0 1
6g 0 1
perineural 0 1
dipnoi 0 1
spiny 0 1
eleutherozoa 0 1
norvegicus 0 1
adaxial 0 1
micropylar 0 1
presumptive 0 1
cnidaria 0 1
ascospore 0 1
defensive 0 1
bodily 0 1
centripetally 0 1
lysozyme 0 1
hemolymphoid 0 1
glucagon 0 1
activator 0 1
cecum 0 1
paraventricular 0 1
iia 0 1
macrosialin 0 1
ependymal 0 1
neognathae 0 1
acanthomorphata 0 1
elopocephala 0 1
enkephalin 0 1
ec1 0 1
ec2 0 1
interfollicle 0 1
neoptera 0 1
innate 0 1
sciurognathi 0 1
interdental 0 1
degenerate 0 1
teleostomi 0 1
interneuromast 0 1
runt 0 1
psto 0 1
obtectomera 0 1
pole 0 1
ecl 0 1
gonadtroph 0 1
epicardium 0 1
tether 0 1
adapting 0 1
polyphenol 0 1
pygmaeus 0 1
secretin 0 1
2b4 0 1
chromadorea 0 1
ornithorhynchidae 0 1
aggregate 0 1
array 0 1
phasianinae 0 1
cementoblast 0 1
annelida 0 1
sialic 0 1
lophotrochozoa 0 1
dipodidae 0 1
feyrter 0 1
galanergic 0 1
thecogen 0 1
egf 0 1
cyclorrhapha 0 1
cd200 0 1
decidual 0 1
mueller 0 1
microcirculatory 0 1
otophysa 0 1
electroreceptor 0 1
adrianichthyoidei 0 1
insects 0 1
petromyzontidae 0 1
xanthophore 0 1
hemichordata 0 1
heteroatomic 0 1
myb 0 1
phyllodocida 0 1
pore 0 1
sphenodontidae 0 1
nereididae 0 1
dn2b 0 1
dn2a 0 1
corona 0 1
alimentary 0 1
cetacea 0 1
osteochondroclast 0 1
parathyoid 0 1
cd217 0 1
somatostatin 0 1
gabanergic 0 1
antrum 0 1
polyploid 0 1
schizophora 0 1
tracheoblast 0 1
carnivora 0 1
atheriniformes 0 1
bilateria 0 1
basophillic 0 1
neoteleostei 0 1
companion 0 1
emp24 0 1
spongiotrophoblast 0 1
stretch 0 1
pstab 0 1
laurasiatheria 0 1
tachyglossidae 0 1
insecta 0 1
tetraodontiformes 0 1
clupeocephala 0 1
myoendocrine 0 1
preodontoblast 0 1
haemolymphatic 0 1
agm 0 1
colubroidea 0 1
alanyl 0 1
ophidiimorpharia 0 1
drosophilinae 0 1
petromyzontiformes 0 1
kenyon 0 1
paniscus 0 1
chalcogen 0 1
serpentes 0 1
peptidergic 0 1
programmed 0 1
trichogen 0 1
alouattinae 0 1
tetradontoidea 0 1
lipocalin 0 1
chondrichthyes 0 1
talpidae 0 1
elegans 0 1
mycetozoan 0 1
dinosauria 0 1
toxicofera 0 1
muscomorpha 0 1
viscus 0 1
antipodal 0 1
biogenic 0 1
lumen 0 1
mineralized 0 1
modified 0 1
mammosomatotroph 0 1
opisthokonta 0 1
amniota 0 1
peridermal 0 1
larval 0 1
tetraodontidae 0 1
tetraspanin 0 1
odontocyte 0 1
organisms 0 1
syndecan 0 1
euteleostomi 0 1
coupled 0 1
amine 0 1
basale 0 1
supportive 0 1
tarsiiformes 0 1
cartwheel 0 1
lepidoptera 0 1
brachycera 0 1
orycteropodidae 0 1
agduhr 0 1
mannose 0 1
fibrocartilage 0 1
cx3c 0 1
neopterygii 0 1
osteoglossocephala 0 1
tormogen 0 1
tetraodontoidei 0 1
sclerenchyma 0 1
colubridae 0 1
elasmobranchii 0 1
zygospore 0 1
viscera 0 1
phenols 0 1
c1q 0 1
potency 0 1
multilocularis 0 1
endoglin 0 1
epinephrin 0 1
corpuscule 0 1
arginase 0 1
professional 0 1
ampullaris 0 1
myxininae 0 1
photopic 0 1
granulocytopoietic 0 1
parafollicular 0 1
canalipalpata 0 1
iota 0 1
cyprinoidea 0 1
blastconidium 0 1
enterochromaffin 0 1
prickle 0 1
cationic 0 1
statoacoustic 0 1
bifurcata 0 1
euarchontoglires 0 1
elopomorpha 0 1
melanoblast 0 1
femural 0 1
synergid 0 1
lacking 0 1
chiroptera 0 1
beige 0 1
tracheary 0 1
iridophore 0 1
holocephali 0 1
chemotactic 0 1
physeter 0 1
organismal 0 1
duplicate 0 1
foveolar 0 1
crocodylia 0 1
xenopodinae 0 1
ecdysteroid 0 1
submucosal 0 1
microvillous 0 1
chorion 0 1
apud 0 1
tonsillar 0 1
mammal 0 1
rhabditida 0 1
unidentata 0 1
glossata 0 1
experimentally 0 1
intralobular 0 1
periperhal 0 1
meristematic 0 1
chromophil 0 1
multilaminar 0 1
latipes 0 1
mesothelium 0 1
cypriniphysae 0 1
neuroglioform 0 1
cercopithecidae 0 1
xenoturbellida 0 1
luteum 0 1
cyprinidae 0 1
limiting 0 1
shps 0 1
serotonergic 0 1
serosal 0 1
cavitated 0 1
glycinergic 0 1
leptomeningeal 0 1
pancrustacea 0 1
simiiformes 0 1
elicited 0 1
eutheria 0 1
crustacea 0 1
autopod 0 1
sophophora 0 1
immaterial 0 1
bergmann 0 1
lamellocyte 0 1
musculus 0 1
adrianichthyidae 0 1
stuff 0 1
eggshell 0 1
heterokaryon 0 1
erinaceinae 0 1
afrotheria 0 1
hepatoblast 0 1
homininae 0 1
trematoda 0 1
periodontal 0 1
anura 0 1
syncytiotrophoblast 0 1
broncial 0 1
ostariophysi 0 1
coelomocyte 0 1
visible 0 1
deuterostomia 0 1
ghrelin 0 1
osteoglossocephalai 0 1
ephydroidea 0 1
pacemaker 0 1
transmembrane 0 1
closable 0 1
epithem 0 1
premacula 0 1
generative 0 1
leucophore 0 1
prechondroblast 0 1
cytotoxicity 0 1
photosynthetic 0 1
bovidae 0 1
proteinase 0 1
ruminantia 0 1
prohemocyte 0 1
hyperoartia 0 1
neuroepidermoblast 0 1
theropoda 0 1
eukaryota 0 1
punctatus 0 1
anseriformes 0 1
pluripotent 0 1
b7 0 1
humidity 0 1
euacanthomorphacea 0 1
intima 0 1
ab 0 1
vermiform 0 1
arthopoda 0 1
pyrenocyte 0 1
chemical 0 1
mollusca 0 1
epidermoblast 0 1
neuroepithelium 0 1
nongranular 0 1
procrystal 0 1
feliformia 0 1
be2 0 1
mesonephros 0 1
boreoeutheria 0 1
be1 0 1
bcr 0 1
seromucus 0 1
europaeus 0 1
neolepidoptera 0 1
founder 0 1
mulatta 0 1
co 0 1
atrichoblast 0 1
dasypodidae 0 1
bombesin 0 1
plasminogen 0 1
gymnophiona 0 1
fly 0 1
rerio 0 1
neprilysin 0 1
cholinergic 0 1
adrenergic 0 1
transducer 0 1
kupffer 0 1
monoceros 0 1
sialoadhesin 0 1
bursa 0 1
saurischia 0 1
ec 0 1
neutrophillic 0 1
nucleotidylexotransferase 0 1
crystallin 0 1
platyrrhini 0 1
tears 0 1
fos 0 1
cyanoblast 0 1
diencephalic 0 1
domed 0 1
didelphimorphia 0 1
ctenosquamata 0 1
clara 0 1
sporangiospore 0 1
myogenic 0 1
starch 0 1
perforin 0 1
equidae 0 1
endodermal 0 1
hominidae 0 1
inactive 0 1
tbx21 0 1
mucilage 0 1
theria 0 1
chordamesodermal 0 1
metal 0 1
caudata 0 1
platynereis 0 1
platyhelminthes 0 1
nemertea 0 1
monotremata 0 1
spheroplast 0 1
bm1 0 1
bm4 0 1
domestica 0 1
bm5 0 1
orthochromatophilic 0 1
polyatomic 0 1
craniocervical 0 1
cetartiodactyla 0 1
iguania 0 1
copepoda 0 1
rubripes 0 1
canis 0 1
costimulator 0 1
perijunctional 0 1
conidiophore 0 1
skeletogenic 0 1
galactosyltransferase 0 1
camelus 0 1
megasporocyte 0 1
actinomycete 0 1
asexual 0 1
elopocephalai 0 1
primates 0 1
acoelomorpha 0 1
tunicata 0 1
permanently 0 1
plus 0 1
myrosin 0 1
lepidosauria 0 1
felidae 0 1
p3 0 1
seam 0 1
cercopithecoidea 0 1
beta7 0 1
proboscidea 0 1
germinativum 0 1
invertebrate 0 1
arachnida 0 1
ophidiiformes 0 1
hexacorallia 0 1
myometrial 0 1
panarthropoda 0 1
pdgf 0 1
amacrine 0 1
nkga2 0 1
r1 0 1
r2 0 1
r3 0 1
r4 0 1
r5 0 1
r6 0 1
pu 0 1
r7 0 1
r8 0 1
acidophil 0 1
eukaryotic 0 1
zygote 0 1
lambda 0 1
cuticle 0 1
pylroric 0 1
branchiostomidae 0 1
glomerulosa 0 1
carolinensis 0 1
viridiplantae 0 1
drosophilina 0 1
boettcher 0 1
drosophilini 0 1
unipolar 0 1
thyrotroph 0 1
endopolyploid 0 1
polychaeta 0 1
quarternary 0 1
t1 0 1
minus 0 1
11a 0 1
monopoietic 0 1
branchiomotor 0 1
insulating 0 1
cd1d 0 1
metatheria 0 1
macropodidae 0 1
angioblastic 0 1
cyclostomata 0 1
ionocyte 0 1
cd19 0 1
muraeninae 0 1
hydroxides 0 1
glutamyl 0 1
inducible 0 1
tg 0 1
porifera 0 1
mononucleate 0 1
phosphodiesterase 0 1
preosteoblast 0 1
beloniformes 0 1
hilus 0 1
formyl 0 1
granulated 0 1
deiter's 0 1
hypodermal 0 1
migrating 0 1
substrate 0 1
ribonuclease 0 1
crocodylidae 0 1
thromboblast 0 1
collenchymal 0 1
odontoceti 0 1
meynert 0 1
pharyngotympanic 0 1
adepithelial 0 1
chlamydospore 0 1
cd33 0 1
atelidae 0 1
sphenodontia 0 1
gag 0 1
multipolar 0 1
ceriantharia 0 1
echinocyte 0 1
zeta 0 1
types 0 1
osteocyte 0 1
cd59 0 1
pipoidea 0 1
meristemoid 0 1
basidiospore 0 1
papilionoidea 0 1
potent 0 1
dikaryon 0 1
iridoblast 0 1
lagomorpha 0 1
sirp 0 1
perissodactyla 0 1
collar 0 1
peloderinae 0 1
invariant 0 1
thrombocyte 0 1
cd86 0 1
quiescent 0 1
cd83 0 1
branchiostoma 0 1
echidna 0 1
cd80 0 1
trichoblast 0 1
scotopic 0 1
sympathetic 0 1
protoplast 0 1
osteoprogenitor 0 1
corneocyte 0 1
feature 0 1
retzius 0 1
promonocyte 0 1
eomesodermin 0 1
catarrhini 0 1
palpata 0 1
atherinomorphae 0 1
malassez 0 1
eremoneura 0 1
xenarthra 0 1
metallophillic 0 1
galectin 0 1
longirostres 0 1
amnioserosa 0 1
galliformes 0 1
passage 0 1
tubulidentata 0 1
taeniidae 0 1
dipnotetrapodomorpha 0 1
chlorenchyma 0 1
aves 0 1
squamata 0 1
nonsynovial 0 1
wharton's 0 1
myxinidae 0 1
hypodermis 0 1
tc2 0 1
tc1 0 1
rhabditidae 0 1
drosophilidae 0 1
limbus 0 1
cd117 0 1
leukosialin 0 1
pecora 0 1
cd141 0 1
cholecystokin 0 1
gip 0 1
alarm 0 1
meningothelial 0 1
cestoda 0 1
drosophiliti 0 1
histoblast 0 1
giraffidae 0 1
scrofa 0 1
cd1 0 1
blastemal 0 1
